tool/synthetic_gen/raw_challenges/EventuallyOvl/traces/vcd/golden.vcd
$date
    Mar 10, 2025 02:04:57
$end
$version
    Tracer 3.0.0 - By Enrico Fraccaroli <enry.frak@gmail.com> --- 2022/02/15
$end
$timescale
    1ns
$end
$scope module EventuallyOvl_top_bench $end
$scope module EventuallyOvl_top_ $end
    $var wire 1 ;0 clk $end
    $var wire 1 ;1 c_2 $end
    $var wire 1 ;2 c_1 $end
    $var wire 1 ;3 c_3 $end
    $var wire 1 ;4 b_0 $end
    $var wire 1 ;5 c_4 $end
    $var wire 1 ;6 b_2 $end
    $var wire 1 ;7 b_4 $end
    $var wire 1 ;8 a_3 $end
    $var wire 1 ;9 a_0 $end
    $var wire 1 ;10 c_0 $end
    $var wire 1 ;11 a_1 $end
    $var wire 1 ;12 d_0 $end
    $var wire 1 ;13 e_2 $end
    $var wire 1 ;14 f_1 $end
    $var wire 1 ;15 d_3 $end
    $var wire 1 ;16 e_4 $end
    $var wire 1 ;17 f_0 $end
    $var wire 1 ;18 e_0 $end
$upscope $end
$upscope $end
$enddefinitions $end
#0
$dumpvars
1;0
0;1
0;2
0;3
0;4
0;5
0;6
0;7
0;8
0;9
0;10
0;11
0;12
0;13
0;14
0;15
0;16
0;17
0;18
$end
#1
0;0
1;1
1;3
1;4
1;5
1;6
1;9
1;10
#2
1;0
#3
0;0
0;5
0;6
0;9
#4
1;0
#5
0;0
1;2
0;3
0;4
1;6
1;7
1;8
1;9
0;10
#6
1;0
#7
0;0
0;1
1;3
1;4
0;7
1;10
1;11
#8
1;0
1;15
#9
0;0
0;3
0;4
1;5
0;6
1;7
0;8
0;10
0;11
#10
1;0
0;15
#11
0;0
1;1
0;2
1;6
1;11
#12
1;0
#13
0;0
0;1
1;2
1;3
1;4
0;5
0;7
1;8
0;9
1;10
0;11
#14
1;0
1;15
#15
0;0
0;3
0;6
0;8
1;11
#16
1;0
0;15
#17
0;0
0;4
1;7
0;10
0;11
#18
1;0
#19
0;0
1;1
1;6
1;8
1;10
#20
1;0
#21
0;0
0;1
0;2
1;3
#22
1;0
1;15
#23
0;0
1;1
1;2
1;4
1;5
1;9
#24
1;0
1;12
1;14
1;16
#25
0;0
0;3
0;5
0;8
0;9
#26
1;0
0;12
0;14
0;15
0;16
#27
0;0
1;3
0;4
0;6
1;9
0;10
1;11
#28
1;0
#29
0;0
0;1
0;3
1;4
1;5
1;6
0;9
#30
1;0
#31
0;0
0;4
0;5
0;6
0;7
1;8
1;10
#32
1;0
#33
0;0
1;1
1;3
1;6
1;7
0;8
1;9
0;11
#34
1;0
#35
0;0
0;2
1;4
1;5
0;9
1;11
#36
1;0
1;12
1;13
1;14
1;16
1;17
1;18
#37
0;0
0;1
1;2
0;3
0;4
0;10
0;11
#38
1;0
0;12
0;13
0;14
0;16
0;17
0;18
#39
0;0
0;2
1;4
0;7
1;9
1;11
#40
1;0
#41
0;0
1;2
0;5
0;6
1;7
1;8
0;9
#42
1;0
#43
0;0
0;2
1;5
1;6
0;7
0;8
1;9
0;11
#44
1;0
#45
0;0
1;1
1;2
0;4
0;5
0;6
1;7
1;10
1;11
#46
1;0
#47
0;0
0;1
0;2
1;3
0;7
0;10
0;11
#48
1;0
#49
0;0
0;3
1;4
0;9
1;10
1;11
#50
1;0
#51
0;0
1;3
1;5
1;6
1;8
0;10
#52
1;0
1;15
#53
0;0
1;1
1;2
0;4
1;7
0;8
1;10
0;11
#54
1;0
1;12
1;14
0;15
1;16
#55
0;0
0;1
0;2
0;3
0;5
0;6
0;7
1;9
#56
1;0
0;12
0;14
0;16
#57
0;0
1;1
1;3
1;7
1;8
0;9
0;10
#58
1;0
#59
0;0
1;4
1;6
1;9
1;10
#60
1;0
1;15
#61
0;0
1;2
0;3
1;5
0;6
0;8
0;9
0;10
#62
1;0
0;15
#63
0;0
0;1
0;2
1;3
0;4
0;7
#64
1;0
#65
0;0
1;1
1;2
0;3
1;4
0;5
1;8
#66
1;0
#67
0;0
0;1
1;3
1;7
0;8
1;10
1;11
#68
1;0
#69
0;0
1;1
0;2
0;3
1;9
#70
1;0
#71
0;0
1;3
0;9
0;10
0;11
#72
1;0
#73
0;0
0;1
1;2
0;3
0;4
1;6
0;7
#74
1;0
#75
0;0
1;4
1;5
1;10
#76
1;0
#77
0;0
0;4
0;5
1;7
1;9
1;11
#78
1;0
#79
0;0
1;1
1;5
0;6
0;7
1;8
0;9
#80
1;0
#81
0;0
0;1
0;2
1;4
0;5
0;10
0;11
#82
1;0
#83
0;0
1;3
1;5
1;6
0;8
1;9
1;11
#84
1;0
#85
0;0
1;1
0;6
1;7
1;10
0;11
#86
1;0
1;12
1;14
1;16
#87
0;0
1;2
0;3
1;6
1;8
0;9
0;10
1;11
#88
1;0
0;12
1;13
0;14
0;16
1;17
1;18
#89
0;0
1;3
0;4
0;5
0;8
1;9
0;11
#90
1;0
#91
0;0
0;1
0;7
1;10
1;11
#92
1;0
#93
0;0
1;1
0;3
1;4
1;7
0;9
0;10
0;11
#94
1;0
#95
0;0
0;2
0;6
0;7
#96
1;0
#97
0;0
0;1
1;7
1;9
1;11
#98
1;0
#99
0;0
1;1
1;2
1;3
0;4
0;9
#100
1;0
#101
0;0
0;1
1;5
1;6
0;7
1;8
1;9
0;11
#102
1;0
0;13
1;15
0;17
0;18
#103
0;0
0;2
0;3
0;6
1;10
1;11
#104
1;0
0;15
#105
0;0
1;1
1;3
1;4
1;7
#106
1;0
1;12
1;14
1;16
#107
0;0
0;1
1;2
0;3
0;8
0;9
0;11
#108
1;0
#109
0;0
1;3
0;7
1;8
1;9
1;11
#110
1;0
0;12
0;14
0;16
#111
0;0
1;1
0;2
0;3
1;6
0;8
0;9
0;10
#112
1;0
#113
0;0
1;2
1;3
0;5
1;7
1;8
1;9
1;10
#114
1;0
1;13
1;15
1;17
1;18
#115
0;0
0;1
0;2
0;3
0;4
1;5
0;7
0;8
0;9
#116
1;0
0;13
0;15
0;17
0;18
#117
0;0
0;5
#118
1;0
#119
0;0
1;1
1;5
1;7
1;8
#120
1;0
1;12
1;13
1;14
1;16
1;17
1;18
#121
0;0
0;5
#122
1;0
0;12
0;14
0;16
#123
0;0
0;1
1;2
1;3
1;4
0;7
0;11
#124
1;0
0;13
1;15
0;17
0;18
#125
0;0
0;2
0;4
1;5
0;6
1;11
#126
1;0
0;15
#127
0;0
1;4
1;7
0;8
1;9
0;10
0;11
#128
1;0
#129
0;0
1;2
0;3
1;6
1;8
1;11
#130
1;0
#131
0;0
1;1
0;2
0;5
0;8
0;9
0;11
#132
1;0
#133
0;0
1;2
1;3
1;5
0;7
1;8
1;9
#134
1;0
1;15
#135
0;0
0;3
0;9
1;10
1;11
#136
1;0
1;13
0;15
1;17
1;18
#137
0;0
0;1
1;3
0;4
0;5
0;8
1;9
0;10
0;11
#138
1;0
#139
0;0
0;6
1;7
0;9
1;10
#140
1;0
#141
0;0
0;2
1;4
1;9
0;10
1;11
#142
1;0
#143
0;0
0;4
0;9
0;11
#144
1;0
#145
0;0
1;1
0;3
1;4
1;5
#146
1;0
#147
0;0
1;2
1;3
1;6
0;7
1;8
1;10
1;11
#148
1;0
1;15
#149
0;0
0;5
0;6
1;7
0;8
0;10
0;11
#150
1;0
0;13
0;15
0;17
0;18
#151
0;0
0;1
0;3
0;4
1;5
1;8
1;9
#152
1;0
#153
0;0
0;2
1;3
1;4
0;5
#154
1;0
#155
0;0
1;1
1;5
1;6
0;8
0;9
1;10
1;11
#156
1;0
1;12
1;13
1;14
1;16
1;17
1;18
#157
0;0
0;1
1;2
0;3
0;4
0;5
1;8
#158
1;0
0;12
0;13
0;14
0;16
0;17
0;18
#159
0;0
1;1
0;2
1;3
1;5
0;8
1;9
0;10
0;11
#160
1;0
#161
0;0
0;1
1;2
0;5
0;7
1;8
1;11
#162
1;0
1;15
#163
0;0
1;1
0;2
1;4
0;6
1;7
0;11
#164
1;0
0;15
#165
0;0
0;4
1;6
0;8
#166
1;0
#167
0;0
0;3
0;6
1;10
#168
1;0
#169
0;0
0;1
1;4
1;5
0;7
1;8
0;9
#170
1;0
#171
0;0
1;1
1;2
1;11
#172
1;0
#173
0;0
0;2
1;3
1;6
0;8
1;9
0;10
0;11
#174
1;0
#175
0;0
0;1
1;2
0;4
0;5
1;8
1;10
1;11
#176
1;0
1;15
#177
0;0
1;1
0;2
0;3
1;4
1;5
0;8
0;9
0;11
#178
1;0
0;15
#179
0;0
0;4
0;5
0;6
1;7
1;9
#180
1;0
#181
0;0
0;1
1;2
1;4
1;5
1;6
0;7
1;8
0;9
1;11
#182
1;0
#183
0;0
1;7
0;8
1;9
0;10
0;11
#184
1;0
#185
0;0
1;1
0;2
0;4
0;5
0;6
1;8
0;9
1;10
1;11
#186
1;0
#187
0;0
0;1
1;2
1;5
1;6
0;7
1;9
0;11
#188
1;0
#189
0;0
1;1
0;2
1;3
0;5
0;8
1;11
#190
1;0
#191
0;0
1;2
1;4
0;6
0;10
#192
1;0
#193
0;0
0;1
0;2
0;3
1;5
1;6
0;11
#194
1;0
#195
0;0
0;5
0;9
1;10
1;11
#196
1;0
#197
0;0
1;1
1;2
1;5
0;6
1;7
1;8
1;9
0;11
#198
1;0
1;12
1;14
1;16
#199
0;0
0;2
1;3
1;6
0;7
1;11
#200
1;0
0;12
1;13
0;14
1;15
0;16
1;17
1;18
#201
0;0
0;1
0;3
0;6
1;7
0;8
0;10
#202
1;0
0;13
0;15
0;17
0;18
#203
0;0
1;1
1;2
0;5
0;7
1;8
0;9
0;11
#204
1;0
#205
0;0
1;3
0;4
1;5
1;7
0;8
1;9
1;10
1;11
#206
1;0
1;12
1;14
1;16
#207
0;0
0;2
0;3
1;4
1;8
0;9
0;10
#208
1;0
0;12
0;14
0;16
#209
0;0
0;1
1;3
0;4
0;5
1;6
0;7
0;8
1;9
1;10
#210
1;0
#211
0;0
1;2
1;5
1;7
0;9
#212
1;0
1;12
1;14
1;16
#213
0;0
0;2
0;3
1;4
0;6
1;9
0;11
#214
1;0
#215
0;0
0;5
1;6
0;7
0;9
0;10
1;11
#216
1;0
0;12
0;14
0;16
#217
0;0
1;1
1;7
1;8
#218
1;0
#219
0;0
0;1
1;2
1;3
0;4
1;9
#220
1;0
1;15
#221
0;0
1;1
0;3
0;6
0;8
#222
1;0
0;15
#223
0;0
0;1
1;3
1;4
1;5
1;8
1;10
0;11
#224
1;0
1;12
1;14
1;16
#225
0;0
0;2
0;3
1;6
0;7
0;10
1;11
#226
1;0
0;12
0;14
0;16
#227
0;0
1;1
1;3
0;8
0;9
#228
1;0
#229
0;0
1;2
0;3
0;5
1;7
1;9
1;10
0;11
#230
1;0
#231
0;0
1;3
1;5
0;7
1;8
0;9
#232
1;0
1;15
#233
0;0
0;2
0;4
0;5
1;7
1;9
0;10
#234
1;0
#235
0;0
1;4
1;5
0;7
0;8
1;11
#236
1;0
1;13
0;15
1;17
1;18
#237
0;0
0;1
1;2
0;6
1;7
0;9
0;11
#238
1;0
#239
0;0
0;3
0;5
1;6
0;7
#240
1;0
#241
0;0
1;1
1;3
0;4
1;5
0;6
1;7
1;8
1;9
1;10
#242
1;0
1;12
0;13
1;14
1;16
0;17
0;18
#243
0;0
0;1
1;4
0;5
1;6
#244
1;0
0;12
0;14
1;15
0;16
#245
0;0
0;3
1;5
0;6
0;10
#246
1;0
0;15
#247
0;0
0;2
0;4
1;6
0;7
0;9
#248
1;0
#249
0;0
1;1
1;2
1;4
0;8
1;9
1;11
#250
1;0
#251
0;0
0;2
1;3
0;4
0;6
1;7
1;10
0;11
#252
1;0
1;12
1;14
1;16
#253
0;0
0;3
0;5
1;6
0;7
0;10
#254
1;0
0;12
0;14
0;16
#255
0;0
1;2
1;3
1;4
1;5
#256
1;0
#257
0;0
0;1
0;2
0;4
1;7
0;9
#258
1;0
#259
0;0
1;2
0;3
1;4
0;7
1;8
1;9
1;10
#260
1;0
#261
0;0
0;2
0;6
0;9
0;10
1;11
#262
1;0
#263
0;0
1;1
1;2
0;5
1;7
1;9
1;10
0;11
#264
1;0
#265
0;0
0;2
1;3
0;4
1;6
#266
1;0
1;15
#267
0;0
1;2
1;4
1;5
0;6
0;8
1;11
#268
1;0
1;12
1;14
0;15
1;16
#269
0;0
0;2
0;7
0;9
0;10
0;11
#270
1;0
0;12
0;14
0;16
#271
0;0
0;1
0;3
0;5
1;6
1;8
1;9
#272
1;0
#273
0;0
1;2
0;4
1;5
0;6
1;7
0;8
#274
1;0
#275
0;0
0;2
1;3
1;4
0;5
1;6
1;10
1;11
#276
1;0
#277
0;0
1;1
0;4
1;5
0;6
0;7
1;8
0;10
0;11
#278
1;0
#279
0;0
1;2
1;4
0;5
1;6
1;11
#280
1;0
1;13
1;15
1;17
1;18
#281
0;0
0;1
1;5
0;6
0;8
1;10
#282
1;0
0;13
0;15
0;17
0;18
#283
0;0
0;2
0;3
0;4
0;5
1;6
1;7
0;10
#284
1;0
#285
0;0
1;1
1;2
1;5
0;7
0;9
#286
1;0
#287
0;0
0;2
1;4
0;5
0;11
#288
1;0
#289
0;0
0;1
1;2
0;6
1;8
1;10
#290
1;0
#291
0;0
0;2
1;7
0;8
1;9
0;10
#292
1;0
#293
0;0
1;3
1;6
1;8
1;10
#294
1;0
1;15
#295
0;0
1;1
0;3
0;8
0;9
#296
1;0
0;15
#297
0;0
0;1
0;4
1;5
0;6
1;9
#298
1;0
1;12
1;14
1;16
#299
0;0
1;4
1;6
0;7
#300
1;0
0;12
0;14
0;16
#301
0;0
1;3
0;5
1;7
1;8
#302
1;0
1;15
#303
0;0
1;1
1;2
1;5
0;7
0;8
0;10
1;11
#304
1;0
1;13
0;15
1;17
1;18
#305
0;0
0;1
0;3
1;7
1;10
#306
1;0
1;12
0;13
1;14
1;16
0;17
0;18
#307
0;0
0;2
1;3
0;5
0;6
0;7
1;8
0;9
#308
1;0
0;12
0;14
0;16
#309
0;0
1;2
0;3
1;5
1;7
0;8
1;9
#310
1;0
1;12
1;14
1;16
#311
0;0
0;2
1;3
1;6
0;7
0;9
#312
1;0
0;12
0;14
0;16
#313
0;0
1;1
0;4
0;6
1;9
0;10
#314
1;0
#315
0;0
1;6
1;7
0;9
1;10
0;11
#316
1;0
1;12
1;14
1;16
#317
0;0
0;3
1;4
0;6
1;9
#318
1;0
#319
0;0
0;1
1;2
1;3
0;7
0;10
#320
1;0
0;12
0;14
0;16
#321
0;0
0;2
1;6
1;8
1;10
1;11
#322
1;0
1;15
#323
0;0
1;1
0;3
0;4
0;5
0;6
1;7
0;10
0;11
#324
1;0
0;15
#325
0;0
0;1
1;2
1;3
1;5
1;6
0;7
1;11
#326
1;0
1;15
#327
0;0
0;2
1;4
0;5
0;6
1;7
0;11
#328
1;0
0;15
#329
0;0
0;3
0;4
1;6
0;8
1;11
#330
1;0
#331
0;0
0;6
1;8
#332
1;0
#333
0;0
1;2
1;3
0;7
0;9
#334
1;0
#335
0;0
0;2
1;4
1;6
0;8
1;10
0;11
#336
1;0
#337
0;0
1;1
1;2
0;6
1;9
#338
1;0
#339
0;0
0;1
0;3
0;4
1;5
1;6
1;7
1;8
#340
1;0
1;12
1;14
1;16
#341
0;0
0;6
0;7
0;8
0;9
1;11
#342
1;0
0;12
0;14
0;16
#343
0;0
1;1
0;2
1;4
0;10
#344
1;0
#345
0;0
1;2
1;3
0;4
0;5
1;7
1;8
0;11
#346
1;0
#347
0;0
0;1
0;2
0;3
0;8
#348
1;0
#349
0;0
1;3
1;6
1;8
1;9
#350
1;0
1;15
#351
0;0
0;3
0;8
0;9
1;10
#352
1;0
0;15
#353
0;0
1;5
0;6
0;7
1;8
1;9
0;10
1;11
#354
1;0
#355
0;0
1;2
0;5
1;6
1;7
0;8
1;10
0;11
#356
1;0
#357
0;0
1;1
0;6
0;7
0;9
0;10
#358
1;0
#359
0;0
1;3
1;4
1;5
1;10
1;11
#360
1;0
#361
0;0
0;1
0;5
1;6
1;8
1;9
0;11
#362
1;0
1;15
#363
0;0
0;4
1;7
0;8
0;10
1;11
#364
1;0
0;15
#365
0;0
0;7
1;8
0;9
0;11
#366
1;0
1;15
#367
0;0
1;1
0;3
1;5
1;7
0;8
1;9
1;10
#368
1;0
1;12
1;14
0;15
1;16
#369
0;0
0;1
0;2
1;4
0;6
0;7
1;8
0;9
0;10
#370
1;0
0;12
0;14
0;16
#371
0;0
1;1
1;2
0;4
1;6
0;8
1;9
1;10
1;11
#372
1;0
#373
0;0
1;3
0;5
0;10
0;11
#374
1;0
#375
0;0
0;2
0;6
1;8
0;9
1;10
#376
1;0
#377
0;0
1;2
1;5
1;6
0;8
1;9
1;11
#378
1;0
#379
0;0
0;1
0;2
1;4
0;5
1;7
0;10
0;11
#380
1;0
#381
0;0
0;4
0;6
1;8
0;9
#382
1;0
#383
0;0
1;1
1;4
1;6
0;7
0;8
#384
1;0
#385
0;0
0;1
1;2
0;3
0;6
1;7
1;8
1;9
1;10
1;11
#386
1;0
#387
0;0
0;2
0;4
1;5
1;6
0;7
0;9
#388
1;0
#389
0;0
1;1
1;4
0;5
0;6
1;7
0;8
0;11
#390
1;0
#391
0;0
0;1
1;2
0;4
1;6
1;8
1;9
1;11
#392
1;0
#393
0;0
1;1
1;5
0;7
0;10
#394
1;0
#395
0;0
1;4
0;5
0;6
1;7
0;8
0;9
1;10
#396
1;0
#397
0;0
1;3
0;4
1;5
0;10
0;11
#398
1;0
#399
0;0
0;1
1;8
#400
1;0
#401
0;0
0;5
1;6
#402
1;0
1;15
#403
0;0
1;1
0;2
1;4
0;6
0;8
1;11
#404
1;0
0;15
#405
0;0
0;4
1;5
0;7
1;8
1;9
0;11
#406
1;0
#407
0;0
0;1
0;3
1;4
1;6
1;7
#408
1;0
#409
0;0
1;1
1;2
0;6
0;9
1;11
#410
1;0
#411
0;0
0;2
0;5
1;6
0;7
0;8
1;9
#412
1;0
#413
0;0
1;2
0;4
0;6
1;7
0;9
0;11
#414
1;0
#415
0;0
0;1
1;3
0;7
1;8
1;9
1;10
1;11
#416
1;0
#417
0;0
1;1
0;3
1;5
1;7
0;8
0;10
#418
1;0
#419
0;0
0;1
0;2
0;7
0;9
#420
1;0
#421
0;0
1;1
1;4
1;6
1;10
#422
1;0
#423
0;0
0;1
1;2
1;3
0;5
0;10
0;11
#424
1;0
#425
0;0
0;2
0;3
0;6
1;7
1;9
1;10
1;11
#426
1;0
#427
0;0
1;1
0;4
1;5
0;9
0;11
#428
1;0
1;12
1;14
1;16
#429
0;0
1;6
0;7
1;8
1;9
#430
1;0
0;12
0;14
0;16
#431
0;0
1;4
1;7
0;8
0;9
0;10
1;11
#432
1;0
#433
0;0
0;1
1;2
0;4
0;5
0;6
0;7
1;8
1;10
0;11
#434
1;0
#435
0;0
1;1
1;3
1;7
1;11
#436
1;0
#437
0;0
0;2
0;3
1;5
1;6
0;7
0;8
0;10
#438
1;0
#439
0;0
0;1
1;3
0;6
1;7
0;11
#440
1;0
#441
0;0
1;1
0;3
1;6
0;7
1;10
1;11
#442
1;0
#443
0;0
0;1
1;2
1;4
0;6
1;7
1;8
1;9
0;11
#444
1;0
1;12
1;14
1;16
#445
0;0
0;2
1;3
1;6
1;11
#446
1;0
1;15
#447
0;0
1;1
1;2
0;3
0;4
0;7
0;9
0;11
#448
1;0
0;12
0;14
0;15
0;16
#449
0;0
0;1
0;2
1;4
0;5
1;9
1;11
#450
1;0
#451
0;0
0;4
1;5
1;7
0;8
0;9
#452
1;0
1;12
1;14
1;16
#453
0;0
1;1
1;2
1;3
0;5
0;6
0;7
1;8
0;10
#454
1;0
0;12
0;14
0;16
#455
0;0
0;1
1;6
1;7
#456
1;0
1;15
#457
0;0
1;1
0;2
0;3
1;5
0;8
0;11
#458
1;0
0;15
#459
0;0
1;4
0;5
0;7
#460
1;0
#461
0;0
0;1
1;7
#462
1;0
#463
0;0
1;2
1;3
0;6
0;7
1;10
#464
1;0
#465
0;0
0;3
1;5
1;7
1;8
#466
1;0
1;12
1;14
1;16
#467
0;0
0;2
0;5
0;8
0;10
1;11
#468
1;0
0;12
0;14
0;16
#469
0;0
1;1
1;2
1;3
1;5
1;6
1;8
1;9
1;10
0;11
#470
1;0
1;12
1;14
1;15
1;16
#471
0;0
0;2
0;4
0;5
0;6
0;7
0;9
#472
1;0
0;12
0;14
0;15
0;16
#473
0;0
0;1
0;3
0;8
0;10
1;11
#474
1;0
#475
0;0
1;1
1;2
1;3
1;4
1;5
#476
1;0
#477
0;0
0;2
0;5
1;8
0;11
#478
1;0
#479
0;0
0;1
1;2
0;3
1;5
1;7
1;9
1;11
#480
1;0
#481
0;0
0;4
0;5
0;7
0;8
1;10
0;11
#482
1;0
#483
0;0
1;4
1;5
1;7
1;8
0;9
0;10
#484
1;0
#485
0;0
0;4
0;5
1;6
0;8
#486
1;0
#487
0;0
0;2
1;4
1;5
0;6
0;7
1;10
1;11
#488
1;0
#489
0;0
0;4
1;8
0;10
0;11
#490
1;0
#491
0;0
0;5
1;6
0;8
1;9
1;10
#492
1;0
#493
0;0
1;1
1;3
1;4
0;6
1;7
1;8
1;11
#494
1;0
#495
0;0
0;1
0;4
0;7
#496
1;0
#497
0;0
1;1
1;2
1;5
1;6
1;7
0;8
0;9
0;10
0;11
#498
1;0
#499
0;0
1;4
0;5
0;6
1;10
#500
1;0
#501
0;0
0;3
1;5
1;6
0;7
1;9
0;10
1;11
#502
1;0
#503
0;0
0;1
0;2
1;3
0;4
0;5
0;9
1;10
0;11
#504
1;0
#505
0;0
1;1
1;2
0;3
1;4
0;6
1;7
1;8
0;10
#506
1;0
#507
0;0
0;2
1;3
0;4
0;8
1;9
1;11
#508
1;0
#509
0;0
0;1
1;6
0;7
1;8
1;10
0;11
#510
1;0
1;15
#511
0;0
0;3
1;7
0;8
0;10
#512
1;0
0;15
#513
0;0
1;1
1;3
1;4
0;7
0;9
1;10
#514
1;0
#515
0;0
1;2
0;3
1;5
0;10
#516
1;0
#517
0;0
0;1
0;4
0;5
1;7
1;9
#518
1;0
#519
0;0
0;6
0;7
1;8
0;9
#520
1;0
#521
0;0
1;3
1;5
1;6
0;8
1;9
1;11
#522
1;0
#523
0;0
0;2
1;4
0;5
1;10
0;11
#524
1;0
#525
0;0
1;2
0;3
0;4
1;5
1;7
1;8
#526
1;0
1;12
1;14
1;16
#527
0;0
1;4
0;6
0;7
0;8
0;10
#528
1;0
0;12
0;14
0;16
#529
0;0
0;5
1;6
1;8
#530
1;0
#531
0;0
1;1
1;3
0;4
1;7
1;10
1;11
#532
1;0
1;13
1;15
1;17
1;18
#533
0;0
0;2
0;3
1;4
0;6
0;7
0;10
0;11
#534
1;0
0;13
0;15
0;17
0;18
#535
0;0
1;2
0;4
1;6
1;7
0;8
1;11
#536
1;0
#537
0;0
0;2
1;3
1;5
0;9
1;10
0;11
#538
1;0
1;12
1;14
1;16
#539
0;0
0;1
1;4
0;6
0;7
1;8
1;11
#540
1;0
0;12
0;14
0;16
#541
0;0
1;1
0;4
1;6
0;8
1;9
0;11
#542
1;0
#543
0;0
0;1
1;2
0;3
1;4
0;5
0;6
1;7
1;8
0;10
#544
1;0
#545
0;0
1;3
0;4
1;5
0;7
0;8
1;10
#546
1;0
#547
0;0
0;2
0;3
0;5
1;7
1;8
0;9
#548
1;0
#549
0;0
1;2
1;4
0;7
0;8
0;10
1;11
#550
1;0
#551
0;0
1;1
0;2
1;6
1;7
1;9
1;10
0;11
#552
1;0
#553
0;0
1;2
0;7
0;10
1;11
#554
1;0
#555
0;0
1;3
1;5
0;6
1;7
1;8
#556
1;0
#557
0;0
0;1
0;2
0;3
0;7
0;8
0;9
0;11
#558
1;0
#559
0;0
1;2
1;9
1;10
1;11
#560
1;0
#561
0;0
1;1
1;3
0;5
1;8
0;9
0;10
#562
1;0
#563
0;0
0;1
0;3
0;4
0;8
#564
1;0
#565
0;0
1;1
1;3
1;4
1;5
1;6
1;7
#566
1;0
#567
0;0
0;3
0;4
0;7
#568
1;0
#569
0;0
0;1
0;2
1;3
0;5
1;7
1;9
#570
1;0
#571
0;0
1;2
0;3
1;4
0;6
0;9
1;10
#572
1;0
#573
0;0
1;3
1;5
1;6
1;8
#574
1;0
1;12
1;14
1;15
1;16
#575
0;0
0;5
0;7
0;8
0;10
0;11
#576
1;0
0;12
0;14
0;15
0;16
#577
0;0
0;3
0;4
1;5
1;11
#578
1;0
#579
0;0
1;1
0;5
1;7
1;8
1;10
#580
1;0
#581
0;0
0;2
1;3
1;5
0;6
0;7
0;10
#582
1;0
#583
0;0
0;1
0;3
1;4
1;9
1;10
#584
1;0
#585
0;0
1;1
1;3
0;4
1;6
0;8
0;9
0;11
#586
1;0
#587
0;0
1;2
1;4
1;7
1;8
0;10
1;11
#588
1;0
1;13
1;15
1;17
1;18
#589
0;0
0;1
0;3
0;4
0;6
1;9
#590
1;0
0;13
0;15
0;17
0;18
#591
0;0
0;2
1;4
0;5
0;9
1;10
0;11
#592
1;0
#593
0;0
1;3
0;8
1;9
1;11
#594
1;0
#595
0;0
1;2
0;4
0;11
#596
1;0
#597
0;0
1;1
0;3
1;4
1;6
1;8
#598
1;0
#599
0;0
0;1
0;2
0;4
1;5
0;6
0;8
1;11
#600
1;0
1;12
1;14
1;16
#601
0;0
1;2
1;3
0;5
1;6
0;10
#602
1;0
0;12
0;14
0;16
#603
0;0
1;1
1;5
1;10
#604
1;0
1;12
1;13
1;14
1;16
1;17
1;18
#605
0;0
0;3
1;4
0;7
0;9
0;11
#606
1;0
0;12
0;13
0;14
0;16
0;17
0;18
#607
0;0
0;1
0;6
1;7
1;8
1;9
0;10
1;11
#608
1;0
#609
0;0
1;1
0;4
0;5
0;8
#610
1;0
#611
0;0
0;1
1;4
1;5
1;6
1;10
0;11
#612
1;0
1;12
1;14
1;16
#613
0;0
1;1
1;3
0;4
0;5
0;6
0;10
1;11
#614
1;0
0;12
0;14
0;16
#615
0;0
0;2
0;3
1;5
1;8
1;10
0;11
#616
1;0
1;12
1;14
1;16
#617
0;0
0;1
1;4
0;5
0;7
0;9
#618
1;0
0;12
0;14
0;16
#619
0;0
1;1
1;2
0;4
1;5
1;6
1;7
#620
1;0
1;12
1;14
1;16
#621
0;0
0;1
1;3
0;5
0;7
0;8
1;9
0;10
#622
1;0
0;12
0;14
0;16
#623
0;0
1;1
0;3
1;5
0;6
0;9
#624
1;0
#625
0;0
0;2
1;3
1;10
1;11
#626
1;0
#627
0;0
0;1
1;2
0;3
1;4
1;8
0;10
0;11
#628
1;0
#629
0;0
1;1
0;2
1;3
0;5
1;7
0;8
#630
1;0
#631
0;0
0;3
1;5
0;7
1;11
#632
1;0
#633
0;0
0;1
1;2
1;3
0;4
1;8
1;9
1;10
#634
1;0
#635
0;0
0;2
0;3
0;5
0;8
#636
1;0
#637
0;0
1;1
1;2
1;4
1;5
1;7
1;8
0;11
#638
1;0
1;12
1;14
1;16
#639
0;0
0;1
1;3
0;5
1;6
0;7
0;9
0;10
#640
1;0
0;12
0;14
1;15
0;16
#641
0;0
0;3
1;5
0;6
1;9
1;10
#642
1;0
0;15
#643
0;0
1;1
0;2
1;3
0;5
1;7
0;9
1;11
#644
1;0
#645
0;0
0;4
0;11
#646
1;0
#647
0;0
0;1
1;4
0;7
0;10
#648
1;0
#649
0;0
1;1
1;2
0;3
1;6
1;7
0;8
1;10
#650
1;0
#651
0;0
1;3
0;4
0;6
0;7
#652
1;0
#653
0;0
0;2
0;10
#654
1;0
#655
0;0
0;1
1;2
0;3
1;5
1;9
1;11
#656
1;0
#657
0;0
0;2
0;5
1;8
0;9
1;10
#658
1;0
#659
0;0
1;1
1;2
0;8
#660
1;0
#661
0;0
1;4
1;5
1;8
0;10
#662
1;0
#663
0;0
0;1
0;2
0;4
0;5
1;6
0;8
1;9
#664
1;0
#665
0;0
1;1
1;3
1;4
1;8
1;10
0;11
#666
1;0
1;15
#667
0;0
0;3
0;4
1;5
0;10
#668
1;0
0;15
#669
0;0
0;5
0;6
1;7
0;8
0;9
#670
1;0
#671
0;0
1;3
1;4
0;7
1;8
1;9
1;10
1;11
#672
1;0
#673
0;0
1;2
0;3
0;4
1;5
1;7
0;9
0;10
#674
1;0
#675
0;0
0;1
1;4
0;5
1;9
#676
1;0
#677
0;0
1;3
0;4
1;5
0;11
#678
1;0
#679
0;0
0;3
0;5
1;6
0;7
#680
1;0
#681
0;0
1;1
1;4
0;9
#682
1;0
#683
0;0
1;7
1;9
1;10
#684
1;0
#685
0;0
1;5
0;7
1;11
#686
1;0
#687
0;0
0;1
0;2
1;3
0;6
0;11
#688
1;0
#689
0;0
1;1
1;2
0;4
0;5
1;7
0;9
#690
1;0
#691
0;0
0;1
0;2
1;9
1;11
#692
1;0
#693
0;0
1;1
1;2
0;3
1;4
1;5
0;7
0;8
0;9
#694
1;0
#695
0;0
1;3
1;7
0;10
0;11
#696
1;0
#697
0;0
0;2
0;3
0;4
1;6
1;8
#698
1;0
#699
0;0
1;3
1;4
0;5
0;8
1;9
1;10
1;11
#700
1;0
#701
0;0
0;1
0;3
0;6
0;9
0;11
#702
1;0
#703
0;0
1;2
1;3
0;7
1;8
1;11
#704
1;0
#705
0;0
1;1
0;2
1;5
1;6
0;8
1;9
0;10
#706
1;0
#707
0;0
1;2
0;4
1;10
#708
1;0
#709
0;0
0;1
0;2
1;4
0;5
0;6
1;7
1;8
#710
1;0
#711
0;0
1;1
0;4
1;6
0;8
0;9
0;11
#712
1;0
#713
0;0
1;2
1;5
0;10
1;11
#714
1;0
#715
0;0
0;5
1;8
#716
1;0
1;13
1;15
1;17
1;18
#717
0;0
1;4
0;6
1;10
0;11
#718
1;0
0;13
0;15
0;17
0;18
#719
0;0
0;3
0;4
1;5
0;7
1;9
#720
1;0
#721
0;0
0;10
#722
1;0
