tool/synthetic_gen/raw_challenges/AndUntil/traces/vcd/golden.vcd
$date
    Mar 10, 2025 02:04:34
$end
$version
    Tracer 3.0.0 - By Enrico Fraccaroli <enry.frak@gmail.com> --- 2022/02/15
$end
$timescale
    1ns
$end
$scope module AndUntil_top_bench $end
$scope module AndUntil_top_ $end
    $var wire 1 ;0 clk $end
    $var wire 1 ;1 c_4 $end
    $var wire 1 ;2 a_2 $end
    $var wire 1 ;3 c_0 $end
    $var wire 1 ;4 c_3 $end
    $var wire 1 ;5 b_3 $end
    $var wire 1 ;6 c_1 $end
    $var wire 1 ;7 b_2 $end
    $var wire 1 ;8 a_3 $end
    $var wire 1 ;9 a_0 $end
    $var wire 1 ;10 a_4 $end
    $var wire 1 ;11 b_0 $end
    $var wire 1 ;12 b_4 $end
    $var wire 1 ;13 a_1 $end
    $var wire 1 ;14 b_1 $end
    $var wire 1 ;15 c_2 $end
    $var wire 1 ;16 f_0 $end
    $var wire 1 ;17 l_2 $end
    $var wire 1 ;18 m_0 $end
    $var wire 1 ;19 n_1 $end
    $var wire 1 ;20 k_0 $end
    $var wire 1 ;21 j_3 $end
    $var wire 1 ;22 m_4 $end
    $var wire 1 ;23 l_1 $end
    $var wire 1 ;24 g_1 $end
    $var wire 1 ;25 n_2 $end
    $var wire 1 ;26 e_3 $end
    $var wire 1 ;27 l_3 $end
    $var wire 1 ;28 j_2 $end
    $var wire 1 ;29 h_2 $end
    $var wire 1 ;30 g_4 $end
    $var wire 1 ;31 k_3 $end
    $var wire 1 ;32 i_3 $end
    $var wire 1 ;33 o_4 $end
    $var wire 1 ;34 o_0 $end
    $var wire 1 ;35 e_1 $end
    $var wire 1 ;36 d_0 $end
    $var wire 1 ;37 h_1 $end
    $var wire 1 ;38 n_4 $end
    $var wire 1 ;39 d_2 $end
    $var wire 1 ;40 e_4 $end
    $var wire 1 ;41 k_4 $end
    $var wire 1 ;42 k_2 $end
    $var wire 1 ;43 o_3 $end
    $var wire 1 ;44 k_1 $end
    $var wire 1 ;45 f_3 $end
    $var wire 1 ;46 h_0 $end
    $var wire 1 ;47 l_0 $end
    $var wire 1 ;48 g_3 $end
    $var wire 1 ;49 h_4 $end
    $var wire 1 ;50 i_4 $end
    $var wire 1 ;51 i_0 $end
    $var wire 1 ;52 i_2 $end
    $var wire 1 ;53 f_1 $end
    $var wire 1 ;54 f_4 $end
    $var wire 1 ;55 e_0 $end
    $var wire 1 ;56 m_1 $end
    $var wire 1 ;57 g_0 $end
    $var wire 1 ;58 g_2 $end
    $var wire 1 ;59 l_4 $end
    $var wire 1 ;60 n_0 $end
    $var wire 1 ;61 m_3 $end
    $var wire 1 ;62 n_3 $end
    $var wire 1 ;63 d_3 $end
    $var wire 1 ;64 o_1 $end
    $var wire 1 ;65 e_2 $end
    $var wire 1 ;66 d_1 $end
    $var wire 1 ;67 i_1 $end
    $var wire 1 ;68 j_4 $end
    $var wire 1 ;69 f_2 $end
    $var wire 1 ;70 o_2 $end
    $var wire 1 ;71 d_4 $end
    $var wire 1 ;72 j_1 $end
    $var wire 1 ;73 h_3 $end
    $var wire 1 ;74 m_2 $end
    $var wire 1 ;75 j_0 $end
$upscope $end
$upscope $end
$enddefinitions $end
#0
$dumpvars
1;0
0;1
0;2
0;3
0;4
0;5
0;6
0;7
0;8
0;9
0;10
0;11
0;12
0;13
0;14
0;15
0;16
0;17
0;18
0;19
0;20
0;21
0;22
0;23
0;24
0;25
0;26
0;27
0;28
0;29
0;30
0;31
0;32
0;33
0;34
0;35
0;36
0;37
0;38
0;39
0;40
0;41
0;42
0;43
0;44
0;45
0;46
0;47
0;48
0;49
0;50
0;51
0;52
0;53
0;54
0;55
0;56
0;57
0;58
0;59
0;60
0;61
0;62
0;63
0;64
0;65
0;66
0;67
0;68
0;69
0;70
0;71
0;72
0;73
0;74
0;75
$end
#1
0;0
1;1
1;3
1;4
1;5
1;6
1;9
1;10
1;12
1;14
1;15
#2
1;0
1;22
1;33
1;38
1;41
1;59
1;68
#3
0;0
0;1
0;3
0;4
0;5
1;8
0;10
0;12
1;13
#4
1;0
1;19
0;22
1;23
0;33
0;38
0;41
1;44
1;56
0;59
1;64
0;68
1;72
#5
0;0
1;1
1;5
1;7
0;8
1;11
1;12
0;15
#6
1;0
#7
0;0
1;4
0;5
0;7
1;8
0;9
0;12
0;13
0;14
1;15
#8
1;0
0;19
0;23
0;44
0;56
0;64
0;72
#9
0;0
1;2
1;9
1;10
0;11
1;12
1;14
0;15
#10
1;0
1;22
1;33
1;38
1;41
1;59
1;68
#11
0;0
0;2
0;8
0;9
0;10
1;13
0;14
1;15
#12
1;0
0;22
0;33
0;38
0;41
0;59
0;68
#13
0;0
0;1
0;4
1;5
0;6
1;10
1;11
0;12
0;13
#14
1;0
#15
0;0
1;1
1;2
1;4
0;5
1;8
0;10
1;12
1;13
#16
1;0
#17
0;0
0;1
1;3
1;5
1;6
1;7
1;9
1;10
0;12
1;14
0;15
#18
1;0
1;18
1;19
1;20
1;21
1;23
1;27
1;31
1;34
1;43
1;44
1;47
1;56
1;60
1;61
1;62
1;64
1;72
1;75
#19
0;0
1;1
0;2
0;5
0;6
0;8
0;13
0;14
1;15
#20
1;0
0;19
0;21
0;23
0;27
0;31
0;43
0;44
0;56
0;61
0;62
0;64
0;72
#21
0;0
0;1
1;2
0;3
1;6
0;7
1;8
#22
1;0
0;18
0;20
0;34
0;47
0;60
0;75
#23
0;0
0;4
0;6
0;9
1;12
1;13
1;14
0;15
#24
1;0
#25
0;0
1;3
1;5
1;6
#26
1;0
1;19
1;23
1;44
1;56
1;64
1;72
#27
0;0
0;6
1;9
0;11
0;12
0;13
0;14
#28
1;0
0;19
0;23
0;44
0;56
0;64
0;72
#29
0;0
0;2
1;4
0;9
1;12
1;14
#30
1;0
1;21
1;27
1;31
1;43
1;61
1;62
#31
0;0
1;2
0;4
0;5
1;6
0;8
1;11
0;14
1;15
#32
1;0
0;21
0;27
0;31
0;43
0;61
0;62
#33
0;0
0;2
1;4
0;6
1;9
0;10
1;13
0;15
#34
1;0
1;18
1;20
1;34
1;47
1;60
1;75
#35
0;0
1;1
0;3
0;4
1;7
0;9
0;11
0;12
#36
1;0
0;18
0;20
0;34
0;47
0;60
0;75
#37
0;0
0;1
1;4
1;5
0;7
1;8
1;9
1;10
1;11
#38
1;0
1;21
1;27
1;31
1;43
1;61
1;62
#39
0;0
1;1
1;2
1;3
0;5
1;6
1;7
0;9
0;10
0;13
#40
1;0
0;21
0;27
0;31
0;43
0;61
0;62
#41
0;0
0;1
0;2
0;3
0;4
0;8
1;9
1;15
#42
1;0
#43
0;0
1;1
1;5
0;6
1;8
0;9
1;10
1;12
1;13
1;14
0;15
#44
1;0
1;22
1;33
1;38
1;41
1;59
1;68
#45
0;0
1;2
1;4
0;8
0;10
0;11
0;12
0;13
#46
1;0
0;22
0;33
0;38
0;41
0;59
0;68
#47
0;0
0;2
0;4
0;5
0;7
1;8
1;9
1;11
0;14
1;15
#48
1;0
#49
0;0
0;1
1;5
1;6
1;7
0;8
0;9
1;10
0;11
1;13
1;14
#50
1;0
1;19
1;23
1;44
1;56
1;64
1;72
#51
0;0
1;3
0;5
0;7
1;8
1;9
1;11
0;15
#52
1;0
1;18
1;20
1;34
1;47
1;60
1;75
#53
0;0
1;2
0;3
0;6
0;9
0;10
0;11
1;12
0;13
0;14
#54
1;0
0;18
0;19
0;20
0;23
0;34
0;44
0;47
0;56
0;60
0;64
0;72
0;75
#55
0;0
0;2
1;4
1;6
1;7
1;15
#56
1;0
#57
0;0
1;5
0;6
1;9
1;10
1;11
0;12
1;14
0;15
#58
1;0
1;21
1;27
1;31
1;43
1;61
1;62
#59
0;0
1;2
0;7
0;8
0;10
0;11
1;13
0;14
#60
1;0
0;21
0;27
0;31
0;43
0;61
0;62
#61
0;0
0;2
1;6
1;7
0;9
1;10
1;12
1;15
#62
1;0
#63
0;0
1;1
1;2
0;5
1;9
1;14
#64
1;0
1;17
1;19
1;22
1;23
1;25
1;28
1;33
1;38
1;41
1;42
1;44
1;56
1;59
1;64
1;68
1;70
1;72
1;74
#65
0;0
0;2
1;5
0;9
1;11
0;12
0;14
0;15
#66
1;0
0;17
0;19
0;22
0;23
0;25
0;28
0;33
0;38
0;41
0;42
0;44
0;56
0;59
0;64
0;68
0;70
0;72
0;74
#67
0;0
0;1
1;2
1;3
0;4
0;5
0;7
1;9
1;12
1;15
#68
1;0
1;18
1;20
1;34
1;47
1;60
1;75
#69
0;0
0;6
1;8
0;9
0;10
0;12
0;13
0;15
#70
1;0
0;18
0;20
0;34
0;47
0;60
0;75
#71
0;0
0;2
0;3
1;7
0;8
1;10
0;11
1;12
1;14
1;15
#72
1;0
#73
0;0
1;1
1;2
1;6
0;7
1;13
0;14
#74
1;0
1;22
1;33
1;38
1;41
1;59
1;68
#75
0;0
0;2
1;3
1;4
0;6
0;10
1;11
0;12
0;13
1;14
#76
1;0
0;22
0;33
0;38
0;41
0;59
0;68
#77
0;0
1;2
0;4
1;5
1;6
1;7
1;9
1;10
1;12
1;13
0;14
#78
1;0
1;17
1;18
1;20
1;22
1;25
1;28
1;33
1;34
1;38
1;41
1;42
1;47
1;59
1;60
1;68
1;70
1;74
1;75
#79
0;0
0;1
0;6
0;7
1;8
0;9
0;10
1;14
0;15
#80
1;0
0;17
0;18
0;20
0;22
0;25
0;28
0;33
0;34
0;38
0;41
0;42
0;47
0;59
0;60
0;68
0;70
0;74
0;75
#81
0;0
1;4
1;6
0;8
1;9
1;10
0;12
0;13
0;14
#82
1;0
1;18
1;20
1;34
1;47
1;60
1;75
#83
0;0
1;1
0;6
1;7
1;8
1;12
#84
1;0
1;21
1;22
1;27
1;31
1;33
1;38
1;41
1;43
1;59
1;61
1;62
1;68
#85
0;0
0;1
0;4
0;5
0;9
0;10
0;11
0;12
1;14
#86
1;0
0;18
0;20
0;21
0;22
0;27
0;31
0;33
0;34
0;38
0;41
0;43
0;47
0;59
0;60
0;61
0;62
0;68
0;75
#87
0;0
0;2
1;4
1;5
0;7
0;8
1;9
1;10
1;11
1;12
1;15
#88
1;0
1;18
1;20
1;34
1;47
1;60
1;75
#89
0;0
1;1
0;3
0;4
0;5
1;6
1;7
1;8
0;9
0;12
1;13
#90
1;0
0;18
1;19
0;20
1;23
0;34
1;44
0;47
1;56
0;60
1;64
1;72
0;75
#91
0;0
0;1
1;2
1;4
0;7
0;8
0;11
1;12
0;13
0;14
#92
1;0
0;19
0;23
0;44
0;56
0;64
0;72
#93
0;0
1;3
0;4
1;7
1;8
0;15
#94
1;0
#95
0;0
1;1
0;2
1;4
1;5
1;11
0;12
1;14
#96
1;0
1;21
1;27
1;31
1;43
1;61
1;62
#97
0;0
1;2
0;3
0;4
0;5
0;6
1;9
1;12
1;15
#98
1;0
1;17
0;21
1;22
1;25
0;27
1;28
0;31
1;33
1;38
1;41
1;42
0;43
1;59
0;61
0;62
1;68
1;70
1;74
#99
0;0
0;1
0;2
1;3
1;4
1;6
0;9
0;11
1;13
0;14
#100
1;0
0;17
0;22
0;25
0;28
0;33
0;38
0;41
0;42
0;59
0;68
0;70
0;74
#101
0;0
1;1
0;3
0;6
0;8
0;10
1;11
0;13
0;15
#102
1;0
#103
0;0
0;7
1;8
1;9
0;11
1;14
#104
1;0
#105
0;0
0;9
0;12
1;13
0;14
#106
1;0
#107
0;0
1;2
0;8
1;9
1;10
1;11
1;12
1;14
#108
1;0
1;22
1;33
1;38
1;41
1;59
1;68
#109
0;0
0;2
1;3
1;5
1;6
1;7
1;8
0;9
0;10
0;12
0;13
0;14
#110
1;0
1;21
0;22
1;27
1;31
0;33
0;38
0;41
1;43
0;59
1;61
1;62
0;68
#111
0;0
0;1
1;2
0;3
0;4
0;6
1;9
0;11
1;14
1;15
#112
1;0
1;17
0;21
1;25
0;27
1;28
0;31
1;42
0;43
0;61
0;62
1;70
1;74
#113
0;0
0;2
1;3
1;4
0;7
0;9
1;10
1;11
1;12
1;13
0;15
#114
1;0
0;17
1;21
0;25
1;27
0;28
1;31
0;42
1;43
1;61
1;62
0;70
0;74
#115
0;0
1;2
0;4
0;8
1;9
0;12
1;15
#116
1;0
1;18
1;20
0;21
0;27
0;31
1;34
0;43
1;47
1;60
0;61
0;62
1;75
#117
0;0
0;3
1;4
1;6
1;8
0;9
0;10
0;11
1;12
0;14
0;15
#118
1;0
0;18
0;20
1;21
1;27
1;31
0;34
1;43
0;47
0;60
1;61
1;62
0;75
#119
0;0
1;1
0;2
1;3
0;5
1;7
0;8
1;9
1;10
0;12
1;14
1;15
#120
1;0
1;19
0;21
1;23
0;27
0;31
0;43
1;44
1;56
0;61
0;62
1;64
1;72
#121
0;0
0;1
0;4
1;5
0;6
0;7
1;8
0;10
1;11
0;13
0;15
#122
1;0
1;18
0;19
1;20
0;23
1;34
0;44
1;47
0;56
1;60
0;64
0;72
1;75
#123
0;0
0;3
1;7
0;9
0;11
1;13
#124
1;0
0;18
0;20
0;34
0;47
0;60
0;75
#125
0;0
1;2
1;4
0;5
1;6
0;8
1;9
1;10
0;14
1;15
#126
1;0
1;17
1;25
1;28
1;42
1;70
1;74
#127
0;0
1;1
1;5
0;9
0;13
1;14
#128
1;0
#129
0;0
0;1
0;2
1;3
0;4
1;8
1;9
0;10
1;12
1;13
0;15
#130
1;0
0;17
1;19
1;23
0;25
0;28
0;42
1;44
1;56
1;64
0;70
1;72
0;74
#131
0;0
0;6
0;7
0;8
0;9
1;11
0;12
#132
1;0
0;19
0;23
0;44
0;56
0;64
0;72
#133
0;0
1;2
0;3
1;4
1;6
1;8
1;10
0;14
1;15
#134
1;0
1;21
1;27
1;31
1;43
1;61
1;62
#135
0;0
1;1
1;3
0;4
0;6
0;10
0;11
0;13
1;14
#136
1;0
0;21
0;27
0;31
0;43
0;61
0;62
#137
0;0
0;1
1;9
1;11
1;12
1;13
0;14
#138
1;0
1;18
1;20
1;34
1;47
1;60
1;75
#139
0;0
0;3
1;10
1;14
0;15
#140
1;0
0;18
0;20
0;34
0;47
0;60
0;75
#141
0;0
0;2
1;4
0;5
1;6
0;8
0;9
0;13
0;14
1;15
#142
1;0
#143
0;0
0;4
1;8
0;10
0;11
1;13
1;14
#144
1;0
1;19
1;23
1;44
1;56
1;64
1;72
#145
0;0
1;2
1;3
1;5
1;7
1;10
#146
1;0
1;17
1;25
1;28
1;42
1;70
1;74
#147
0;0
1;4
0;6
0;7
0;8
1;9
0;13
0;15
#148
1;0
0;17
0;19
0;23
0;25
0;28
0;42
0;44
0;56
0;64
0;70
0;72
0;74
#149
0;0
1;1
0;4
0;10
0;12
1;13
1;15
#150
1;0
#151
0;0
0;1
0;3
1;4
0;5
1;6
1;7
1;8
1;12
0;14
#152
1;0
1;17
1;25
1;28
1;42
1;70
1;74
#153
0;0
1;1
0;2
0;6
0;8
0;9
1;10
0;12
1;14
#154
1;0
0;17
0;25
0;28
0;42
0;70
0;74
#155
0;0
0;1
1;2
1;3
0;4
1;5
1;6
1;11
0;13
0;14
#156
1;0
1;17
1;25
1;28
1;42
1;70
1;74
#157
0;0
1;1
0;2
0;7
0;10
1;13
0;15
#158
1;0
0;17
0;25
0;28
0;42
0;70
0;74
#159
0;0
0;1
1;4
0;5
0;6
1;7
1;9
1;10
0;13
1;14
#160
1;0
1;18
1;20
1;34
1;47
1;60
1;75
#161
0;0
1;1
1;2
0;3
0;4
1;5
1;6
1;8
0;9
1;12
0;14
#162
1;0
0;18
0;20
1;22
1;33
0;34
1;38
1;41
0;47
1;59
0;60
1;68
0;75
#163
0;0
0;1
1;4
0;5
0;7
1;9
0;12
1;13
1;14
1;15
#164
1;0
1;19
0;22
1;23
0;33
0;38
0;41
1;44
1;56
0;59
1;64
0;68
1;72
#165
0;0
1;1
0;2
0;4
1;7
0;9
0;15
#166
1;0
#167
0;0
1;2
1;3
1;4
0;6
0;7
0;8
1;9
0;14
1;15
#168
1;0
1;18
0;19
1;20
0;23
1;34
0;44
1;47
0;56
1;60
0;64
0;72
1;75
#169
0;0
0;2
1;6
1;7
1;8
#170
1;0
#171
0;0
0;1
1;2
0;3
0;6
0;11
#172
1;0
1;17
0;18
0;20
1;25
1;28
0;34
1;42
0;47
0;60
1;70
1;74
0;75
#173
0;0
1;1
1;3
0;4
1;6
0;7
0;9
1;11
1;12
#174
1;0
0;17
1;22
0;25
0;28
1;33
1;38
1;41
0;42
1;59
1;68
0;70
0;74
#175
0;0
0;1
0;2
0;3
0;11
0;12
0;13
0;15
#176
1;0
0;22
0;33
0;38
0;41
0;59
0;68
#177
0;0
1;1
1;2
1;3
1;5
0;6
1;7
1;9
1;13
1;14
1;15
#178
1;0
1;17
1;25
1;28
1;42
1;70
1;74
#179
0;0
0;1
1;4
1;6
0;7
0;8
0;10
1;11
1;12
0;13
#180
1;0
0;17
1;18
1;20
0;25
0;28
1;34
0;42
1;47
1;60
0;70
0;74
1;75
#181
0;0
1;1
0;2
0;3
0;4
0;5
0;6
1;8
0;12
0;14
#182
1;0
0;18
0;20
0;34
0;47
0;60
0;75
#183
0;0
1;3
1;4
1;5
0;9
1;10
1;13
#184
1;0
1;21
1;27
1;31
1;43
1;61
1;62
#185
0;0
0;1
1;2
0;3
1;7
0;8
0;10
0;11
1;12
0;13
#186
1;0
1;17
0;21
1;25
0;27
1;28
0;31
1;42
0;43
0;61
0;62
1;70
1;74
#187
0;0
0;2
1;3
1;6
1;8
1;11
0;12
0;15
#188
1;0
0;17
1;21
0;25
1;27
0;28
1;31
0;42
1;43
1;61
1;62
0;70
0;74
#189
0;0
1;1
0;6
0;7
0;8
1;13
1;14
1;15
#190
1;0
0;21
0;27
0;31
0;43
0;61
0;62
#191
0;0
0;1
1;2
0;5
1;9
1;10
0;11
0;14
0;15
#192
1;0
#193
0;0
1;1
0;4
1;5
1;8
1;11
1;15
#194
1;0
1;18
1;20
1;34
1;47
1;60
1;75
#195
0;0
0;1
0;2
1;4
1;6
1;7
0;8
1;12
#196
1;0
#197
0;0
1;2
0;6
1;8
0;10
0;11
0;12
0;13
0;15
#198
1;0
0;18
0;20
1;21
1;27
1;31
0;34
1;43
0;47
0;60
1;61
1;62
0;75
#199
0;0
0;2
0;3
0;5
1;6
0;7
1;13
#200
1;0
0;21
0;27
0;31
0;43
0;61
0;62
#201
0;0
1;1
1;3
0;4
1;5
0;6
0;8
0;9
1;10
1;11
1;14
#202
1;0
#203
0;0
1;2
1;4
0;5
1;6
1;8
0;10
1;12
0;13
0;14
1;15
#204
1;0
#205
0;0
0;4
1;5
0;6
1;7
1;10
0;11
1;13
1;14
#206
1;0
1;17
1;22
1;25
1;28
1;33
1;38
1;41
1;42
1;59
1;68
1;70
1;74
#207
0;0
0;1
0;2
0;3
1;4
1;6
0;7
0;8
0;10
0;14
#208
1;0
0;17
0;22
0;25
0;28
0;33
0;38
0;41
0;42
0;59
0;68
0;70
0;74
#209
0;0
1;2
1;3
0;5
0;6
1;7
1;8
0;12
1;14
0;15
#210
1;0
#211
0;0
0;3
0;7
0;8
1;11
0;14
#212
1;0
#213
0;0
1;9
0;11
1;12
0;13
1;14
#214
1;0
#215
0;0
0;2
1;5
1;7
1;8
1;10
1;11
0;12
1;13
0;14
#216
1;0
1;21
1;27
1;31
1;43
1;61
1;62
#217
0;0
1;1
1;3
0;5
0;8
0;9
0;10
0;11
1;15
#218
1;0
0;21
0;27
0;31
0;43
0;61
0;62
#219
0;0
0;1
1;2
0;4
0;7
1;8
1;9
1;10
1;14
0;15
#220
1;0
#221
0;0
0;2
1;4
1;6
1;7
1;12
1;15
#222
1;0
1;19
1;23
1;44
1;56
1;64
1;72
#223
0;0
1;1
1;2
0;3
0;4
1;5
0;6
0;8
0;10
1;11
0;15
#224
1;0
0;19
0;23
0;44
0;56
0;64
0;72
#225
0;0
1;3
0;5
1;6
0;9
0;12
#226
1;0
1;19
1;23
1;44
1;56
1;64
1;72
#227
0;0
0;2
1;4
0;7
1;8
1;9
1;10
0;11
1;15
#228
1;0
#229
0;0
0;3
0;4
1;5
1;7
0;8
0;10
1;11
0;13
0;14
#230
1;0
0;19
0;23
0;44
0;56
0;64
0;72
#231
0;0
0;1
1;2
1;3
0;6
1;8
0;11
1;12
1;14
0;15
#232
1;0
#233
0;0
0;9
1;11
1;13
#234
1;0
#235
0;0
0;2
0;5
0;7
1;9
1;10
0;12
1;15
#236
1;0
1;18
1;20
1;34
1;47
1;60
1;75
#237
0;0
1;1
1;2
0;3
0;11
0;13
#238
1;0
0;18
0;20
0;34
0;47
0;60
0;75
#239
0;0
0;1
1;3
1;5
1;6
0;9
0;10
1;11
1;12
0;14
#240
1;0
#241
0;0
1;1
0;3
0;5
0;6
0;8
1;10
0;12
1;13
#242
1;0
#243
0;0
0;1
0;2
1;7
1;8
1;9
0;10
1;14
0;15
#244
1;0
#245
0;0
1;4
0;8
0;9
1;10
0;14
#246
1;0
#247
0;0
1;2
1;5
1;6
0;10
0;11
1;12
#248
1;0
#249
0;0
1;1
0;2
1;8
1;9
0;13
1;15
#250
1;0
1;21
1;27
1;31
1;43
1;61
1;62
#251
0;0
0;1
0;4
0;8
0;9
1;10
1;11
0;12
0;15
#252
1;0
0;21
0;27
0;31
0;43
0;61
0;62
#253
0;0
1;2
1;3
1;4
0;6
0;7
1;9
0;11
#254
1;0
#255
0;0
0;2
0;3
0;4
0;9
0;10
1;12
1;15
#256
1;0
#257
0;0
1;1
1;2
1;3
0;5
1;11
#258
1;0
#259
0;0
0;1
0;2
0;3
1;6
1;9
1;10
0;11
1;14
0;15
#260
1;0
#261
0;0
1;3
1;4
1;7
0;12
0;14
#262
1;0
#263
0;0
0;3
0;4
1;5
1;8
0;10
1;14
1;15
#264
1;0
#265
0;0
1;2
1;3
1;4
0;5
0;7
1;10
1;13
0;15
#266
1;0
1;19
1;23
1;44
1;56
1;64
1;72
#267
0;0
0;4
1;5
0;6
1;7
0;8
0;14
1;15
#268
1;0
1;17
0;19
0;23
1;25
1;28
1;42
0;44
0;56
0;64
1;70
0;72
1;74
#269
0;0
0;2
0;3
1;4
0;7
1;8
1;12
0;15
#270
1;0
0;17
1;21
0;25
1;27
0;28
1;31
0;42
1;43
1;61
1;62
0;70
0;74
#271
0;0
1;3
0;5
1;7
0;8
0;9
0;10
1;11
0;13
1;15
#272
1;0
0;21
0;27
0;31
0;43
0;61
0;62
#273
0;0
1;1
0;3
1;5
1;6
1;8
1;9
0;11
#274
1;0
1;21
1;27
1;31
1;43
1;61
1;62
#275
0;0
0;1
1;3
0;4
0;6
0;7
0;8
0;9
1;10
1;14
#276
1;0
0;21
0;27
0;31
0;43
0;61
0;62
#277
0;0
1;1
1;4
0;5
1;7
1;8
1;9
0;10
1;13
0;14
#278
1;0
#279
0;0
0;4
0;7
0;9
0;15
#280
1;0
#281
0;0
0;1
1;2
0;3
1;4
1;5
1;7
0;8
0;12
0;13
1;14
#282
1;0
#283
0;0
1;1
0;2
1;6
1;8
1;13
#284
1;0
1;19
1;21
1;23
1;27
1;31
1;43
1;44
1;56
1;61
1;62
1;64
1;72
#285
0;0
1;3
0;6
0;7
1;11
0;13
#286
1;0
0;19
0;23
0;44
0;56
0;64
0;72
#287
0;0
0;1
1;2
0;3
0;4
0;5
1;6
1;7
1;9
1;10
1;12
1;13
0;14
#288
1;0
0;21
0;27
0;31
0;43
0;61
0;62
#289
0;0
1;1
1;4
1;5
0;6
0;10
0;12
0;13
1;14
#290
1;0
1;21
1;27
1;31
1;43
1;61
1;62
#291
0;0
0;1
1;3
1;6
0;7
0;9
1;10
0;11
0;14
#292
1;0
#293
0;0
1;1
0;3
0;5
1;7
0;8
0;10
1;12
1;13
#294
1;0
0;21
0;27
0;31
0;43
0;61
0;62
#295
0;0
1;3
0;4
0;6
1;9
1;10
0;12
#296
1;0
#297
0;0
0;1
1;5
0;9
1;11
0;13
#298
1;0
#299
0;0
1;4
1;6
1;13
1;14
#300
1;0
1;19
1;23
1;44
1;56
1;64
1;72
#301
0;0
1;1
0;3
0;4
0;7
1;9
0;10
0;13
#302
1;0
0;19
0;23
0;44
0;56
0;64
0;72
#303
0;0
1;3
0;5
0;6
1;8
0;9
0;11
1;15
#304
1;0
#305
0;0
0;1
0;2
0;3
1;5
1;6
1;7
1;9
1;10
1;13
0;14
#306
1;0
#307
0;0
1;2
1;4
0;5
0;6
0;7
0;8
0;10
0;13
#308
1;0
#309
0;0
1;1
0;2
1;5
1;6
0;9
1;10
1;11
1;13
1;14
#310
1;0
1;19
1;23
1;44
1;56
1;64
1;72
#311
0;0
0;1
1;2
0;4
0;5
0;6
0;10
0;13
0;15
#312
1;0
0;19
0;23
0;44
0;56
0;64
0;72
#313
0;0
1;1
1;3
1;4
1;8
1;10
0;11
1;13
0;14
1;15
#314
1;0
#315
0;0
0;1
0;2
0;3
1;5
1;7
1;9
0;10
1;11
0;13
1;14
#316
1;0
1;21
1;27
1;31
1;43
1;61
1;62
#317
0;0
1;1
1;2
0;4
0;5
1;6
0;7
0;9
0;11
0;15
#318
1;0
0;21
0;27
0;31
0;43
0;61
0;62
#319
0;0
0;2
1;3
1;4
1;5
0;6
0;8
1;9
1;10
1;12
1;13
#320
1;0
1;22
1;33
1;38
1;41
1;59
1;68
#321
0;0
0;1
0;5
0;10
0;13
#322
1;0
0;22
0;33
0;38
0;41
0;59
0;68
#323
0;0
1;1
0;3
0;4
1;6
0;9
1;10
1;11
0;12
0;14
1;15
#324
1;0
#325
0;0
1;3
1;5
1;8
1;9
#326
1;0
1;18
1;20
1;34
1;47
1;60
1;75
#327
0;0
1;2
1;4
1;7
0;11
1;13
1;14
0;15
#328
1;0
0;18
1;19
0;20
1;21
1;23
1;27
1;31
0;34
1;43
1;44
0;47
1;56
0;60
1;61
1;62
1;64
1;72
0;75
#329
0;0
0;2
0;4
0;5
0;6
0;7
0;9
1;12
1;15
#330
1;0
0;19
0;21
1;22
0;23
0;27
0;31
1;33
1;38
1;41
0;43
0;44
0;56
1;59
0;61
0;62
0;64
1;68
0;72
#331
0;0
0;1
0;3
1;5
1;6
1;7
0;8
1;11
0;15
#332
1;0
1;19
0;22
1;23
0;33
0;38
0;41
1;44
1;56
0;59
1;64
0;68
1;72
#333
0;0
1;4
0;5
0;6
1;9
0;11
0;12
1;15
#334
1;0
0;19
0;23
0;44
0;56
0;64
0;72
#335
0;0
1;3
0;7
1;8
0;13
0;14
#336
1;0
#337
0;0
0;4
1;5
0;8
0;9
0;10
1;14
0;15
#338
1;0
#339
0;0
1;1
1;2
0;3
0;5
1;8
1;9
1;10
0;14
#340
1;0
#341
0;0
0;2
1;4
1;6
1;7
0;8
1;12
#342
1;0
1;22
1;33
1;38
1;41
1;59
1;68
#343
0;0
0;1
1;2
0;4
1;5
0;6
0;7
1;11
1;13
1;14
1;15
#344
1;0
0;22
0;33
0;38
0;41
0;59
0;68
#345
0;0
1;1
1;3
1;4
0;5
1;6
1;8
0;9
0;10
0;11
0;12
0;14
#346
1;0
#347
0;0
0;1
0;2
0;3
0;4
0;6
0;8
1;12
1;14
#348
1;0
#349
0;0
1;1
1;2
1;8
1;9
1;11
0;13
0;14
0;15
#350
1;0
#351
0;0
0;2
1;6
1;13
1;15
#352
1;0
#353
0;0
0;1
1;2
0;6
0;8
1;10
0;11
0;12
#354
1;0
#355
0;0
1;1
0;2
1;3
1;4
0;10
1;14
0;15
#356
1;0
#357
0;0
0;1
0;3
0;4
1;7
1;8
0;9
#358
1;0
#359
0;0
1;4
0;8
0;13
0;14
#360
1;0
#361
0;0
1;1
1;5
1;9
1;10
1;13
1;14
1;15
#362
1;0
#363
0;0
1;2
0;4
0;7
0;9
1;11
1;12
#364
1;0
1;22
1;33
1;38
1;41
1;59
1;68
#365
0;0
0;2
1;3
1;4
0;14
0;15
#366
1;0
#367
0;0
0;3
0;5
1;6
1;7
1;9
0;12
0;13
1;14
#368
1;0
0;22
0;33
0;38
0;41
0;59
0;68
#369
0;0
0;6
0;9
0;10
1;13
#370
1;0
#371
0;0
1;5
0;7
1;9
0;13
0;14
1;15
#372
1;0
#373
0;0
0;1
1;2
0;5
1;7
0;9
1;10
0;11
1;12
1;13
1;14
0;15
#374
1;0
#375
0;0
0;2
0;4
1;6
1;9
0;10
0;13
1;15
#376
1;0
#377
0;0
1;2
0;7
1;8
1;11
1;13
0;14
0;15
#378
1;0
#379
0;0
0;2
1;5
0;6
0;8
1;10
0;11
0;13
#380
1;0
#381
0;0
1;1
0;5
1;7
0;9
0;10
1;13
1;15
#382
1;0
#383
0;0
1;4
1;6
0;7
1;9
1;10
0;13
#384
1;0
1;22
1;33
1;38
1;41
1;59
1;68
#385
0;0
0;6
1;7
1;8
1;11
#386
1;0
#387
0;0
0;1
1;2
1;3
0;4
0;8
0;9
0;10
0;12
1;13
#388
1;0
1;17
0;22
1;25
1;28
0;33
0;38
0;41
1;42
0;59
0;68
1;70
1;74
#389
0;0
1;6
1;8
1;12
1;14
#390
1;0
1;19
1;23
1;44
1;56
1;64
1;72
#391
0;0
1;1
0;3
1;5
0;6
0;7
0;8
1;9
1;10
0;11
0;12
0;15
#392
1;0
0;17
0;19
0;23
0;25
0;28
0;42
0;44
0;56
0;64
0;70
0;72
0;74
#393
0;0
0;1
0;2
1;3
1;4
0;5
1;6
1;8
0;10
1;11
1;15
#394
1;0
1;18
1;19
1;20
1;23
1;34
1;44
1;47
1;56
1;60
1;64
1;72
1;75
#395
0;0
0;4
0;6
1;7
0;11
1;12
0;13
#396
1;0
0;18
0;19
0;20
0;23
0;34
0;44
0;47
0;56
0;60
0;64
0;72
0;75
#397
0;0
1;1
1;5
1;6
0;7
0;8
1;10
0;12
1;13
0;14
#398
1;0
#399
0;0
0;1
1;4
0;6
1;12
0;13
0;15
#400
1;0
