input/arb2/faulty_traces/fault_1.vcd
$date
    Jan 22, 2025 06:59:12
$end
$version
    Tracer 3.0.0 - By Enrico Fraccaroli <enry.frak@gmail.com> --- 2022/02/15
$end
$timescale
    1ns
$end
$scope module arb2_bench $end
$scope module arb2_ $end
    $var wire 1 ;0 clk $end
    $var wire 1 ;1 req1 $end
    $var wire 1 ;2 req2 $end
    $var wire 1 ;3 gnt1 $end
    $var wire 1 ;4 gnt2 $end
    $var wire 1 ;5 rst $end
    $var wire 1 ;6 state $end
$upscope $end
$upscope $end
$enddefinitions $end
#0
$dumpvars
1;0
0;1
1;2
0;3
1;4
0;5
0;6
$end
#1
0;0
1;1
0;2
1;3
0;4
#2
1;0
#3
0;0
1;2
#4
1;0
#5
0;0
#6
1;0
#7
0;0
0;1
0;2
0;3
#8
1;0
#9
0;0
1;1
1;2
1;3
#10
1;0
#11
0;0
0;1
0;3
1;4
#12
1;0
#13
0;0
#14
1;0
#15
0;0
1;1
0;2
1;3
0;4
#16
1;0
#17
0;0
0;1
0;3
#18
1;0
#19
0;0
#20
1;0
#21
0;0
1;1
1;3
#22
1;0
#23
0;0
1;2
#24
1;0
#25
0;0
0;1
0;2
0;3
#26
1;0
#27
0;0
1;2
1;4
#28
1;0
#29
0;0
1;1
1;3
0;4
#30
1;0
#31
0;0
0;2
#32
1;0
#33
0;0
0;1
0;3
#34
1;0
#35
0;0
1;1
1;2
1;3
#36
1;0
#37
0;0
0;2
#38
1;0
#39
0;0
#40
1;0
#41
0;0
1;2
#42
1;0
#43
0;0
#44
1;0
#45
0;0
0;1
0;3
1;4
#46
1;0
#47
0;0
0;2
0;4
#48
1;0
#49
0;0
1;1
1;3
#50
1;0
#51
0;0
#52
1;0
#53
0;0
#54
1;0
#55
0;0
0;1
1;2
0;3
1;4
#56
1;0
#57
0;0
0;2
0;4
#58
1;0
#59
0;0
1;2
1;4
#60
1;0
#61
0;0
1;1
1;3
0;4
#62
1;0
#63
0;0
0;1
0;3
1;4
#64
1;0
#65
0;0
#66
1;0
#67
0;0
#68
1;0
#69
0;0
1;1
1;3
0;4
#70
1;0
#71
0;0
0;1
0;3
1;4
#72
1;0
#73
0;0
#74
1;0
#75
0;0
#76
1;0
#77
0;0
0;2
0;4
#78
1;0
#79
0;0
1;1
1;3
#80
1;0
#81
0;0
#82
1;0
#83
0;0
0;1
0;3
#84
1;0
#85
0;0
#86
1;0
#87
0;0
1;1
1;2
1;3
#88
1;0
#89
0;0
0;1
0;3
1;4
#90
1;0
#91
0;0
0;2
0;4
#92
1;0
#93
0;0
#94
1;0
#95
0;0
1;1
1;3
#96
1;0
#97
0;0
0;1
0;3
#98
1;0
#99
0;0
1;2
1;4
#100
1;0
#101
0;0
1;1
0;2
1;3
0;4
#102
1;0
#103
0;0
0;1
0;3
#104
1;0
#105
0;0
1;1
1;2
1;3
#106
1;0
#107
0;0
0;2
#108
1;0
#109
0;0
#110
1;0
#111
0;0
0;1
0;3
#112
1;0
#113
0;0
1;1
1;3
#114
1;0
#115
0;0
0;1
1;2
0;3
1;4
#116
1;0
#117
0;0
1;1
1;3
0;4
#118
1;0
#119
0;0
0;1
0;3
1;4
#120
1;0
#121
0;0
#122
1;0
#123
0;0
1;1
1;3
0;4
#124
1;0
#125
0;0
#126
1;0
#127
0;0
#128
1;0
#129
0;0
#130
1;0
#131
0;0
0;2
#132
1;0
#133
0;0
1;2
#134
1;0
#135
0;0
0;1
0;3
1;4
#136
1;0
#137
0;0
#138
1;0
#139
0;0
1;1
0;2
1;3
0;4
#140
1;0
#141
0;0
0;1
1;2
0;3
1;4
#142
1;0
#143
0;0
#144
1;0
#145
0;0
1;1
1;3
0;4
#146
1;0
#147
0;0
0;1
0;2
0;3
#148
1;0
#149
0;0
1;2
1;4
#150
1;0
#151
0;0
#152
1;0
#153
0;0
#154
1;0
#155
0;0
#156
1;0
#157
0;0
#158
1;0
#159
0;0
1;1
1;3
0;4
#160
1;0
#161
0;0
0;2
#162
1;0
#163
0;0
0;1
0;3
#164
1;0
#165
0;0
1;1
1;3
#166
1;0
#167
0;0
#168
1;0
#169
0;0
0;1
0;3
#170
1;0
#171
0;0
#172
1;0
#173
0;0
1;1
1;3
#174
1;0
#175
0;0
1;2
#176
1;0
#177
0;0
#178
1;0
#179
0;0
0;2
#180
1;0
#181
0;0
0;1
1;2
0;3
1;4
#182
1;0
#183
0;0
1;1
0;2
1;3
0;4
#184
1;0
#185
0;0
1;2
#186
1;0
#187
0;0
0;1
0;3
1;4
#188
1;0
#189
0;0
#190
1;0
#191
0;0
1;1
1;3
0;4
#192
1;0
#193
0;0
#194
1;0
#195
0;0
0;1
0;2
0;3
#196
1;0
#197
0;0
1;1
1;2
1;3
#198
1;0
#199
0;0
0;1
0;3
1;4
#200
1;0
#201
0;0
0;2
0;4
#202
1;0
#203
0;0
1;1
1;2
1;3
#204
1;0
#205
0;0
0;2
#206
1;0
#207
0;0
0;1
0;3
#208
1;0
#209
0;0
#210
1;0
#211
0;0
#212
1;0
#213
0;0
1;1
1;2
1;3
#214
1;0
#215
0;0
0;2
#216
1;0
#217
0;0
0;1
1;2
0;3
1;4
#218
1;0
#219
0;0
#220
1;0
#221
0;0
#222
1;0
#223
0;0
#224
1;0
#225
0;0
0;2
0;4
#226
1;0
#227
0;0
1;1
1;2
1;3
#228
1;0
#229
0;0
0;1
0;2
0;3
#230
1;0
#231
0;0
1;1
1;3
#232
1;0
#233
0;0
0;1
0;3
#234
1;0
#235
0;0
1;1
1;2
1;3
#236
1;0
#237
0;0
0;2
#238
1;0
#239
0;0
0;1
1;2
0;3
1;4
#240
1;0
#241
0;0
0;2
0;4
#242
1;0
#243
0;0
1;1
1;2
1;3
#244
1;0
#245
0;0
0;1
0;2
0;3
#246
1;0
#247
0;0
#248
1;0
#249
0;0
1;1
1;3
#250
1;0
#251
0;0
1;2
#252
1;0
#253
0;0
0;2
#254
1;0
#255
0;0
0;1
1;2
0;3
1;4
#256
1;0
#257
0;0
0;2
0;4
#258
1;0
#259
0;0
#260
1;0
#261
0;0
1;2
1;4
#262
1;0
#263
0;0
0;2
0;4
#264
1;0
#265
0;0
#266
1;0
#267
0;0
1;2
1;4
#268
1;0
#269
0;0
0;2
0;4
#270
1;0
#271
0;0
#272
1;0
#273
0;0
1;2
1;4
#274
1;0
#275
0;0
1;1
0;2
1;3
0;4
#276
1;0
#277
0;0
0;1
1;2
0;3
1;4
#278
1;0
#279
0;0
1;1
1;3
0;4
#280
1;0
#281
0;0
0;2
#282
1;0
#283
0;0
#284
1;0
#285
0;0
0;1
1;2
0;3
1;4
#286
1;0
#287
0;0
1;1
1;3
0;4
#288
1;0
#289
0;0
0;2
#290
1;0
#291
0;0
1;2
#292
1;0
#293
0;0
0;2
#294
1;0
#295
0;0
0;1
1;2
0;3
1;4
#296
1;0
#297
0;0
0;2
0;4
#298
1;0
#299
0;0
#300
1;0
#301
0;0
#302
1;0
#303
0;0
#304
1;0
#305
0;0
1;2
1;4
#306
1;0
#307
0;0
1;1
0;2
1;3
0;4
#308
1;0
#309
0;0
#310
1;0
#311
0;0
#312
1;0
#313
0;0
0;1
0;3
#314
1;0
#315
0;0
1;1
1;2
1;3
#316
1;0
#317
0;0
0;1
0;2
0;3
#318
1;0
#319
0;0
1;2
1;4
#320
1;0
#321
0;0
#322
1;0
#323
0;0
1;1
0;2
1;3
0;4
#324
1;0
#325
0;0
1;2
#326
1;0
#327
0;0
#328
1;0
#329
0;0
0;2
#330
1;0
#331
0;0
1;2
#332
1;0
#333
0;0
0;1
0;3
1;4
#334
1;0
#335
0;0
1;1
0;2
1;3
0;4
#336
1;0
#337
0;0
#338
1;0
#339
0;0
0;1
0;3
#340
1;0
#341
0;0
#342
1;0
#343
0;0
1;2
1;4
#344
1;0
#345
0;0
#346
1;0
#347
0;0
0;2
0;4
#348
1;0
#349
0;0
#350
1;0
#351
0;0
#352
1;0
#353
0;0
1;1
1;2
1;3
#354
1;0
#355
0;0
0;1
0;3
1;4
#356
1;0
#357
0;0
0;2
0;4
#358
1;0
#359
0;0
1;2
1;4
#360
1;0
#361
0;0
0;2
0;4
#362
1;0
#363
0;0
#364
1;0
#365
0;0
1;1
1;2
1;3
#366
1;0
#367
0;0
0;2
#368
1;0
#369
0;0
0;1
1;2
0;3
1;4
#370
1;0
#371
0;0
0;2
0;4
#372
1;0
#373
0;0
1;1
1;2
1;3
#374
1;0
#375
0;0
0;2
#376
1;0
#377
0;0
0;1
1;2
0;3
1;4
#378
1;0
#379
0;0
0;2
0;4
#380
1;0
#381
0;0
1;1
1;3
#382
1;0
#383
0;0
1;2
#384
1;0
#385
0;0
#386
1;0
#387
0;0
0;1
0;3
1;4
#388
1;0
#389
0;0
1;1
0;2
1;3
0;4
#390
1;0
#391
0;0
0;1
1;2
0;3
1;4
#392
1;0
#393
0;0
0;2
0;4
#394
1;0
#395
0;0
#396
1;0
#397
0;0
1;2
1;4
#398
1;0
#399
0;0
0;2
0;4
#400
1;0
#401
0;0
1;2
1;4
#402
1;0
#403
0;0
0;2
0;4
#404
1;0
#405
0;0
#406
1;0
#407
0;0
#408
1;0
#409
0;0
1;1
1;3
#410
1;0
#411
0;0
1;2
#412
1;0
#413
0;0
0;2
#414
1;0
#415
0;0
0;1
0;3
#416
1;0
#417
0;0
1;1
1;3
#418
1;0
#419
0;0
0;1
1;2
0;3
1;4
#420
1;0
#421
0;0
0;2
0;4
#422
1;0
#423
0;0
1;2
1;4
#424
1;0
#425
0;0
1;1
0;2
1;3
0;4
#426
1;0
#427
0;0
1;2
#428
1;0
#429
0;0
#430
1;0
#431
0;0
0;2
#432
1;0
#433
0;0
0;1
1;2
0;3
1;4
#434
1;0
#435
0;0
0;2
0;4
#436
1;0
#437
0;0
1;1
1;3
#438
1;0
#439
0;0
1;2
#440
1;0
#441
0;0
0;1
0;2
0;3
#442
1;0
#443
0;0
1;2
1;4
#444
1;0
#445
0;0
0;2
0;4
#446
1;0
#447
0;0
1;2
1;4
#448
1;0
#449
0;0
0;2
0;4
#450
1;0
#451
0;0
#452
1;0
#453
0;0
1;2
1;4
#454
1;0
#455
0;0
1;1
1;3
0;4
#456
1;0
#457
0;0
0;2
#458
1;0
#459
0;0
0;1
1;2
0;3
1;4
#460
1;0
#461
0;0
#462
1;0
#463
0;0
1;1
0;2
1;3
0;4
#464
1;0
#465
0;0
1;2
#466
1;0
#467
0;0
0;2
#468
1;0
#469
0;0
#470
1;0
#471
0;0
1;2
#472
1;0
#473
0;0
0;1
0;3
1;4
#474
1;0
#475
0;0
1;1
0;2
1;3
0;4
#476
1;0
#477
0;0
1;2
#478
1;0
#479
0;0
#480
1;0
#481
0;0
0;2
#482
1;0
#483
0;0
0;1
1;2
0;3
1;4
#484
1;0
#485
0;0
1;1
1;3
0;4
#486
1;0
#487
0;0
0;2
#488
1;0
#489
0;0
0;1
1;2
0;3
1;4
#490
1;0
#491
0;0
1;1
0;2
1;3
0;4
#492
1;0
#493
0;0
#494
1;0
#495
0;0
0;1
0;3
#496
1;0
#497
0;0
1;1
1;2
1;3
#498
1;0
#499
0;0
0;1
0;2
0;3
#500
1;0
#501
0;0
1;1
1;3
#502
1;0
#503
0;0
0;1
1;2
0;3
1;4
#504
1;0
#505
0;0
1;1
1;3
0;4
#506
1;0
#507
0;0
#508
1;0
#509
0;0
0;1
0;3
1;4
#510
1;0
#511
0;0
#512
1;0
#513
0;0
1;1
0;2
1;3
0;4
#514
1;0
#515
0;0
0;1
0;3
#516
1;0
#517
0;0
1;2
1;4
#518
1;0
#519
0;0
0;2
0;4
#520
1;0
#521
0;0
1;1
1;3
#522
1;0
#523
0;0
0;1
0;3
#524
1;0
#525
0;0
#526
1;0
#527
0;0
#528
1;0
#529
0;0
#530
1;0
#531
0;0
1;2
1;4
#532
1;0
#533
0;0
0;2
0;4
#534
1;0
#535
0;0
1;1
1;3
#536
1;0
#537
0;0
#538
1;0
#539
0;0
1;2
#540
1;0
#541
0;0
#542
1;0
#543
0;0
0;1
0;2
0;3
#544
1;0
#545
0;0
1;2
1;4
#546
1;0
#547
0;0
0;2
0;4
#548
1;0
#549
0;0
1;2
1;4
#550
1;0
#551
0;0
#552
1;0
#553
0;0
1;1
0;2
1;3
0;4
#554
1;0
#555
0;0
1;2
#556
1;0
#557
0;0
0;1
0;3
1;4
#558
1;0
#559
0;0
1;1
0;2
1;3
0;4
#560
1;0
#561
0;0
0;1
0;3
#562
1;0
#563
0;0
#564
1;0
#565
0;0
1;2
1;4
#566
1;0
#567
0;0
0;2
0;4
#568
1;0
#569
0;0
1;1
1;2
1;3
#570
1;0
#571
0;0
#572
1;0
#573
0;0
0;2
#574
1;0
#575
0;0
1;2
#576
1;0
#577
0;0
0;2
#578
1;0
#579
0;0
1;2
#580
1;0
#581
0;0
#582
1;0
#583
0;0
0;2
#584
1;0
#585
0;0
#586
1;0
#587
0;0
1;2
#588
1;0
#589
0;0
0;1
0;3
1;4
#590
1;0
#591
0;0
0;2
0;4
#592
1;0
#593
0;0
1;1
1;3
#594
1;0
#595
0;0
0;1
1;2
0;3
1;4
#596
1;0
#597
0;0
1;1
1;3
0;4
#598
1;0
#599
0;0
0;2
#600
1;0
#601
0;0
0;1
1;2
0;3
1;4
#602
1;0
#603
0;0
1;1
1;3
0;4
#604
1;0
#605
0;0
#606
1;0
#607
0;0
0;1
0;2
0;3
#608
1;0
#609
0;0
1;1
1;2
1;3
#610
1;0
#611
0;0
0;2
#612
1;0
#613
0;0
0;1
0;3
#614
1;0
#615
0;0
1;2
1;4
#616
1;0
#617
0;0
1;1
1;3
0;4
#618
1;0
#619
0;0
#620
1;0
#621
0;0
0;1
0;3
1;4
#622
1;0
#623
0;0
1;1
1;3
0;4
#624
1;0
#625
0;0
#626
1;0
#627
0;0
0;2
#628
1;0
#629
0;0
0;1
0;3
#630
1;0
#631
0;0
1;2
1;4
#632
1;0
#633
0;0
1;1
0;2
1;3
0;4
#634
1;0
#635
0;0
0;1
0;3
#636
1;0
#637
0;0
1;1
1;2
1;3
#638
1;0
#639
0;0
0;1
0;2
0;3
#640
1;0
#641
0;0
#642
1;0
#643
0;0
1;2
1;4
#644
1;0
#645
0;0
0;2
0;4
#646
1;0
#647
0;0
1;2
1;4
#648
1;0
#649
0;0
1;1
1;3
0;4
#650
1;0
#651
0;0
0;1
0;2
0;3
#652
1;0
#653
0;0
1;2
1;4
#654
1;0
#655
0;0
1;1
1;3
0;4
#656
1;0
#657
0;0
0;2
#658
1;0
#659
0;0
1;2
#660
1;0
#661
0;0
0;2
#662
1;0
#663
0;0
0;1
0;3
#664
1;0
#665
0;0
1;2
1;4
#666
1;0
#667
0;0
1;1
1;3
0;4
#668
1;0
#669
0;0
0;1
0;3
1;4
#670
1;0
#671
0;0
1;1
0;2
1;3
0;4
#672
1;0
#673
0;0
1;2
#674
1;0
#675
0;0
0;2
#676
1;0
#677
0;0
#678
1;0
#679
0;0
#680
1;0
#681
0;0
#682
1;0
#683
0;0
0;1
0;3
#684
1;0
#685
0;0
1;1
1;3
#686
1;0
#687
0;0
#688
1;0
#689
0;0
0;1
1;2
0;3
1;4
#690
1;0
#691
0;0
#692
1;0
#693
0;0
1;1
0;2
1;3
0;4
#694
1;0
#695
0;0
0;1
1;2
0;3
1;4
#696
1;0
#697
0;0
1;1
1;3
0;4
#698
1;0
#699
0;0
0;1
0;3
1;4
#700
1;0
#701
0;0
#702
1;0
#703
0;0
0;2
0;4
#704
1;0
#705
0;0
1;2
1;4
#706
1;0
#707
0;0
#708
1;0
#709
0;0
1;1
1;3
0;4
#710
1;0
#711
0;0
#712
1;0
#713
0;0
0;2
#714
1;0
#715
0;0
1;2
#716
1;0
#717
0;0
0;1
0;2
0;3
#718
1;0
#719
0;0
1;1
1;3
#720
1;0
#721
0;0
1;2
#722
1;0
#723
0;0
0;1
0;2
0;3
#724
1;0
#725
0;0
#726
1;0
#727
0;0
1;1
1;2
1;3
#728
1;0
#729
0;0
#730
1;0
#731
0;0
#732
1;0
#733
0;0
0;1
0;3
1;4
#734
1;0
#735
0;0
1;1
0;2
1;3
0;4
#736
1;0
#737
0;0
0;1
1;2
0;3
1;4
#738
1;0
#739
0;0
1;1
0;2
1;3
0;4
#740
1;0
#741
0;0
1;2
#742
1;0
#743
0;0
0;2
#744
1;0
#745
0;0
#746
1;0
#747
0;0
1;2
#748
1;0
#749
0;0
0;1
0;3
1;4
#750
1;0
#751
0;0
1;1
0;2
1;3
0;4
#752
1;0
#753
0;0
0;1
1;2
0;3
1;4
#754
1;0
#755
0;0
0;2
0;4
#756
1;0
#757
0;0
1;1
1;3
#758
1;0
#759
0;0
0;1
0;3
#760
1;0
#761
0;0
1;1
1;2
1;3
#762
1;0
#763
0;0
0;1
0;2
0;3
#764
1;0
#765
0;0
1;2
1;4
#766
1;0
#767
0;0
0;2
0;4
#768
1;0
#769
0;0
1;1
1;3
#770
1;0
#771
0;0
0;1
0;3
#772
1;0
#773
0;0
1;1
1;2
1;3
#774
1;0
#775
0;0
0;1
0;2
0;3
#776
1;0
#777
0;0
1;1
1;3
#778
1;0
#779
0;0
#780
1;0
#781
0;0
#782
1;0
#783
0;0
0;1
1;2
0;3
1;4
#784
1;0
#785
0;0
0;2
0;4
#786
1;0
#787
0;0
1;2
1;4
#788
1;0
#789
0;0
0;2
0;4
#790
1;0
#791
0;0
#792
1;0
#793
0;0
1;1
1;3
#794
1;0
#795
0;0
0;1
1;2
0;3
1;4
#796
1;0
#797
0;0
1;1
0;2
1;3
0;4
#798
1;0
#799
0;0
#800
1;0
#801
0;0
0;1
0;3
#802
1;0
#803
0;0
1;2
1;4
#804
1;0
#805
0;0
1;1
1;3
0;4
#806
1;0
#807
0;0
#808
1;0
#809
0;0
0;2
#810
1;0
#811
0;0
#812
1;0
#813
0;0
1;2
#814
1;0
#815
0;0
#816
1;0
#817
0;0
#818
1;0
#819
0;0
0;1
0;2
0;3
#820
1;0
#821
0;0
1;1
1;3
#822
1;0
#823
0;0
0;1
0;3
#824
1;0
#825
0;0
#826
1;0
#827
0;0
1;1
1;3
#828
1;0
#829
0;0
0;1
1;2
0;3
1;4
#830
1;0
#831
0;0
#832
1;0
#833
0;0
1;1
1;3
0;4
#834
1;0
#835
0;0
0;1
0;2
0;3
#836
1;0
#837
0;0
#838
1;0
#839
0;0
1;1
1;2
1;3
#840
1;0
#841
0;0
0;1
0;2
0;3
#842
1;0
#843
0;0
1;1
1;2
1;3
#844
1;0
#845
0;0
0;2
#846
1;0
#847
0;0
0;1
1;2
0;3
1;4
#848
1;0
#849
0;0
#850
1;0
#851
0;0
1;1
1;3
0;4
#852
1;0
#853
0;0
#854
1;0
#855
0;0
0;1
0;2
0;3
#856
1;0
#857
0;0
1;1
1;2
1;3
#858
1;0
#859
0;0
0;1
0;3
1;4
#860
1;0
#861
0;0
0;2
0;4
#862
1;0
#863
0;0
1;2
1;4
#864
1;0
#865
0;0
1;1
1;3
0;4
#866
1;0
#867
0;0
0;1
0;3
1;4
#868
1;0
#869
0;0
1;1
1;3
0;4
#870
1;0
#871
0;0
0;1
0;3
1;4
#872
1;0
#873
0;0
#874
1;0
#875
0;0
1;1
1;3
0;4
#876
1;0
#877
0;0
0;1
0;3
1;4
#878
1;0
#879
0;0
0;2
0;4
#880
1;0
#881
0;0
1;2
1;4
#882
1;0
#883
0;0
1;1
0;2
1;3
0;4
#884
1;0
#885
0;0
0;1
1;2
0;3
1;4
#886
1;0
#887
0;0
#888
1;0
#889
0;0
1;1
0;2
1;3
0;4
#890
1;0
#891
0;0
1;2
#892
1;0
#893
0;0
0;1
0;3
1;4
#894
1;0
#895
0;0
1;1
0;2
1;3
0;4
#896
1;0
#897
0;0
0;1
1;2
0;3
1;4
#898
1;0
#899
0;0
1;1
1;3
0;4
#900
1;0
#901
0;0
0;1
0;2
0;3
#902
1;0
#903
0;0
1;1
1;3
#904
1;0
#905
0;0
#906
1;0
#907
0;0
0;1
1;2
0;3
1;4
#908
1;0
#909
0;0
1;1
0;2
1;3
0;4
#910
1;0
#911
0;0
#912
1;0
#913
0;0
0;1
1;2
0;3
1;4
#914
1;0
#915
0;0
0;2
0;4
#916
1;0
#917
0;0
#918
1;0
#919
0;0
1;2
1;4
#920
1;0
#921
0;0
#922
1;0
#923
0;0
1;1
0;2
1;3
0;4
#924
1;0
#925
0;0
0;1
0;3
#926
1;0
#927
0;0
1;2
1;4
#928
1;0
#929
0;0
1;1
0;2
1;3
0;4
#930
1;0
#931
0;0
0;1
1;2
0;3
1;4
#932
1;0
#933
0;0
#934
1;0
#935
0;0
#936
1;0
#937
0;0
1;1
0;2
1;3
0;4
#938
1;0
#939
0;0
1;2
#940
1;0
#941
0;0
0;1
0;2
0;3
#942
1;0
#943
0;0
1;1
1;3
#944
1;0
#945
0;0
1;2
#946
1;0
#947
0;0
0;2
#948
1;0
#949
0;0
1;2
#950
1;0
#951
0;0
#952
1;0
#953
0;0
0;1
0;2
0;3
#954
1;0
#955
0;0
1;1
1;3
#956
1;0
#957
0;0
0;1
0;3
#958
1;0
#959
0;0
1;1
1;2
1;3
#960
1;0
#961
0;0
0;1
0;2
0;3
#962
1;0
#963
0;0
1;1
1;3
#964
1;0
#965
0;0
1;2
#966
1;0
#967
0;0
#968
1;0
#969
0;0
0;2
#970
1;0
#971
0;0
0;1
1;2
0;3
1;4
#972
1;0
#973
0;0
1;1
1;3
0;4
#974
1;0
#975
0;0
0;1
0;2
0;3
#976
1;0
#977
0;0
1;2
1;4
#978
1;0
#979
0;0
#980
1;0
#981
0;0
0;2
0;4
#982
1;0
#983
0;0
#984
1;0
#985
0;0
1;2
1;4
#986
1;0
#987
0;0
#988
1;0
#989
0;0
1;1
0;2
1;3
0;4
#990
1;0
#991
0;0
0;1
1;2
0;3
1;4
#992
1;0
#993
0;0
#994
1;0
#995
0;0
1;1
1;3
0;4
#996
1;0
#997
0;0
0;1
0;3
1;4
#998
1;0
#999
0;0
#1000
1;0
#1001
0;0
1;1
0;2
1;3
0;4
#1002
1;0
#1003
0;0
#1004
1;0
#1005
0;0
1;2
#1006
1;0
#1007
0;0
#1008
1;0
#1009
0;0
0;1
0;3
1;4
#1010
1;0
#1011
0;0
0;2
0;4
#1012
1;0
#1013
0;0
1;1
1;3
#1014
1;0
#1015
0;0
0;1
0;3
#1016
1;0
#1017
0;0
#1018
1;0
#1019
0;0
1;1
1;2
1;3
#1020
1;0
#1021
0;0
0;1
0;3
1;4
#1022
1;0
#1023
0;0
1;1
0;2
1;3
0;4
#1024
1;0
#1025
0;0
#1026
1;0
#1027
0;0
0;1
1;2
0;3
1;4
#1028
1;0
#1029
0;0
1;1
0;2
1;3
0;4
#1030
1;0
#1031
0;0
1;2
#1032
1;0
#1033
0;0
0;2
#1034
1;0
#1035
0;0
#1036
1;0
#1037
0;0
#1038
1;0
#1039
0;0
0;1
1;2
0;3
1;4
#1040
1;0
#1041
0;0
0;2
0;4
#1042
1;0
#1043
0;0
1;1
1;2
1;3
#1044
1;0
#1045
0;0
#1046
1;0
#1047
0;0
#1048
1;0
#1049
0;0
0;2
#1050
1;0
#1051
0;0
0;1
0;3
#1052
1;0
#1053
0;0
1;2
1;4
#1054
1;0
#1055
0;0
#1056
1;0
#1057
0;0
0;2
0;4
#1058
1;0
#1059
0;0
1;2
1;4
#1060
1;0
#1061
0;0
1;1
1;3
0;4
#1062
1;0
#1063
0;0
0;1
0;2
0;3
#1064
1;0
#1065
0;0
1;1
1;3
#1066
1;0
#1067
0;0
0;1
0;3
#1068
1;0
#1069
0;0
#1070
1;0
#1071
0;0
1;1
1;3
#1072
1;0
#1073
0;0
#1074
1;0
#1075
0;0
0;1
0;3
#1076
1;0
#1077
0;0
1;1
1;2
1;3
#1078
1;0
#1079
0;0
#1080
1;0
#1081
0;0
0;1
0;3
1;4
#1082
1;0
#1083
0;0
1;1
0;2
1;3
0;4
#1084
1;0
#1085
0;0
1;2
#1086
1;0
#1087
0;0
#1088
1;0
#1089
0;0
0;1
0;3
1;4
#1090
1;0
#1091
0;0
#1092
1;0
#1093
0;0
1;1
1;3
0;4
#1094
1;0
#1095
0;0
0;2
#1096
1;0
#1097
0;0
1;2
#1098
1;0
#1099
0;0
#1100
1;0
#1101
0;0
0;1
0;2
0;3
#1102
1;0
#1103
0;0
1;2
1;4
#1104
1;0
#1105
0;0
1;1
0;2
1;3
0;4
#1106
1;0
#1107
0;0
#1108
1;0
#1109
0;0
#1110
1;0
#1111
0;0
1;2
#1112
1;0
#1113
0;0
0;2
#1114
1;0
#1115
0;0
#1116
1;0
#1117
0;0
0;1
0;3
#1118
1;0
#1119
0;0
1;1
1;3
#1120
1;0
#1121
0;0
0;1
0;3
#1122
1;0
#1123
0;0
1;1
1;2
1;3
#1124
1;0
#1125
0;0
0;2
#1126
1;0
#1127
0;0
#1128
1;0
#1129
0;0
#1130
1;0
#1131
0;0
1;2
#1132
1;0
#1133
0;0
#1134
1;0
#1135
0;0
0;1
0;2
0;3
#1136
1;0
#1137
0;0
1;1
1;2
1;3
#1138
1;0
#1139
0;0
0;1
0;3
1;4
#1140
1;0
#1141
0;0
1;1
0;2
1;3
0;4
#1142
1;0
#1143
0;0
0;1
1;2
0;3
1;4
#1144
1;0
#1145
0;0
0;2
0;4
#1146
1;0
#1147
0;0
1;1
1;3
#1148
1;0
#1149
0;0
0;1
1;2
0;3
1;4
#1150
1;0
#1151
0;0
0;2
0;4
#1152
1;0
#1153
0;0
1;1
1;2
1;3
#1154
1;0
#1155
0;0
0;2
#1156
1;0
#1157
0;0
1;2
#1158
1;0
#1159
0;0
0;1
0;3
1;4
#1160
1;0
#1161
0;0
1;1
1;3
0;4
#1162
1;0
#1163
0;0
0;1
0;2
0;3
#1164
1;0
#1165
0;0
1;1
1;2
1;3
#1166
1;0
#1167
0;0
0;1
0;2
0;3
#1168
1;0
#1169
0;0
1;2
1;4
#1170
1;0
#1171
0;0
1;1
0;2
1;3
0;4
#1172
1;0
#1173
0;0
#1174
1;0
#1175
0;0
1;2
#1176
1;0
#1177
0;0
0;1
0;2
0;3
#1178
1;0
#1179
0;0
#1180
1;0
#1181
0;0
1;1
1;3
#1182
1;0
#1183
0;0
#1184
1;0
#1185
0;0
0;1
0;3
#1186
1;0
#1187
0;0
1;2
1;4
#1188
1;0
#1189
0;0
1;1
0;2
1;3
0;4
#1190
1;0
#1191
0;0
0;1
1;2
0;3
1;4
#1192
1;0
#1193
0;0
#1194
1;0
#1195
0;0
1;1
1;3
0;4
#1196
1;0
#1197
0;0
0;1
0;2
0;3
#1198
1;0
#1199
0;0
1;1
1;3
#1200
1;0
#1201
0;0
1;2
#1202
1;0
#1203
0;0
0;1
0;2
0;3
#1204
1;0
#1205
0;0
1;1
1;2
1;3
#1206
1;0
#1207
0;0
#1208
1;0
#1209
0;0
0;1
0;3
1;4
#1210
1;0
#1211
0;0
1;1
1;3
0;4
#1212
1;0
#1213
0;0
0;1
0;2
0;3
#1214
1;0
#1215
0;0
#1216
1;0
#1217
0;0
1;1
1;3
#1218
1;0
#1219
0;0
#1220
1;0
#1221
0;0
#1222
1;0
#1223
0;0
1;2
#1224
1;0
#1225
0;0
#1226
1;0
#1227
0;0
0;1
0;3
1;4
#1228
1;0
#1229
0;0
1;1
1;3
0;4
#1230
1;0
#1231
0;0
0;2
#1232
1;0
#1233
0;0
0;1
0;3
#1234
1;0
#1235
0;0
1;2
1;4
#1236
1;0
#1237
0;0
1;1
1;3
0;4
#1238
1;0
#1239
0;0
0;1
0;3
1;4
#1240
1;0
#1241
0;0
1;1
0;2
1;3
0;4
#1242
1;0
#1243
0;0
1;2
#1244
1;0
#1245
0;0
0;1
0;3
1;4
#1246
1;0
#1247
0;0
1;1
1;3
0;4
#1248
1;0
#1249
0;0
0;2
#1250
1;0
#1251
0;0
0;1
0;3
#1252
1;0
#1253
0;0
1;2
1;4
#1254
1;0
#1255
0;0
1;1
1;3
0;4
#1256
1;0
#1257
0;0
0;1
0;3
1;4
#1258
1;0
#1259
0;0
#1260
1;0
#1261
0;0
1;1
0;2
1;3
0;4
#1262
1;0
#1263
0;0
1;2
#1264
1;0
#1265
0;0
0;1
0;3
1;4
#1266
1;0
#1267
0;0
1;1
1;3
0;4
#1268
1;0
#1269
0;0
#1270
1;0
#1271
0;0
0;2
#1272
1;0
#1273
0;0
#1274
1;0
#1275
0;0
#1276
1;0
#1277
0;0
#1278
1;0
#1279
0;0
#1280
1;0
#1281
0;0
0;1
1;2
0;3
1;4
#1282
1;0
#1283
0;0
1;1
1;3
0;4
#1284
1;0
#1285
0;0
0;2
#1286
1;0
#1287
0;0
0;1
1;2
0;3
1;4
#1288
1;0
#1289
0;0
#1290
1;0
#1291
0;0
1;1
1;3
0;4
#1292
1;0
#1293
0;0
0;2
#1294
1;0
#1295
0;0
0;1
1;2
0;3
1;4
#1296
1;0
#1297
0;0
#1298
1;0
#1299
0;0
#1300
1;0
#1301
0;0
1;1
1;3
0;4
#1302
1;0
#1303
0;0
0;2
#1304
1;0
#1305
0;0
#1306
1;0
#1307
0;0
0;1
0;3
#1308
1;0
#1309
0;0
#1310
1;0
#1311
0;0
1;1
1;3
#1312
1;0
#1313
0;0
#1314
1;0
#1315
0;0
#1316
1;0
#1317
0;0
0;1
0;3
#1318
1;0
#1319
0;0
#1320
1;0
#1321
0;0
1;1
1;2
1;3
#1322
1;0
#1323
0;0
0;2
#1324
1;0
#1325
0;0
#1326
1;0
#1327
0;0
1;2
#1328
1;0
#1329
0;0
#1330
1;0
#1331
0;0
0;1
0;2
0;3
#1332
1;0
#1333
0;0
1;1
1;2
1;3
#1334
1;0
#1335
0;0
0;2
#1336
1;0
#1337
0;0
1;2
#1338
1;0
#1339
0;0
#1340
1;0
