input/arb2/faulty_traces/fault_6.vcd
$date
    Jan 22, 2025 06:59:12
$end
$version
    Tracer 3.0.0 - By Enrico Fraccaroli <enry.frak@gmail.com> --- 2022/02/15
$end
$timescale
    1ns
$end
$scope module arb2_bench $end
$scope module arb2_ $end
    $var wire 1 ;0 clk $end
    $var wire 1 ;1 req1 $end
    $var wire 1 ;2 req2 $end
    $var wire 1 ;3 gnt1 $end
    $var wire 1 ;4 gnt2 $end
    $var wire 1 ;5 rst $end
    $var wire 1 ;6 state $end
$upscope $end
$upscope $end
$enddefinitions $end
#0
$dumpvars
1;0
0;1
1;2
0;3
1;4
0;5
0;6
$end
#1
0;0
1;1
0;2
0;4
#2
1;0
1;3
1;6
#3
0;0
1;2
0;3
1;4
#4
1;0
0;4
0;6
#5
0;0
#6
1;0
1;4
1;6
#7
0;0
0;1
0;2
0;4
#8
1;0
0;6
#9
0;0
1;1
1;2
#10
1;0
1;4
1;6
#11
0;0
0;1
#12
1;0
0;6
#13
0;0
#14
1;0
#15
0;0
1;1
0;2
0;4
#16
1;0
1;3
1;6
#17
0;0
0;1
0;3
#18
1;0
0;6
#19
0;0
#20
1;0
#21
0;0
1;1
#22
1;0
1;3
1;6
#23
0;0
1;2
0;3
1;4
#24
1;0
0;4
0;6
#25
0;0
0;1
0;2
#26
1;0
#27
0;0
1;2
1;4
#28
1;0
#29
0;0
1;1
0;4
#30
1;0
1;4
1;6
#31
0;0
0;2
1;3
0;4
#32
1;0
#33
0;0
0;1
0;3
#34
1;0
0;6
#35
0;0
1;1
1;2
#36
1;0
1;4
1;6
#37
0;0
0;2
1;3
0;4
#38
1;0
#39
0;0
#40
1;0
#41
0;0
1;2
0;3
1;4
#42
1;0
0;4
0;6
#43
0;0
#44
1;0
1;4
1;6
#45
0;0
0;1
#46
1;0
0;6
#47
0;0
0;2
0;4
#48
1;0
#49
0;0
1;1
#50
1;0
1;3
1;6
#51
0;0
#52
1;0
#53
0;0
#54
1;0
#55
0;0
0;1
1;2
0;3
1;4
#56
1;0
0;6
#57
0;0
0;2
0;4
#58
1;0
#59
0;0
1;2
1;4
#60
1;0
#61
0;0
1;1
0;4
#62
1;0
1;4
1;6
#63
0;0
0;1
#64
1;0
0;6
#65
0;0
#66
1;0
#67
0;0
#68
1;0
#69
0;0
1;1
0;4
#70
1;0
1;4
1;6
#71
0;0
0;1
#72
1;0
0;6
#73
0;0
#74
1;0
#75
0;0
#76
1;0
#77
0;0
0;2
0;4
#78
1;0
#79
0;0
1;1
#80
1;0
1;3
1;6
#81
0;0
#82
1;0
#83
0;0
0;1
0;3
#84
1;0
0;6
#85
0;0
#86
1;0
#87
0;0
1;1
1;2
#88
1;0
1;4
1;6
#89
0;0
0;1
#90
1;0
0;6
#91
0;0
0;2
0;4
#92
1;0
#93
0;0
#94
1;0
#95
0;0
1;1
#96
1;0
1;3
1;6
#97
0;0
0;1
0;3
#98
1;0
0;6
#99
0;0
1;2
1;4
#100
1;0
#101
0;0
1;1
0;2
0;4
#102
1;0
1;3
1;6
#103
0;0
0;1
0;3
#104
1;0
0;6
#105
0;0
1;1
1;2
#106
1;0
1;4
1;6
#107
0;0
0;2
1;3
0;4
#108
1;0
#109
0;0
#110
1;0
#111
0;0
0;1
0;3
#112
1;0
0;6
#113
0;0
1;1
#114
1;0
1;3
1;6
#115
0;0
0;1
1;2
0;3
1;4
#116
1;0
0;6
#117
0;0
1;1
0;4
#118
1;0
1;4
1;6
#119
0;0
0;1
#120
1;0
0;6
#121
0;0
#122
1;0
#123
0;0
1;1
0;4
#124
1;0
1;4
1;6
#125
0;0
#126
1;0
0;4
0;6
#127
0;0
#128
1;0
1;4
1;6
#129
0;0
#130
1;0
0;4
0;6
#131
0;0
0;2
#132
1;0
1;3
1;6
#133
0;0
1;2
0;3
1;4
#134
1;0
0;4
0;6
#135
0;0
0;1
1;4
#136
1;0
#137
0;0
#138
1;0
#139
0;0
1;1
0;2
0;4
#140
1;0
1;3
1;6
#141
0;0
0;1
1;2
0;3
1;4
#142
1;0
0;6
#143
0;0
#144
1;0
#145
0;0
1;1
0;4
#146
1;0
1;4
1;6
#147
0;0
0;1
0;2
0;4
#148
1;0
0;6
#149
0;0
1;2
1;4
#150
1;0
#151
0;0
#152
1;0
#153
0;0
#154
1;0
#155
0;0
#156
1;0
#157
0;0
#158
1;0
#159
0;0
1;1
0;4
#160
1;0
1;4
1;6
#161
0;0
0;2
1;3
0;4
#162
1;0
#163
0;0
0;1
0;3
#164
1;0
0;6
#165
0;0
1;1
#166
1;0
1;3
1;6
#167
0;0
#168
1;0
#169
0;0
0;1
0;3
#170
1;0
0;6
#171
0;0
#172
1;0
#173
0;0
1;1
#174
1;0
1;3
1;6
#175
0;0
1;2
0;3
1;4
#176
1;0
0;4
0;6
#177
0;0
#178
1;0
1;4
1;6
#179
0;0
0;2
1;3
0;4
#180
1;0
#181
0;0
0;1
1;2
0;3
1;4
#182
1;0
0;6
#183
0;0
1;1
0;2
0;4
#184
1;0
1;3
1;6
#185
0;0
1;2
0;3
1;4
#186
1;0
0;4
0;6
#187
0;0
0;1
1;4
#188
1;0
#189
0;0
#190
1;0
#191
0;0
1;1
0;4
#192
1;0
1;4
1;6
#193
0;0
#194
1;0
0;4
0;6
#195
0;0
0;1
0;2
#196
1;0
#197
0;0
1;1
1;2
#198
1;0
1;4
1;6
#199
0;0
0;1
#200
1;0
0;6
#201
0;0
0;2
0;4
#202
1;0
#203
0;0
1;1
1;2
#204
1;0
1;4
1;6
#205
0;0
0;2
1;3
0;4
#206
1;0
#207
0;0
0;1
0;3
#208
1;0
0;6
#209
0;0
#210
1;0
#211
0;0
#212
1;0
#213
0;0
1;1
1;2
#214
1;0
1;4
1;6
#215
0;0
0;2
1;3
0;4
#216
1;0
#217
0;0
0;1
1;2
0;3
1;4
#218
1;0
0;6
#219
0;0
#220
1;0
#221
0;0
#222
1;0
#223
0;0
#224
1;0
#225
0;0
0;2
0;4
#226
1;0
#227
0;0
1;1
1;2
#228
1;0
1;4
1;6
#229
0;0
0;1
0;2
0;4
#230
1;0
0;6
#231
0;0
1;1
#232
1;0
1;3
1;6
#233
0;0
0;1
0;3
#234
1;0
0;6
#235
0;0
1;1
1;2
#236
1;0
1;4
1;6
#237
0;0
0;2
1;3
0;4
#238
1;0
#239
0;0
0;1
1;2
0;3
1;4
#240
1;0
0;6
#241
0;0
0;2
0;4
#242
1;0
#243
0;0
1;1
1;2
#244
1;0
1;4
1;6
#245
0;0
0;1
0;2
0;4
#246
1;0
0;6
#247
0;0
#248
1;0
#249
0;0
1;1
#250
1;0
1;3
1;6
#251
0;0
1;2
0;3
1;4
#252
1;0
0;4
0;6
#253
0;0
0;2
#254
1;0
1;3
1;6
#255
0;0
0;1
1;2
0;3
1;4
#256
1;0
0;6
#257
0;0
0;2
0;4
#258
1;0
#259
0;0
#260
1;0
#261
0;0
1;2
1;4
#262
1;0
#263
0;0
0;2
0;4
#264
1;0
#265
0;0
#266
1;0
#267
0;0
1;2
1;4
#268
1;0
#269
0;0
0;2
0;4
#270
1;0
#271
0;0
#272
1;0
#273
0;0
1;2
1;4
#274
1;0
#275
0;0
1;1
0;2
0;4
#276
1;0
1;3
1;6
#277
0;0
0;1
1;2
0;3
1;4
#278
1;0
0;6
#279
0;0
1;1
0;4
#280
1;0
1;4
1;6
#281
0;0
0;2
1;3
0;4
#282
1;0
#283
0;0
#284
1;0
#285
0;0
0;1
1;2
0;3
1;4
#286
1;0
0;6
#287
0;0
1;1
0;4
#288
1;0
1;4
1;6
#289
0;0
0;2
1;3
0;4
#290
1;0
#291
0;0
1;2
0;3
1;4
#292
1;0
0;4
0;6
#293
0;0
0;2
#294
1;0
1;3
1;6
#295
0;0
0;1
1;2
0;3
1;4
#296
1;0
0;6
#297
0;0
0;2
0;4
#298
1;0
#299
0;0
#300
1;0
#301
0;0
#302
1;0
#303
0;0
#304
1;0
#305
0;0
1;2
1;4
#306
1;0
#307
0;0
1;1
0;2
0;4
#308
1;0
1;3
1;6
#309
0;0
#310
1;0
#311
0;0
#312
1;0
#313
0;0
0;1
0;3
#314
1;0
0;6
#315
0;0
1;1
1;2
#316
1;0
1;4
1;6
#317
0;0
0;1
0;2
0;4
#318
1;0
0;6
#319
0;0
1;2
1;4
#320
1;0
#321
0;0
#322
1;0
#323
0;0
1;1
0;2
0;4
#324
1;0
1;3
1;6
#325
0;0
1;2
0;3
1;4
#326
1;0
0;4
0;6
#327
0;0
#328
1;0
1;4
1;6
#329
0;0
0;2
1;3
0;4
#330
1;0
#331
0;0
1;2
0;3
1;4
#332
1;0
0;4
0;6
#333
0;0
0;1
1;4
#334
1;0
#335
0;0
1;1
0;2
0;4
#336
1;0
1;3
1;6
#337
0;0
#338
1;0
#339
0;0
0;1
0;3
#340
1;0
0;6
#341
0;0
#342
1;0
#343
0;0
1;2
1;4
#344
1;0
#345
0;0
#346
1;0
#347
0;0
0;2
0;4
#348
1;0
#349
0;0
#350
1;0
#351
0;0
#352
1;0
#353
0;0
1;1
1;2
#354
1;0
1;4
1;6
#355
0;0
0;1
#356
1;0
0;6
#357
0;0
0;2
0;4
#358
1;0
#359
0;0
1;2
1;4
#360
1;0
#361
0;0
0;2
0;4
#362
1;0
#363
0;0
#364
1;0
#365
0;0
1;1
1;2
#366
1;0
1;4
1;6
#367
0;0
0;2
1;3
0;4
#368
1;0
#369
0;0
0;1
1;2
0;3
1;4
#370
1;0
0;6
#371
0;0
0;2
0;4
#372
1;0
#373
0;0
1;1
1;2
#374
1;0
1;4
1;6
#375
0;0
0;2
1;3
0;4
#376
1;0
#377
0;0
0;1
1;2
0;3
1;4
#378
1;0
0;6
#379
0;0
0;2
0;4
#380
1;0
#381
0;0
1;1
#382
1;0
1;3
1;6
#383
0;0
1;2
0;3
1;4
#384
1;0
0;4
0;6
#385
0;0
#386
1;0
1;4
1;6
#387
0;0
0;1
#388
1;0
0;6
#389
0;0
1;1
0;2
0;4
#390
1;0
1;3
1;6
#391
0;0
0;1
1;2
0;3
1;4
#392
1;0
0;6
#393
0;0
0;2
0;4
#394
1;0
#395
0;0
#396
1;0
#397
0;0
1;2
1;4
#398
1;0
#399
0;0
0;2
0;4
#400
1;0
#401
0;0
1;2
1;4
#402
1;0
#403
0;0
0;2
0;4
#404
1;0
#405
0;0
#406
1;0
#407
0;0
#408
1;0
#409
0;0
1;1
#410
1;0
1;3
1;6
#411
0;0
1;2
0;3
1;4
#412
1;0
0;4
0;6
#413
0;0
0;2
#414
1;0
1;3
1;6
#415
0;0
0;1
0;3
#416
1;0
0;6
#417
0;0
1;1
#418
1;0
1;3
1;6
#419
0;0
0;1
1;2
0;3
1;4
#420
1;0
0;6
#421
0;0
0;2
0;4
#422
1;0
#423
0;0
1;2
1;4
#424
1;0
#425
0;0
1;1
0;2
0;4
#426
1;0
1;3
1;6
#427
0;0
1;2
0;3
1;4
#428
1;0
0;4
0;6
#429
0;0
#430
1;0
1;4
1;6
#431
0;0
0;2
1;3
0;4
#432
1;0
#433
0;0
0;1
1;2
0;3
1;4
#434
1;0
0;6
#435
0;0
0;2
0;4
#436
1;0
#437
0;0
1;1
#438
1;0
1;3
1;6
#439
0;0
1;2
0;3
1;4
#440
1;0
0;4
0;6
#441
0;0
0;1
0;2
#442
1;0
#443
0;0
1;2
1;4
#444
1;0
#445
0;0
0;2
0;4
#446
1;0
#447
0;0
1;2
1;4
#448
1;0
#449
0;0
0;2
0;4
#450
1;0
#451
0;0
#452
1;0
#453
0;0
1;2
1;4
#454
1;0
#455
0;0
1;1
0;4
#456
1;0
1;4
1;6
#457
0;0
0;2
1;3
0;4
#458
1;0
#459
0;0
0;1
1;2
0;3
1;4
#460
1;0
0;6
#461
0;0
#462
1;0
#463
0;0
1;1
0;2
0;4
#464
1;0
1;3
1;6
#465
0;0
1;2
0;3
1;4
#466
1;0
0;4
0;6
#467
0;0
0;2
#468
1;0
1;3
1;6
#469
0;0
#470
1;0
#471
0;0
1;2
0;3
1;4
#472
1;0
0;4
0;6
#473
0;0
0;1
1;4
#474
1;0
#475
0;0
1;1
0;2
0;4
#476
1;0
1;3
1;6
#477
0;0
1;2
0;3
1;4
#478
1;0
0;4
0;6
#479
0;0
#480
1;0
1;4
1;6
#481
0;0
0;2
1;3
0;4
#482
1;0
#483
0;0
0;1
1;2
0;3
1;4
#484
1;0
0;6
#485
0;0
1;1
0;4
#486
1;0
1;4
1;6
#487
0;0
0;2
1;3
0;4
#488
1;0
#489
0;0
0;1
1;2
0;3
1;4
#490
1;0
0;6
#491
0;0
1;1
0;2
0;4
#492
1;0
1;3
1;6
#493
0;0
#494
1;0
#495
0;0
0;1
0;3
#496
1;0
0;6
#497
0;0
1;1
1;2
#498
1;0
1;4
1;6
#499
0;0
0;1
0;2
0;4
#500
1;0
0;6
#501
0;0
1;1
#502
1;0
1;3
1;6
#503
0;0
0;1
1;2
0;3
1;4
#504
1;0
0;6
#505
0;0
1;1
0;4
#506
1;0
1;4
1;6
#507
0;0
#508
1;0
0;4
0;6
#509
0;0
0;1
1;4
#510
1;0
#511
0;0
#512
1;0
#513
0;0
1;1
0;2
0;4
#514
1;0
1;3
1;6
#515
0;0
0;1
0;3
#516
1;0
0;6
#517
0;0
1;2
1;4
#518
1;0
#519
0;0
0;2
0;4
#520
1;0
#521
0;0
1;1
#522
1;0
1;3
1;6
#523
0;0
0;1
0;3
#524
1;0
0;6
#525
0;0
#526
1;0
#527
0;0
#528
1;0
#529
0;0
#530
1;0
#531
0;0
1;2
1;4
#532
1;0
#533
0;0
0;2
0;4
#534
1;0
#535
0;0
1;1
#536
1;0
1;3
1;6
#537
0;0
#538
1;0
#539
0;0
1;2
0;3
1;4
#540
1;0
0;4
0;6
#541
0;0
#542
1;0
1;4
1;6
#543
0;0
0;1
0;2
0;4
#544
1;0
0;6
#545
0;0
1;2
1;4
#546
1;0
#547
0;0
0;2
0;4
#548
1;0
#549
0;0
1;2
1;4
#550
1;0
#551
0;0
#552
1;0
#553
0;0
1;1
0;2
0;4
#554
1;0
1;3
1;6
#555
0;0
1;2
0;3
1;4
#556
1;0
0;4
0;6
#557
0;0
0;1
1;4
#558
1;0
#559
0;0
1;1
0;2
0;4
#560
1;0
1;3
1;6
#561
0;0
0;1
0;3
#562
1;0
0;6
#563
0;0
#564
1;0
#565
0;0
1;2
1;4
#566
1;0
#567
0;0
0;2
0;4
#568
1;0
#569
0;0
1;1
1;2
#570
1;0
1;4
1;6
#571
0;0
#572
1;0
0;4
0;6
#573
0;0
0;2
#574
1;0
1;3
1;6
#575
0;0
1;2
0;3
1;4
#576
1;0
0;4
0;6
#577
0;0
0;2
#578
1;0
1;3
1;6
#579
0;0
1;2
0;3
1;4
#580
1;0
0;4
0;6
#581
0;0
#582
1;0
1;4
1;6
#583
0;0
0;2
1;3
0;4
#584
1;0
#585
0;0
#586
1;0
#587
0;0
1;2
0;3
1;4
#588
1;0
0;4
0;6
#589
0;0
0;1
1;4
#590
1;0
#591
0;0
0;2
0;4
#592
1;0
#593
0;0
1;1
#594
1;0
1;3
1;6
#595
0;0
0;1
1;2
0;3
1;4
#596
1;0
0;6
#597
0;0
1;1
0;4
#598
1;0
1;4
1;6
#599
0;0
0;2
1;3
0;4
#600
1;0
#601
0;0
0;1
1;2
0;3
1;4
#602
1;0
0;6
#603
0;0
1;1
0;4
#604
1;0
1;4
1;6
#605
0;0
#606
1;0
0;4
0;6
#607
0;0
0;1
0;2
#608
1;0
#609
0;0
1;1
1;2
#610
1;0
1;4
1;6
#611
0;0
0;2
1;3
0;4
#612
1;0
#613
0;0
0;1
0;3
#614
1;0
0;6
#615
0;0
1;2
1;4
#616
1;0
#617
0;0
1;1
0;4
#618
1;0
1;4
1;6
#619
0;0
#620
1;0
0;4
0;6
#621
0;0
0;1
1;4
#622
1;0
#623
0;0
1;1
0;4
#624
1;0
1;4
1;6
#625
0;0
#626
1;0
0;4
0;6
#627
0;0
0;2
#628
1;0
1;3
1;6
#629
0;0
0;1
0;3
#630
1;0
0;6
#631
0;0
1;2
1;4
#632
1;0
#633
0;0
1;1
0;2
0;4
#634
1;0
1;3
1;6
#635
0;0
0;1
0;3
#636
1;0
0;6
#637
0;0
1;1
1;2
#638
1;0
1;4
1;6
#639
0;0
0;1
0;2
0;4
#640
1;0
0;6
#641
0;0
#642
1;0
#643
0;0
1;2
1;4
#644
1;0
#645
0;0
0;2
0;4
#646
1;0
#647
0;0
1;2
1;4
#648
1;0
#649
0;0
1;1
0;4
#650
1;0
1;4
1;6
#651
0;0
0;1
0;2
0;4
#652
1;0
0;6
#653
0;0
1;2
1;4
#654
1;0
#655
0;0
1;1
0;4
#656
1;0
1;4
1;6
#657
0;0
0;2
1;3
0;4
#658
1;0
#659
0;0
1;2
0;3
1;4
#660
1;0
0;4
0;6
#661
0;0
0;2
#662
1;0
1;3
1;6
#663
0;0
0;1
0;3
#664
1;0
0;6
#665
0;0
1;2
1;4
#666
1;0
#667
0;0
1;1
0;4
#668
1;0
1;4
1;6
#669
0;0
0;1
#670
1;0
0;6
#671
0;0
1;1
0;2
0;4
#672
1;0
1;3
1;6
#673
0;0
1;2
0;3
1;4
#674
1;0
0;4
0;6
#675
0;0
0;2
#676
1;0
1;3
1;6
#677
0;0
#678
1;0
#679
0;0
#680
1;0
#681
0;0
#682
1;0
#683
0;0
0;1
0;3
#684
1;0
0;6
#685
0;0
1;1
#686
1;0
1;3
1;6
#687
0;0
#688
1;0
#689
0;0
0;1
1;2
0;3
1;4
#690
1;0
0;6
#691
0;0
#692
1;0
#693
0;0
1;1
0;2
0;4
#694
1;0
1;3
1;6
#695
0;0
0;1
1;2
0;3
1;4
#696
1;0
0;6
#697
0;0
1;1
0;4
#698
1;0
1;4
1;6
#699
0;0
0;1
#700
1;0
0;6
#701
0;0
#702
1;0
#703
0;0
0;2
0;4
#704
1;0
#705
0;0
1;2
1;4
#706
1;0
#707
0;0
#708
1;0
#709
0;0
1;1
0;4
#710
1;0
1;4
1;6
#711
0;0
#712
1;0
0;4
0;6
#713
0;0
0;2
#714
1;0
1;3
1;6
#715
0;0
1;2
0;3
1;4
#716
1;0
0;4
0;6
#717
0;0
0;1
0;2
#718
1;0
#719
0;0
1;1
#720
1;0
1;3
1;6
#721
0;0
1;2
0;3
1;4
#722
1;0
0;4
0;6
#723
0;0
0;1
0;2
#724
1;0
#725
0;0
#726
1;0
#727
0;0
1;1
1;2
#728
1;0
1;4
1;6
#729
0;0
#730
1;0
0;4
0;6
#731
0;0
#732
1;0
1;4
1;6
#733
0;0
0;1
#734
1;0
0;6
#735
0;0
1;1
0;2
0;4
#736
1;0
1;3
1;6
#737
0;0
0;1
1;2
0;3
1;4
#738
1;0
0;6
#739
0;0
1;1
0;2
0;4
#740
1;0
1;3
1;6
#741
0;0
1;2
0;3
1;4
#742
1;0
0;4
0;6
#743
0;0
0;2
#744
1;0
1;3
1;6
#745
0;0
#746
1;0
#747
0;0
1;2
0;3
1;4
#748
1;0
0;4
0;6
#749
0;0
0;1
1;4
#750
1;0
#751
0;0
1;1
0;2
0;4
#752
1;0
1;3
1;6
#753
0;0
0;1
1;2
0;3
1;4
#754
1;0
0;6
#755
0;0
0;2
0;4
#756
1;0
#757
0;0
1;1
#758
1;0
1;3
1;6
#759
0;0
0;1
0;3
#760
1;0
0;6
#761
0;0
1;1
1;2
#762
1;0
1;4
1;6
#763
0;0
0;1
0;2
0;4
#764
1;0
0;6
#765
0;0
1;2
1;4
#766
1;0
#767
0;0
0;2
0;4
#768
1;0
#769
0;0
1;1
#770
1;0
1;3
1;6
#771
0;0
0;1
0;3
#772
1;0
0;6
#773
0;0
1;1
1;2
#774
1;0
1;4
1;6
#775
0;0
0;1
0;2
0;4
#776
1;0
0;6
#777
0;0
1;1
#778
1;0
1;3
1;6
#779
0;0
#780
1;0
#781
0;0
#782
1;0
#783
0;0
0;1
1;2
0;3
1;4
#784
1;0
0;6
#785
0;0
0;2
0;4
#786
1;0
#787
0;0
1;2
1;4
#788
1;0
#789
0;0
0;2
0;4
#790
1;0
#791
0;0
#792
1;0
#793
0;0
1;1
#794
1;0
1;3
1;6
#795
0;0
0;1
1;2
0;3
1;4
#796
1;0
0;6
#797
0;0
1;1
0;2
0;4
#798
1;0
1;3
1;6
#799
0;0
#800
1;0
#801
0;0
0;1
0;3
#802
1;0
0;6
#803
0;0
1;2
1;4
#804
1;0
#805
0;0
1;1
0;4
#806
1;0
1;4
1;6
#807
0;0
#808
1;0
0;4
0;6
#809
0;0
0;2
#810
1;0
1;3
1;6
#811
0;0
#812
1;0
#813
0;0
1;2
0;3
1;4
#814
1;0
0;4
0;6
#815
0;0
#816
1;0
1;4
1;6
#817
0;0
#818
1;0
0;4
0;6
#819
0;0
0;1
0;2
#820
1;0
#821
0;0
1;1
#822
1;0
1;3
1;6
#823
0;0
0;1
0;3
#824
1;0
0;6
#825
0;0
#826
1;0
#827
0;0
1;1
#828
1;0
1;3
1;6
#829
0;0
0;1
1;2
0;3
1;4
#830
1;0
0;6
#831
0;0
#832
1;0
#833
0;0
1;1
0;4
#834
1;0
1;4
1;6
#835
0;0
0;1
0;2
0;4
#836
1;0
0;6
#837
0;0
#838
1;0
#839
0;0
1;1
1;2
#840
1;0
1;4
1;6
#841
0;0
0;1
0;2
0;4
#842
1;0
0;6
#843
0;0
1;1
1;2
#844
1;0
1;4
1;6
#845
0;0
0;2
1;3
0;4
#846
1;0
#847
0;0
0;1
1;2
0;3
1;4
#848
1;0
0;6
#849
0;0
#850
1;0
#851
0;0
1;1
0;4
#852
1;0
1;4
1;6
#853
0;0
#854
1;0
0;4
0;6
#855
0;0
0;1
0;2
#856
1;0
#857
0;0
1;1
1;2
#858
1;0
1;4
1;6
#859
0;0
0;1
#860
1;0
0;6
#861
0;0
0;2
0;4
#862
1;0
#863
0;0
1;2
1;4
#864
1;0
#865
0;0
1;1
0;4
#866
1;0
1;4
1;6
#867
0;0
0;1
#868
1;0
0;6
#869
0;0
1;1
0;4
#870
1;0
1;4
1;6
#871
0;0
0;1
#872
1;0
0;6
#873
0;0
#874
1;0
#875
0;0
1;1
0;4
#876
1;0
1;4
1;6
#877
0;0
0;1
#878
1;0
0;6
#879
0;0
0;2
0;4
#880
1;0
#881
0;0
1;2
1;4
#882
1;0
#883
0;0
1;1
0;2
0;4
#884
1;0
1;3
1;6
#885
0;0
0;1
1;2
0;3
1;4
#886
1;0
0;6
#887
0;0
#888
1;0
#889
0;0
1;1
0;2
0;4
#890
1;0
1;3
1;6
#891
0;0
1;2
0;3
1;4
#892
1;0
0;4
0;6
#893
0;0
0;1
1;4
#894
1;0
#895
0;0
1;1
0;2
0;4
#896
1;0
1;3
1;6
#897
0;0
0;1
1;2
0;3
1;4
#898
1;0
0;6
#899
0;0
1;1
0;4
#900
1;0
1;4
1;6
#901
0;0
0;1
0;2
0;4
#902
1;0
0;6
#903
0;0
1;1
#904
1;0
1;3
1;6
#905
0;0
#906
1;0
#907
0;0
0;1
1;2
0;3
1;4
#908
1;0
0;6
#909
0;0
1;1
0;2
0;4
#910
1;0
1;3
1;6
#911
0;0
#912
1;0
#913
0;0
0;1
1;2
0;3
1;4
#914
1;0
0;6
#915
0;0
0;2
0;4
#916
1;0
#917
0;0
#918
1;0
#919
0;0
1;2
1;4
#920
1;0
#921
0;0
#922
1;0
#923
0;0
1;1
0;2
0;4
#924
1;0
1;3
1;6
#925
0;0
0;1
0;3
#926
1;0
0;6
#927
0;0
1;2
1;4
#928
1;0
#929
0;0
1;1
0;2
0;4
#930
1;0
1;3
1;6
#931
0;0
0;1
1;2
0;3
1;4
#932
1;0
0;6
#933
0;0
#934
1;0
#935
0;0
#936
1;0
#937
0;0
1;1
0;2
0;4
#938
1;0
1;3
1;6
#939
0;0
1;2
0;3
1;4
#940
1;0
0;4
0;6
#941
0;0
0;1
0;2
#942
1;0
#943
0;0
1;1
#944
1;0
1;3
1;6
#945
0;0
1;2
0;3
1;4
#946
1;0
0;4
0;6
#947
0;0
0;2
#948
1;0
1;3
1;6
#949
0;0
1;2
0;3
1;4
#950
1;0
0;4
0;6
#951
0;0
#952
1;0
1;4
1;6
#953
0;0
0;1
0;2
0;4
#954
1;0
0;6
#955
0;0
1;1
#956
1;0
1;3
1;6
#957
0;0
0;1
0;3
#958
1;0
0;6
#959
0;0
1;1
1;2
#960
1;0
1;4
1;6
#961
0;0
0;1
0;2
0;4
#962
1;0
0;6
#963
0;0
1;1
#964
1;0
1;3
1;6
#965
0;0
1;2
0;3
1;4
#966
1;0
0;4
0;6
#967
0;0
#968
1;0
1;4
1;6
#969
0;0
0;2
1;3
0;4
#970
1;0
#971
0;0
0;1
1;2
0;3
1;4
#972
1;0
0;6
#973
0;0
1;1
0;4
#974
1;0
1;4
1;6
#975
0;0
0;1
0;2
0;4
#976
1;0
0;6
#977
0;0
1;2
1;4
#978
1;0
#979
0;0
#980
1;0
#981
0;0
0;2
0;4
#982
1;0
#983
0;0
#984
1;0
#985
0;0
1;2
1;4
#986
1;0
#987
0;0
#988
1;0
#989
0;0
1;1
0;2
0;4
#990
1;0
1;3
1;6
#991
0;0
0;1
1;2
0;3
1;4
#992
1;0
0;6
#993
0;0
#994
1;0
#995
0;0
1;1
0;4
#996
1;0
1;4
1;6
#997
0;0
0;1
#998
1;0
0;6
#999
0;0
#1000
1;0
#1001
0;0
1;1
0;2
0;4
#1002
1;0
1;3
1;6
#1003
0;0
#1004
1;0
#1005
0;0
1;2
0;3
1;4
#1006
1;0
0;4
0;6
#1007
0;0
#1008
1;0
1;4
1;6
#1009
0;0
0;1
#1010
1;0
0;6
#1011
0;0
0;2
0;4
#1012
1;0
#1013
0;0
1;1
#1014
1;0
1;3
1;6
#1015
0;0
0;1
0;3
#1016
1;0
0;6
#1017
0;0
#1018
1;0
#1019
0;0
1;1
1;2
#1020
1;0
1;4
1;6
#1021
0;0
0;1
#1022
1;0
0;6
#1023
0;0
1;1
0;2
0;4
#1024
1;0
1;3
1;6
#1025
0;0
#1026
1;0
#1027
0;0
0;1
1;2
0;3
1;4
#1028
1;0
0;6
#1029
0;0
1;1
0;2
0;4
#1030
1;0
1;3
1;6
#1031
0;0
1;2
0;3
1;4
#1032
1;0
0;4
0;6
#1033
0;0
0;2
#1034
1;0
1;3
1;6
#1035
0;0
#1036
1;0
#1037
0;0
#1038
1;0
#1039
0;0
0;1
1;2
0;3
1;4
#1040
1;0
0;6
#1041
0;0
0;2
0;4
#1042
1;0
#1043
0;0
1;1
1;2
#1044
1;0
1;4
1;6
#1045
0;0
#1046
1;0
0;4
0;6
#1047
0;0
#1048
1;0
1;4
1;6
#1049
0;0
0;2
1;3
0;4
#1050
1;0
#1051
0;0
0;1
0;3
#1052
1;0
0;6
#1053
0;0
1;2
1;4
#1054
1;0
#1055
0;0
#1056
1;0
#1057
0;0
0;2
0;4
#1058
1;0
#1059
0;0
1;2
1;4
#1060
1;0
#1061
0;0
1;1
0;4
#1062
1;0
1;4
1;6
#1063
0;0
0;1
0;2
0;4
#1064
1;0
0;6
#1065
0;0
1;1
#1066
1;0
1;3
1;6
#1067
0;0
0;1
0;3
#1068
1;0
0;6
#1069
0;0
#1070
1;0
#1071
0;0
1;1
#1072
1;0
1;3
1;6
#1073
0;0
#1074
1;0
#1075
0;0
0;1
0;3
#1076
1;0
0;6
#1077
0;0
1;1
1;2
#1078
1;0
1;4
1;6
#1079
0;0
#1080
1;0
0;4
0;6
#1081
0;0
0;1
1;4
#1082
1;0
#1083
0;0
1;1
0;2
0;4
#1084
1;0
1;3
1;6
#1085
0;0
1;2
0;3
1;4
#1086
1;0
0;4
0;6
#1087
0;0
#1088
1;0
1;4
1;6
#1089
0;0
0;1
#1090
1;0
0;6
#1091
0;0
#1092
1;0
#1093
0;0
1;1
0;4
#1094
1;0
1;4
1;6
#1095
0;0
0;2
1;3
0;4
#1096
1;0
#1097
0;0
1;2
0;3
1;4
#1098
1;0
0;4
0;6
#1099
0;0
#1100
1;0
1;4
1;6
#1101
0;0
0;1
0;2
0;4
#1102
1;0
0;6
#1103
0;0
1;2
1;4
#1104
1;0
#1105
0;0
1;1
0;2
0;4
#1106
1;0
1;3
1;6
#1107
0;0
#1108
1;0
#1109
0;0
#1110
1;0
#1111
0;0
1;2
0;3
1;4
#1112
1;0
0;4
0;6
#1113
0;0
0;2
#1114
1;0
1;3
1;6
#1115
0;0
#1116
1;0
#1117
0;0
0;1
0;3
#1118
1;0
0;6
#1119
0;0
1;1
#1120
1;0
1;3
1;6
#1121
0;0
0;1
0;3
#1122
1;0
0;6
#1123
0;0
1;1
1;2
#1124
1;0
1;4
1;6
#1125
0;0
0;2
1;3
0;4
#1126
1;0
#1127
0;0
#1128
1;0
#1129
0;0
#1130
1;0
#1131
0;0
1;2
0;3
1;4
#1132
1;0
0;4
0;6
#1133
0;0
#1134
1;0
1;4
1;6
#1135
0;0
0;1
0;2
0;4
#1136
1;0
0;6
#1137
0;0
1;1
1;2
#1138
1;0
1;4
1;6
#1139
0;0
0;1
#1140
1;0
0;6
#1141
0;0
1;1
0;2
0;4
#1142
1;0
1;3
1;6
#1143
0;0
0;1
1;2
0;3
1;4
#1144
1;0
0;6
#1145
0;0
0;2
0;4
#1146
1;0
#1147
0;0
1;1
#1148
1;0
1;3
1;6
#1149
0;0
0;1
1;2
0;3
1;4
#1150
1;0
0;6
#1151
0;0
0;2
0;4
#1152
1;0
#1153
0;0
1;1
1;2
#1154
1;0
1;4
1;6
#1155
0;0
0;2
1;3
0;4
#1156
1;0
#1157
0;0
1;2
0;3
1;4
#1158
1;0
0;4
0;6
#1159
0;0
0;1
1;4
#1160
1;0
#1161
0;0
1;1
0;4
#1162
1;0
1;4
1;6
#1163
0;0
0;1
0;2
0;4
