tool/synthetic_gen/hif_sim/complete/build/traces/fault_84.vcd
$date
    Feb 03, 2025 06:10:16
$end
$version
    Tracer 3.0.0 - By Enrico Fraccaroli <enry.frak@gmail.com> --- 2022/02/15
$end
$timescale
    1ns
$end
$scope module test_bench $end
$scope module test_ $end
    $var wire 1 ;0 clock $end
    $var wire 1 ;1 a_1_0 $end
    $var wire 1 ;2 a_1_1 $end
    $var wire 1 ;3 a_2_0 $end
    $var wire 1 ;4 a_2_1 $end
    $var wire 1 ;5 a_3_0 $end
    $var wire 1 ;6 a_3_1 $end
    $var wire 1 ;7 a_4_0 $end
    $var wire 1 ;8 a_4_1 $end
    $var wire 1 ;9 a_5_0 $end
    $var wire 1 ;10 a_5_1 $end
    $var wire 1 ;11 a_6_0 $end
    $var wire 1 ;12 a_6_1 $end
    $var wire 1 ;13 a_7_0 $end
    $var wire 1 ;14 a_7_1 $end
    $var wire 1 ;15 a_8_0 $end
    $var wire 1 ;16 a_8_1 $end
    $var wire 1 ;17 a_9_0 $end
    $var wire 1 ;18 a_9_1 $end
    $var wire 1 ;19 a_10_0 $end
    $var wire 1 ;20 a_10_1 $end
    $var wire 1 ;21 c_1_0 $end
    $var wire 1 ;22 c_1_1 $end
    $var wire 1 ;23 c_2_0 $end
    $var wire 1 ;24 c_2_1 $end
    $var wire 1 ;25 c_3_0 $end
    $var wire 1 ;26 c_3_1 $end
    $var wire 1 ;27 c_4_0 $end
    $var wire 1 ;28 c_4_1 $end
    $var wire 1 ;29 c_5_0 $end
    $var wire 1 ;30 c_5_1 $end
    $var wire 1 ;31 c_6_0 $end
    $var wire 1 ;32 c_6_1 $end
    $var wire 1 ;33 c_7_0 $end
    $var wire 1 ;34 c_7_1 $end
    $var wire 1 ;35 c_8_0 $end
    $var wire 1 ;36 c_8_1 $end
    $var wire 1 ;37 c_9_0 $end
    $var wire 1 ;38 c_9_1 $end
    $var wire 1 ;39 c_10_0 $end
    $var wire 1 ;40 c_10_1 $end
$upscope $end
$upscope $end
$enddefinitions $end
#0
$dumpvars
1;0
0;1
0;2
0;3
0;4
0;5
0;6
0;7
0;8
0;9
0;10
0;11
0;12
0;13
0;14
0;15
0;16
0;17
0;18
0;19
0;20
0;21
0;22
0;23
0;24
0;25
0;26
0;27
0;28
0;29
0;30
0;31
0;32
0;33
0;34
0;35
0;36
0;37
0;38
0;39
0;40
$end
#1
0;0
1;1
1;3
1;4
1;5
1;6
1;9
1;10
1;12
1;14
1;15
#2
1;0
#3
0;0
0;5
0;6
1;8
1;11
0;12
0;14
1;16
1;17
1;19
#4
1;0
1;23
1;24
1;29
1;30
1;35
1;36
#5
0;0
1;2
1;6
0;8
0;10
1;13
0;15
0;17
0;19
1;20
#6
1;0
1;21
1;22
0;29
0;30
1;39
1;40
#7
0;0
0;3
1;8
1;10
0;11
1;12
0;13
1;14
1;19
0;20
#8
1;0
1;29
1;30
1;31
1;32
1;33
1;34
0;35
0;36
0;39
0;40
#9
0;0
0;2
0;4
0;6
1;7
0;9
0;12
0;14
1;15
0;16
0;19
1;20
#10
1;0
0;21
0;22
0;23
0;24
0;29
0;30
0;31
0;32
0;33
0;34
1;39
1;40
#11
0;0
1;5
1;6
0;8
1;9
0;10
1;13
0;15
1;16
1;17
1;18
#12
1;0
1;35
1;36
0;39
0;40
#13
0;0
0;1
1;2
1;3
1;4
1;8
1;10
1;11
1;14
0;17
1;19
0;20
#14
1;0
1;21
1;22
1;25
1;26
1;27
1;28
1;29
1;30
1;33
1;34
0;35
0;36
1;37
1;38
#15
0;0
0;3
0;7
0;8
0;9
0;11
1;12
0;13
1;20
#16
1;0
0;21
0;22
1;23
1;24
0;27
0;28
0;29
0;30
1;31
1;32
0;37
0;38
1;39
1;40
#17
0;0
1;1
0;2
0;4
0;6
1;7
0;10
0;12
1;13
0;14
1;15
1;17
0;20
#18
1;0
0;23
0;24
0;25
0;26
0;31
0;32
0;33
0;34
0;39
0;40
#19
0;0
0;1
1;2
1;3
1;6
0;7
1;8
1;10
1;11
1;12
1;14
0;15
0;16
0;19
1;20
#20
1;0
1;21
1;22
1;25
1;26
1;27
1;28
1;33
1;34
1;37
1;38
1;39
1;40
#21
0;0
0;2
1;4
0;6
0;8
0;10
0;11
0;12
1;15
0;17
#22
1;0
0;21
0;22
1;23
1;24
0;25
0;26
0;27
0;28
0;39
0;40
#23
0;0
1;2
0;3
0;5
1;7
1;8
1;11
0;13
0;14
1;16
1;17
0;18
#24
1;0
0;33
0;34
1;35
1;36
0;37
0;38
#25
0;0
0;2
1;3
0;7
0;8
1;9
1;12
1;13
0;15
0;17
0;20
#26
1;0
0;23
0;24
1;31
1;32
#27
0;0
1;2
0;3
0;4
1;8
0;9
0;11
0;12
0;13
1;14
1;15
0;16
1;18
1;19
1;20
#28
1;0
0;31
0;32
1;33
1;34
0;35
0;36
#29
0;0
1;1
0;2
1;3
1;6
1;7
1;9
1;11
1;12
1;13
0;14
0;15
1;16
0;18
0;19
0;20
#30
1;0
0;33
0;34
1;35
1;36
#31
0;0
0;1
0;3
0;8
0;12
0;13
1;15
1;20
#32
1;0
0;35
0;36
#33
0;0
1;2
1;3
1;5
1;8
1;12
1;14
0;16
1;17
0;20
#34
1;0
1;27
1;28
1;31
1;32
#35
0;0
0;2
0;3
1;4
0;5
0;7
0;8
0;9
0;11
0;12
1;13
0;15
1;16
0;17
1;20
#36
1;0
1;23
1;24
1;25
1;26
0;27
0;28
0;31
0;32
1;35
1;36
#37
0;0
0;4
1;5
1;7
1;10
1;15
0;16
1;18
0;20
#38
1;0
0;23
0;24
0;25
0;26
1;33
1;34
0;35
0;36
#39
0;0
1;1
1;3
1;4
0;7
1;8
1;9
0;10
1;12
0;13
0;14
0;15
#40
1;0
1;25
1;26
1;27
1;28
0;33
0;34
#41
0;0
0;1
1;2
0;3
0;4
0;5
0;6
0;8
1;11
1;13
1;17
0;18
1;20
#42
1;0
1;21
1;22
0;25
0;26
0;27
0;28
#43
0;0
0;2
1;4
1;5
1;7
1;8
1;10
0;12
0;13
1;14
1;19
#44
1;0
0;21
0;22
1;29
1;30
1;33
1;34
#45
0;0
0;5
0;7
0;9
0;10
0;11
1;15
1;16
0;19
#46
1;0
1;27
1;28
0;29
0;30
0;33
0;34
1;39
1;40
#47
0;0
1;2
1;3
0;4
1;5
1;6
1;7
0;8
1;9
1;11
1;12
0;16
1;18
1;19
#48
1;0
0;27
0;28
1;37
1;38
0;39
0;40
#49
0;0
1;1
0;2
0;3
1;4
0;9
1;10
0;12
1;13
0;14
0;15
0;19
0;20
#50
1;0
1;23
1;24
1;25
1;26
1;29
1;30
#51
0;0
1;8
0;11
1;12
0;17
#52
1;0
0;23
0;24
1;27
1;28
0;29
0;30
1;31
1;32
#53
0;0
0;4
0;5
0;6
0;7
0;8
0;10
0;13
1;15
1;17
0;18
1;19
1;20
#54
1;0
0;25
0;26
0;27
0;28
0;31
0;32
0;37
0;38
#55
0;0
1;2
1;6
1;10
1;13
1;16
0;17
1;18
0;20
#56
1;0
1;21
1;22
1;35
1;36
1;37
1;38
#57
0;0
0;1
0;2
1;9
1;11
1;17
0;18
1;20
#58
1;0
0;21
0;22
0;37
0;38
1;39
1;40
#59
0;0
1;1
1;2
1;3
1;5
0;6
1;7
1;8
0;9
0;11
0;12
0;15
1;18
0;20
#60
1;0
1;29
1;30
1;37
1;38
0;39
0;40
#61
0;0
0;1
1;4
1;6
0;7
0;8
1;9
1;11
0;13
1;20
#62
1;0
1;21
1;22
1;23
1;24
1;25
1;26
0;29
0;30
0;35
0;36
1;39
1;40
#63
0;0
1;7
0;9
0;10
0;11
1;12
1;13
0;16
0;19
0;20
#64
1;0
0;21
0;22
1;31
1;32
0;39
0;40
#65
0;0
0;2
0;3
0;5
0;6
0;7
1;8
1;9
1;10
0;12
0;13
1;14
1;15
1;16
0;18
1;19
1;20
#66
1;0
0;25
0;26
1;27
1;28
0;31
0;32
1;33
1;34
0;37
0;38
#67
0;0
1;1
0;4
1;6
1;7
0;9
1;11
1;13
0;16
0;20
#68
1;0
0;23
0;24
0;27
0;28
1;29
1;30
0;33
0;34
#69
0;0
1;5
0;6
0;8
0;11
1;12
0;14
0;15
1;16
1;18
0;19
1;20
#70
1;0
0;29
0;30
1;31
1;32
1;35
1;36
1;37
1;38
1;39
1;40
#71
0;0
0;1
1;2
0;5
1;6
0;7
1;8
1;9
1;11
1;15
0;17
0;18
1;19
0;20
#72
1;0
1;21
1;22
1;25
1;26
1;27
1;28
0;31
0;32
0;35
0;36
0;37
0;38
0;39
0;40
#73
0;0
1;1
0;6
1;7
0;13
1;14
0;16
1;18
#74
1;0
0;21
0;22
0;25
0;26
0;27
0;28
1;29
1;30
1;31
1;32
1;33
1;34
#75
0;0
1;3
1;5
0;9
0;12
0;15
1;17
0;18
0;19
#76
1;0
1;21
1;22
1;27
1;28
0;29
0;30
0;31
0;32
0;33
0;34
#77
0;0
0;3
0;5
1;6
0;7
0;8
1;9
0;10
0;11
1;13
1;19
#78
1;0
1;25
1;26
0;27
0;28
#79
0;0
0;2
1;4
0;6
1;8
0;9
0;14
1;16
#80
1;0
0;21
0;22
0;25
0;26
#81
0;0
0;1
1;5
1;6
1;7
1;9
1;11
1;14
1;15
1;18
0;19
#82
1;0
1;33
1;34
1;37
1;38
#83
0;0
1;1
0;4
0;5
0;6
0;8
0;9
1;10
0;11
1;12
0;15
0;16
0;17
0;18
1;19
1;20
#84
1;0
1;29
1;30
1;31
1;32
0;37
0;38
#85
0;0
0;1
1;3
1;4
1;5
0;7
1;8
1;11
1;17
1;18
0;19
#86
1;0
1;27
1;28
0;29
0;30
0;31
0;32
1;39
1;40
#87
0;0
0;3
1;6
1;9
0;11
0;13
1;15
1;16
0;17
0;20
#88
1;0
1;23
1;24
1;25
1;26
0;27
0;28
1;31
1;32
1;37
1;38
0;39
0;40
#89
0;0
1;2
1;3
0;4
0;5
0;10
1;11
0;16
1;19
1;20
#90
1;0
0;23
0;24
0;31
0;32
0;33
0;34
0;37
0;38
#91
0;0
0;2
1;5
0;6
0;12
0;15
0;18
0;19
#92
1;0
0;25
0;26
1;39
1;40
#93
0;0
1;2
0;5
0;11
1;12
1;16
1;17
1;19
#94
1;0
1;31
1;32
0;39
0;40
#95
0;0
0;2
1;5
1;6
1;7
0;8
1;10
1;11
0;14
1;15
0;16
0;17
#96
1;0
1;29
1;30
0;31
0;32
1;39
1;40
#97
0;0
1;8
0;10
0;11
1;13
1;14
0;15
1;18
0;19
#98
1;0
1;25
1;26
1;27
1;28
0;29
0;30
1;31
1;32
#99
0;0
0;3
0;5
0;7
0;13
1;15
1;16
#100
1;0
0;31
0;32
1;33
1;34
0;39
0;40
#101
0;0
1;1
1;3
1;5
1;7
0;9
1;10
0;12
1;13
0;14
0;15
0;16
0;18
1;19
#102
1;0
0;25
0;26
0;27
0;28
1;29
1;30
0;33
0;34
#103
0;0
0;1
1;2
0;6
0;7
1;9
0;10
1;11
1;12
1;15
1;17
0;19
#104
1;0
1;21
1;22
1;27
1;28
0;29
0;30
1;39
1;40
#105
0;0
0;2
1;4
1;6
1;7
0;11
0;12
0;13
1;14
0;15
1;16
0;17
#106
1;0
0;21
0;22
1;23
1;24
1;25
1;26
0;27
0;28
1;33
1;34
1;35
1;36
0;39
0;40
#107
0;0
1;1
1;2
0;3
0;4
0;6
0;7
0;8
0;9
1;11
1;13
0;14
0;16
1;17
1;18
1;19
#108
1;0
0;23
0;24
0;25
0;26
0;33
0;34
0;35
0;36
#109
0;0
0;1
1;3
1;6
1;7
1;8
1;10
0;11
1;12
1;14
1;15
#110
1;0
1;21
1;22
1;25
1;26
1;31
1;32
1;33
1;34
1;37
1;38
1;39
1;40
#111
0;0
0;2
0;3
1;4
0;6
0;8
1;9
0;10
1;11
0;14
0;17
0;18
0;20
#112
1;0
0;21
0;22
1;23
1;24
0;25
0;26
0;31
0;32
0;33
0;34
0;37
0;38
0;39
0;40
#113
0;0
1;3
1;14
0;15
1;17
1;18
0;19
1;20
#114
1;0
0;23
0;24
1;31
1;32
1;33
1;34
1;39
1;40
#115
0;0
1;1
0;3
0;5
0;9
1;10
0;11
0;12
1;15
#116
1;0
1;23
1;24
1;29
1;30
0;31
0;32
1;37
1;38
0;39
0;40
#117
0;0
1;2
0;4
1;5
1;6
0;7
1;11
0;14
1;16
0;17
0;18
0;20
#118
1;0
1;21
1;22
0;23
0;24
0;29
0;30
0;33
0;34
1;35
1;36
0;37
0;38
#119
0;0
0;2
1;3
0;5
0;6
1;8
1;9
0;10
0;11
1;12
0;13
1;14
1;19
#120
1;0
0;21
0;22
1;31
1;32
1;33
1;34
#121
0;0
1;2
0;3
1;5
1;6
1;7
0;9
1;10
1;11
0;14
0;15
0;16
1;17
#122
1;0
1;21
1;22
1;29
1;30
0;31
0;32
0;33
0;34
0;35
0;36
#123
0;0
0;2
1;3
1;4
0;7
1;9
0;12
1;16
1;18
0;19
1;20
#124
1;0
0;21
0;22
1;25
1;26
1;27
1;28
0;29
0;30
1;37
1;38
1;39
1;40
#125
0;0
0;5
1;7
0;10
0;11
1;14
1;15
0;17
#126
1;0
1;23
1;24
0;27
0;28
0;39
0;40
#127
0;0
1;10
1;11
1;13
0;14
0;16
1;17
0;18
1;19
0;20
#128
1;0
0;25
0;26
1;27
1;28
1;29
1;30
0;37
0;38
#129
0;0
0;1
1;2
1;5
0;6
0;7
0;9
1;12
0;15
1;16
0;17
1;18
0;19
1;20
#130
1;0
1;21
1;22
0;29
0;30
1;31
1;32
1;35
1;36
1;37
1;38
1;39
1;40
#131
0;0
1;1
0;4
0;8
0;10
0;12
1;15
0;16
0;18
0;20
#132
1;0
0;21
0;22
0;23
0;24
0;27
0;28
0;31
0;32
0;35
0;36
0;37
0;38
0;39
0;40
#133
0;0
1;7
1;8
1;9
1;10
0;11
1;14
1;17
1;18
1;19
1;20
#134
1;0
1;21
1;22
1;33
1;34
#135
0;0
0;2
0;3
1;4
0;5
1;6
0;8
1;11
0;13
0;14
0;15
0;17
0;20
#136
1;0
0;21
0;22
1;23
1;24
1;25
1;26
1;29
1;30
0;33
0;34
1;37
1;38
#137
0;0
0;4
1;5
0;7
1;8
0;11
1;13
1;15
1;16
0;19
1;20
#138
1;0
0;23
0;24
0;25
0;26
1;27
1;28
0;29
0;30
0;37
0;38
1;39
1;40
#139
0;0
0;1
1;2
1;4
0;6
1;7
0;8
0;9
0;10
1;12
0;13
0;16
1;19
#140
1;0
1;21
1;22
0;27
0;28
0;39
0;40
#141
0;0
1;1
1;3
0;4
0;5
1;6
0;7
1;11
0;12
1;13
1;14
0;18
0;19
0;20
#142
1;0
0;21
0;22
1;25
1;26
#143
0;0
0;2
1;4
1;5
0;6
1;7
1;8
1;9
0;11
0;13
1;18
#144
1;0
1;23
1;24
0;25
0;26
1;33
1;34
#145
0;0
1;2
0;4
0;7
1;10
1;11
1;13
0;14
1;19
1;20
#146
1;0
1;21
1;22
0;23
0;24
1;27
1;28
1;29
1;30
0;33
0;34
#147
0;0
0;3
1;4
1;6
1;7
0;9
0;11
1;12
1;14
1;17
0;20
#148
1;0
1;23
1;24
1;25
1;26
0;27
0;28
0;29
0;30
1;31
1;32
1;33
1;34
#149
0;0
0;1
0;2
0;4
0;5
0;6
0;7
0;8
1;9
0;10
1;11
0;12
0;15
0;17
0;19
#150
1;0
0;21
0;22
0;23
0;24
0;25
0;26
0;31
0;32
1;37
1;38
#151
0;0
1;1
1;3
1;5
0;9
1;10
1;16
1;17
1;19
#152
1;0
1;29
1;30
0;37
0;38
#153
0;0
0;5
1;6
1;7
1;12
0;14
1;15
0;16
0;19
1;20
#154
1;0
1;25
1;26
0;29
0;30
1;31
1;32
0;33
0;34
1;37
1;38
1;39
1;40
#155
0;0
0;1
1;2
1;4
1;5
0;6
0;7
1;9
0;12
0;13
0;15
#156
1;0
1;21
1;22
1;23
1;24
0;25
0;26
0;31
0;32
0;39
0;40
#157
0;0
0;5
1;7
1;8
0;9
0;10
0;11
1;13
1;14
0;18
1;19
0;20
#158
1;0
0;21
0;22
0;37
0;38
#159
0;0
0;2
0;3
0;4
1;6
0;7
1;12
0;13
0;17
#160
1;0
0;23
0;24
1;27
1;28
1;33
1;34
#161
0;0
1;2
1;4
0;6
0;8
1;9
1;10
1;13
1;15
1;16
1;18
0;19
#162
1;0
0;27
0;28
0;33
0;34
#163
0;0
1;1
0;2
1;3
1;7
0;9
0;10
0;12
0;14
0;16
1;17
#164
1;0
#165
0;0
0;1
1;5
0;7
1;8
1;9
1;14
0;15
1;16
1;19
1;20
#166
1;0
1;23
1;24
1;27
1;28
1;33
1;34
1;35
1;36
1;37
1;38
#167
0;0
1;2
1;6
1;7
0;8
0;9
1;10
1;12
0;13
0;20
#168
1;0
1;25
1;26
0;27
0;28
1;29
1;30
0;35
0;36
#169
0;0
1;1
0;4
0;5
0;10
1;11
0;12
1;13
0;17
#170
1;0
0;23
0;24
0;29
0;30
0;33
0;34
#171
0;0
0;2
1;4
1;5
0;6
0;7
1;8
1;9
1;10
0;13
0;14
1;15
1;17
0;18
#172
1;0
1;23
1;24
0;25
0;26
1;27
1;28
0;37
0;38
#173
0;0
0;3
0;4
1;7
0;9
0;11
1;12
1;13
1;14
0;15
0;16
#174
1;0
0;23
0;24
0;27
0;28
1;29
1;30
1;31
1;32
#175
0;0
0;1
1;2
1;3
0;10
1;11
0;17
1;18
0;19
#176
1;0
1;21
1;22
1;27
1;28
0;29
0;30
0;31
0;32
1;33
1;34
1;37
1;38
#177
0;0
0;2
1;4
1;6
0;7
1;9
1;10
0;13
0;14
1;19
1;20
#178
1;0
0;21
0;22
1;23
1;24
1;25
1;26
1;31
1;32
0;33
0;34
0;37
0;38
#179
0;0
0;3
0;6
1;7
0;9
0;12
1;13
1;16
1;17
0;18
0;19
#180
1;0
0;25
0;26
0;27
0;28
1;29
1;30
0;31
0;32
1;39
1;40
#181
0;0
1;1
1;2
0;4
0;5
0;7
0;8
1;15
0;16
0;17
0;20
#182
1;0
0;23
0;24
0;29
0;30
0;39
0;40
#183
0;0
0;1
1;3
1;4
1;6
1;8
1;9
0;10
0;11
0;13
1;14
0;15
1;17
1;20
#184
1;0
1;21
1;22
1;33
1;34
#185
0;0
1;1
0;2
0;4
0;6
1;7
0;8
1;10
1;11
1;12
0;14
1;18
0;20
#186
1;0
0;21
0;22
1;29
1;30
0;33
0;34
1;37
1;38
#187
0;0
0;3
1;4
1;5
1;6
1;8
0;10
0;11
1;15
0;17
0;18
1;20
#188
1;0
1;23
1;24
1;27
1;28
0;29
0;30
1;31
1;32
0;37
0;38
#189
0;0
1;2
0;4
0;7
0;8
0;9
1;13
1;14
1;19
#190
1;0
1;21
1;22
0;23
0;24
1;25
1;26
0;27
0;28
0;31
0;32
#191
0;0
0;1
0;2
0;5
0;6
1;10
0;12
0;13
0;14
0;15
1;17
0;19
#192
1;0
0;21
0;22
0;25
0;26
1;39
1;40
#193
0;0
1;1
1;2
1;3
0;10
1;11
1;12
1;15
0;17
0;20
#194
1;0
0;39
0;40
#195
0;0
0;2
0;3
1;4
1;5
1;7
1;9
0;11
0;12
1;13
1;14
0;15
1;16
1;17
1;19
1;20
#196
1;0
1;23
1;24
1;35
1;36
#197
0;0
0;1
0;4
0;5
0;7
0;9
1;10
1;11
1;12
0;16
0;17
#198
1;0
0;23
0;24
1;29
1;30
1;33
1;34
0;35
0;36
1;39
1;40
#199
0;0
1;2
1;3
1;4
1;6
1;8
1;9
0;11
0;12
1;17
1;18
0;19
#200
1;0
0;29
0;30
#201
0;0
0;3
1;5
0;6
0;9
0;13
1;15
0;17
1;19
#202
1;0
1;23
1;24
1;29
1;30
1;37
1;38
0;39
0;40
#203
0;0
1;3
0;4
0;5
1;9
0;10
1;12
0;14
0;15
1;16
1;17
0;18
0;19
#204
1;0
0;23
0;24
0;29
0;30
0;33
0;34
1;35
1;36
0;37
0;38
1;39
1;40
#205
0;0
1;1
0;2
0;3
1;4
1;5
1;6
1;7
1;15
0;16
0;17
1;18
#206
1;0
1;23
1;24
0;35
0;36
1;37
1;38
0;39
0;40
#207
0;0
0;1
0;4
0;6
0;8
1;10
1;11
0;12
1;13
1;14
0;15
1;17
1;19
0;20
#208
1;0
0;23
0;24
1;29
1;30
0;37
0;38
#209
0;0
1;2
1;3
1;6
0;7
1;8
0;9
0;10
0;11
0;14
0;19
#210
1;0
1;25
1;26
1;27
1;28
0;29
0;30
1;37
1;38
#211
0;0
0;3
1;4
0;6
1;7
0;8
0;13
1;14
1;16
0;17
0;18
1;19
1;20
#212
1;0
1;23
1;24
0;25
0;26
0;27
0;28
1;33
1;34
0;37
0;38
#213
0;0
1;1
1;3
0;4
0;5
0;7
1;8
1;9
1;11
1;13
1;15
0;16
1;18
0;19
0;20
#214
1;0
0;23
0;24
1;27
1;28
0;33
0;34
#215
0;0
0;2
0;3
1;4
1;7
0;8
0;9
1;12
1;16
1;17
#216
1;0
1;23
1;24
0;27
0;28
1;31
1;32
1;33
1;34
1;35
1;36
#217
0;0
1;2
1;5
1;8
1;9
0;12
0;13
0;15
0;16
1;19
1;20
#218
1;0
1;21
1;22
0;23
0;24
1;27
1;28
0;31
0;32
0;35
0;36
1;37
1;38
#219
0;0
0;2
1;3
0;4
0;7
0;8
0;9
1;12
1;16
0;18
0;19
0;20
#220
1;0
0;21
0;22
0;27
0;28
1;31
1;32
0;33
0;34
0;37
0;38
#221
0;0
0;1
1;2
0;5
1;6
1;7
1;8
0;11
1;15
0;16
0;17
1;18
#222
1;0
1;21
1;22
1;25
1;26
1;37
1;38
#223
0;0
1;5
0;6
0;8
1;10
1;11
0;12
0;14
0;15
1;17
1;19
1;20
#224
1;0
0;21
0;22
0;25
0;26
0;31
0;32
0;37
0;38
#225
0;0
1;1
0;3
1;6
0;7
1;8
1;9
0;10
1;12
1;15
1;16
0;17
0;18
0;20
#226
1;0
1;25
1;26
1;27
1;28
1;31
1;32
#227
0;0
0;2
1;4
0;5
1;7
0;9
0;11
0;12
1;13
0;15
0;16
1;20
#228
1;0
0;27
0;28
0;31
0;32
1;39
1;40
#229
0;0
0;1
0;4
1;5
1;9
1;10
1;15
1;17
0;20
#230
1;0
0;25
0;26
1;27
1;28
0;39
0;40
#231
0;0
1;4
0;5
0;6
0;7
0;8
0;9
1;11
0;13
1;14
1;16
0;17
0;19
1;20
#232
1;0
0;27
0;28
1;29
1;30
1;33
1;34
1;35
1;36
1;39
1;40
#233
0;0
1;1
1;3
1;5
1;7
0;10
0;11
0;14
0;15
1;19
0;20
#234
1;0
0;29
0;30
0;33
0;34
0;39
0;40
#235
0;0
1;2
0;5
0;7
1;8
1;10
1;13
1;15
0;16
1;20
#236
1;0
1;21
1;22
1;23
1;24
1;27
1;28
0;35
0;36
1;39
1;40
#237
0;0
0;1
1;6
0;8
1;9
1;11
1;12
0;13
0;15
1;16
1;18
0;19
0;20
#238
1;0
0;27
0;28
1;35
1;36
0;39
0;40
#239
0;0
0;2
0;3
1;8
0;11
0;12
1;14
1;15
0;16
1;17
1;19
#240
1;0
0;21
0;22
1;29
1;30
0;35
0;36
#241
0;0
1;3
0;6
0;8
0;10
1;12
0;15
1;16
0;17
0;18
0;19
#242
1;0
0;23
0;24
0;29
0;30
1;35
1;36
#243
0;0
1;1
0;3
0;4
1;5
1;6
0;9
1;10
1;11
0;12
1;13
0;14
1;15
1;18
1;19
1;20
#244
1;0
1;29
1;30
0;35
0;36
#245
0;0
1;7
1;8
1;9
1;12
1;14
0;16
0;20
#246
1;0
1;25
1;26
0;29
0;30
1;31
1;32
1;33
1;34
#247
0;0
1;3
0;5
0;6
0;7
0;9
0;11
0;18
0;19
1;20
#248
1;0
0;25
0;26
1;27
1;28
1;29
1;30
1;39
1;40
#249
0;0
1;2
0;3
1;5
1;6
1;7
1;9
0;10
0;12
0;13
0;15
1;17
1;19
#250
1;0
1;21
1;22
0;27
0;28
0;29
0;30
0;31
0;32
0;39
0;40
#251
0;0
0;1
0;2
1;3
1;4
0;6
0;7
1;13
1;15
0;17
0;19
#252
1;0
0;21
0;22
1;27
1;28
0;33
0;34
1;39
1;40
#253
0;0
0;4
0;8
0;9
0;13
0;15
1;16
1;17
0;20
#254
1;0
0;27
0;28
1;33
1;34
1;35
1;36
0;39
0;40
#255
0;0
1;4
1;11
1;19
1;20
#256
1;0
1;23
1;24
0;33
0;34
0;35
0;36
#257
0;0
1;2
0;3
0;4
0;5
1;7
1;10
0;11
1;15
1;18
#258
1;0
0;23
0;24
1;37
1;38
1;39
1;40
#259
0;0
1;1
1;3
1;4
1;6
0;7
1;8
0;10
1;13
0;14
0;16
0;17
0;18
0;19
0;20
#260
1;0
1;27
1;28
0;37
0;38
0;39
0;40
#261
0;0
0;1
0;2
0;3
0;4
0;6
1;7
1;9
1;10
1;11
1;12
0;13
0;15
1;18
1;19
#262
1;0
0;27
0;28
#263
0;0
1;1
1;2
1;6
0;7
0;8
0;9
0;10
0;12
1;13
1;14
1;16
1;17
0;19
1;20
#264
1;0
1;39
1;40
#265
0;0
0;1
0;6
1;9
1;10
0;11
0;14
1;15
0;17
1;19
0;20
#266
1;0
1;21
1;22
1;37
1;38
0;39
0;40
#267
0;0
0;2
1;4
1;8
0;10
0;13
0;15
0;16
1;17
0;19
#268
1;0
0;21
0;22
0;37
0;38
#269
0;0
1;3
0;8
1;12
0;17
0;18
#270
1;0
#271
0;0
1;1
0;3
1;5
1;7
1;10
0;12
1;13
1;14
1;15
1;16
1;17
1;20
#272
1;0
1;23
1;24
1;29
1;30
#273
0;0
0;1
0;4
1;6
1;8
1;11
0;16
0;17
#274
1;0
0;23
0;24
1;25
1;26
1;27
1;28
0;29
0;30
1;33
1;34
#275
0;0
1;1
1;2
1;3
0;5
0;7
0;8
0;10
1;12
0;13
1;16
1;19
0;20
#276
1;0
0;27
0;28
1;31
1;32
1;35
1;36
#277
0;0
0;2
0;3
1;4
0;6
1;7
0;9
0;12
1;13
0;15
1;20
#278
1;0
1;23
1;24
0;25
0;26
0;31
0;32
0;33
0;34
1;39
1;40
#279
0;0
0;1
1;6
0;7
1;10
0;11
1;12
0;13
0;16
1;17
0;19
#280
1;0
0;23
0;24
1;31
1;32
1;33
1;34
0;35
0;36
#281
0;0
1;2
1;3
0;6
0;10
1;11
1;19
#282
1;0
0;31
0;32
0;33
0;34
0;39
0;40
#283
0;0
0;3
0;4
1;6
1;8
1;9
1;13
0;14
0;17
0;19
#284
1;0
1;31
1;32
1;39
1;40
#285
0;0
0;2
1;4
1;5
0;6
1;7
0;8
0;9
0;12
0;13
1;17
0;20
#286
1;0
0;31
0;32
0;39
0;40
#287
0;0
1;2
1;3
0;4
1;6
0;7
1;9
1;14
1;15
1;20
#288
1;0
1;25
1;26
#289
0;0
1;1
0;2
0;3
1;4
0;5
0;6
1;7
1;8
1;10
1;12
0;14
1;18
0;20
#290
1;0
1;23
1;24
0;25
0;26
1;29
1;30
1;31
1;32
1;37
1;38
#291
0;0
0;1
1;2
0;4
1;6
0;7
0;9
0;11
1;13
0;15
1;16
#292
1;0
1;21
1;22
0;23
0;24
1;27
1;28
0;29
0;30
1;35
1;36
#293
0;0
1;1
1;3
1;4
1;5
1;7
0;8
0;12
0;13
1;14
1;15
0;16
0;17
1;19
#294
1;0
0;21
0;22
0;27
0;28
1;29
1;30
0;31
0;32
1;33
1;34
0;35
0;36
#295
0;0
0;1
0;2
0;5
0;7
1;8
1;9
0;10
1;11
1;13
0;19
#296
1;0
1;23
1;24
1;25
1;26
1;27
1;28
0;29
0;30
0;33
0;34
0;37
0;38
#297
0;0
1;2
0;6
1;7
0;8
1;10
0;14
1;16
0;18
1;19
1;20
#298
1;0
0;25
0;26
0;27
0;28
1;29
1;30
1;35
1;36
#299
0;0
0;2
0;4
1;5
0;7
1;8
0;11
0;13
1;14
0;16
1;17
0;19
0;20
#300
1;0
0;23
0;24
1;27
1;28
0;29
0;30
1;33
1;34
0;35
0;36
#301
0;0
1;1
1;2
0;3
0;5
0;8
0;9
1;11
1;13
0;14
0;15
1;16
0;17
1;18
#302
1;0
0;27
0;28
0;33
0;34
1;35
1;36
1;37
1;38
#303
0;0
0;1
0;2
1;5
1;6
1;9
0;10
1;12
0;13
1;14
1;15
0;16
1;17
1;20
#304
1;0
1;31
1;32
1;33
1;34
0;35
0;36
0;37
0;38
#305
0;0
1;2
0;6
1;7
1;8
1;10
1;16
0;17
0;20
#306
1;0
1;29
1;30
0;33
0;34
1;35
1;36
1;37
1;38
#307
0;0
1;3
0;5
0;7
0;8
0;9
0;10
0;12
1;13
0;15
0;16
1;19
1;20
#308
1;0
0;29
0;30
0;31
0;32
0;35
0;36
0;37
0;38
#309
0;0
1;1
1;4
1;8
0;14
0;18
0;19
0;20
#310
1;0
1;23
1;24
#311
0;0
0;1
1;5
1;6
1;7
1;9
0;11
1;14
1;15
1;18
1;19
#312
1;0
1;21
1;22
1;33
1;34
#313
0;0
0;2
0;3
0;5
0;6
0;8
0;9
1;10
1;11
0;14
1;17
0;18
#314
1;0
0;21
0;22
1;29
1;30
0;33
0;34
#315
0;0
1;2
0;4
1;5
1;6
0;7
1;8
1;9
1;12
1;14
0;15
1;16
1;20
#316
1;0
0;23
0;24
1;27
1;28
0;29
0;30
1;31
1;32
1;33
1;34
1;35
1;36
1;39
1;40
#317
0;0
1;1
0;2
1;3
0;5
0;6
0;8
0;9
0;11
0;12
0;16
0;17
#318
1;0
0;27
0;28
1;29
1;30
0;31
0;32
0;35
0;36
#319
0;0
0;3
1;5
1;6
1;7
1;9
1;11
0;14
1;15
1;18
0;19
0;20
#320
1;0
0;29
0;30
0;33
0;34
0;39
0;40
#321
0;0
0;7
1;12
1;17
#322
1;0
1;25
1;26
1;29
1;30
1;31
1;32
