tool/synthetic_gen/sample_config_gen/AndUntilOvl/faulty_traces/vcd/fault_34.vcd
$date
    Mar 10, 2025 02:04:41
$end
$version
    Tracer 3.0.0 - By Enrico Fraccaroli <enry.frak@gmail.com> --- 2022/02/15
$end
$timescale
    1ns
$end
$scope module AndUntilOvl_top_bench $end
$scope module AndUntilOvl_top_ $end
    $var wire 1 ;0 clk $end
    $var wire 1 ;1 a_3 $end
    $var wire 1 ;2 c_0 $end
    $var wire 1 ;3 a_0 $end
    $var wire 1 ;4 b_2 $end
    $var wire 1 ;5 a_4 $end
    $var wire 1 ;6 c_1 $end
    $var wire 1 ;7 b_0 $end
    $var wire 1 ;8 m_0 $end
    $var wire 1 ;9 i_3 $end
    $var wire 1 ;10 d_0 $end
    $var wire 1 ;11 e_2 $end
    $var wire 1 ;12 j_2 $end
    $var wire 1 ;13 d_2 $end
    $var wire 1 ;14 n_1 $end
    $var wire 1 ;15 m_2 $end
    $var wire 1 ;16 g_2 $end
    $var wire 1 ;17 e_4 $end
    $var wire 1 ;18 g_4 $end
    $var wire 1 ;19 l_4 $end
    $var wire 1 ;20 n_3 $end
    $var wire 1 ;21 j_1 $end
    $var wire 1 ;22 l_1 $end
    $var wire 1 ;23 k_3 $end
    $var wire 1 ;24 f_3 $end
    $var wire 1 ;25 n_4 $end
    $var wire 1 ;26 n_0 $end
    $var wire 1 ;27 m_1 $end
    $var wire 1 ;28 l_0 $end
    $var wire 1 ;29 i_2 $end
    $var wire 1 ;30 d_3 $end
    $var wire 1 ;31 h_3 $end
    $var wire 1 ;32 d_1 $end
    $var wire 1 ;33 h_4 $end
    $var wire 1 ;34 i_0 $end
    $var wire 1 ;35 o_3 $end
    $var wire 1 ;36 k_2 $end
    $var wire 1 ;37 n_2 $end
    $var wire 1 ;38 h_1 $end
    $var wire 1 ;39 m_4 $end
    $var wire 1 ;40 f_0 $end
    $var wire 1 ;41 k_4 $end
    $var wire 1 ;42 o_0 $end
    $var wire 1 ;43 e_0 $end
    $var wire 1 ;44 j_0 $end
    $var wire 1 ;45 o_4 $end
    $var wire 1 ;46 g_0 $end
    $var wire 1 ;47 f_4 $end
    $var wire 1 ;48 m_3 $end
    $var wire 1 ;49 i_1 $end
    $var wire 1 ;50 o_2 $end
    $var wire 1 ;51 h_0 $end
    $var wire 1 ;52 d_4 $end
    $var wire 1 ;53 k_0 $end
    $var wire 1 ;54 g_3 $end
    $var wire 1 ;55 e_1 $end
    $var wire 1 ;56 k_1 $end
    $var wire 1 ;57 h_2 $end
    $var wire 1 ;58 e_3 $end
    $var wire 1 ;59 o_1 $end
$upscope $end
$upscope $end
$enddefinitions $end
#0
$dumpvars
1;0
0;1
0;2
0;3
0;4
0;5
0;6
0;7
0;8
0;9
0;10
0;11
0;12
0;13
0;14
0;15
0;16
0;17
0;18
0;19
0;20
0;21
0;22
0;23
0;24
0;25
0;26
0;27
0;28
0;29
0;30
0;31
0;32
0;33
0;34
0;35
0;36
0;37
0;38
0;39
0;40
0;41
0;42
0;43
0;44
0;45
0;46
0;47
0;48
0;49
0;50
0;51
0;52
0;53
0;54
0;55
0;56
0;57
0;58
0;59
$end
#1
0;0
1;1
1;3
1;4
1;5
1;6
#2
1;0
1;8
1;20
1;23
1;29
1;35
1;48
#3
0;0
0;1
1;2
0;4
0;6
1;7
#4
1;0
1;19
0;20
0;23
1;25
1;26
1;28
0;29
0;35
1;38
1;39
1;41
1;44
1;45
0;48
1;53
#5
0;0
1;1
0;2
0;3
0;5
#6
1;0
0;8
0;19
0;25
0;26
0;28
0;38
0;39
0;41
0;44
0;45
0;53
#7
0;0
0;1
1;2
1;3
#8
1;0
1;8
1;26
1;28
1;44
1;53
#9
0;0
1;1
#10
1;0
#11
0;0
0;3
1;4
1;6
#12
1;0
0;8
1;14
1;20
1;21
1;22
1;23
0;26
1;27
0;28
1;29
1;35
0;44
1;48
0;53
1;56
1;59
#13
0;0
0;6
#14
1;0
0;14
0;20
0;21
0;22
0;23
0;27
0;29
0;35
0;48
0;56
0;59
#15
0;0
0;1
#16
1;0
#17
0;0
0;2
1;5
1;6
0;7
#18
1;0
#19
0;0
1;1
1;3
0;4
1;7
#20
1;0
#21
0;0
0;1
1;2
0;3
1;4
0;5
0;7
#22
1;0
#23
0;0
0;6
#24
1;0
#25
0;0
0;2
1;3
1;6
#26
1;0
#27
0;0
0;3
0;6
#28
1;0
#29
0;0
1;2
1;3
0;4
1;7
#30
1;0
1;8
1;26
1;28
1;44
1;53
#31
0;0
1;1
0;3
1;4
0;7
#32
1;0
0;8
0;26
0;28
0;44
0;53
#33
0;0
0;2
1;5
1;6
#34
1;0
1;8
1;20
1;23
1;29
1;35
1;48
#35
0;0
1;3
1;7
#36
1;0
1;10
1;12
1;15
1;36
1;37
1;50
#37
0;0
1;2
0;6
#38
1;0
1;19
0;20
0;23
1;25
1;26
1;28
0;29
0;35
1;38
1;39
1;41
1;44
1;45
0;48
1;53
#39
0;0
0;2
0;4
1;6
0;7
#40
1;0
0;8
0;10
0;12
0;15
0;19
0;25
0;26
0;28
0;36
0;37
0;38
0;39
0;41
0;44
0;45
0;50
0;53
#41
0;0
0;1
1;2
0;3
1;4
#42
1;0
#43
0;0
0;2
1;3
0;4
0;6
1;7
#44
1;0
#45
0;0
1;2
0;3
1;4
1;6
#46
1;0
1;14
1;19
1;21
1;22
1;25
1;27
1;38
1;39
1;41
1;45
1;56
1;59
#47
0;0
0;2
0;5
0;7
#48
1;0
0;14
0;19
0;21
0;22
0;25
0;27
0;38
0;39
0;41
0;45
0;56
0;59
#49
0;0
0;4
1;5
0;6
1;7
#50
1;0
#51
0;0
1;1
1;2
1;3
1;4
0;5
#52
1;0
1;8
1;10
1;12
1;15
1;26
1;28
1;36
1;37
1;44
1;50
1;53
#53
0;0
0;2
1;6
0;7
#54
1;0
0;8
0;10
0;12
0;15
1;20
1;23
0;26
0;28
1;29
1;35
0;36
0;37
0;44
1;48
0;50
0;53
#55
0;0
1;2
1;5
0;6
#56
1;0
0;20
0;23
0;29
0;35
0;48
#57
0;0
0;3
0;5
1;7
#58
1;0
#59
0;0
0;4
0;7
#60
1;0
#61
0;0
0;1
0;2
1;3
1;4
1;5
#62
1;0
#63
0;0
1;1
0;4
1;7
#64
1;0
#65
0;0
0;1
1;4
0;5
#66
1;0
1;10
1;12
1;15
1;36
1;37
1;50
#67
0;0
0;3
1;5
1;6
0;7
#68
1;0
0;10
0;12
0;15
0;36
0;37
0;50
#69
0;0
1;2
0;4
#70
1;0
#71
0;0
0;2
1;4
0;5
1;7
#72
1;0
#73
0;0
1;1
0;6
0;7
#74
1;0
#75
0;0
0;1
1;3
0;4
#76
1;0
#77
0;0
1;2
0;3
#78
1;0
#79
0;0
1;1
1;5
1;6
1;7
#80
1;0
1;14
1;19
1;21
1;22
1;25
1;27
1;38
1;39
1;41
1;45
1;56
1;59
#81
0;0
0;2
1;3
0;5
#82
1;0
0;14
0;19
0;21
0;22
0;25
0;27
0;38
0;39
0;41
0;45
0;56
0;59
#83
0;0
1;2
0;3
1;4
1;5
0;7
#84
1;0
1;8
1;20
1;23
1;29
1;35
1;48
#85
0;0
0;1
0;4
0;5
0;6
#86
1;0
0;8
0;20
0;23
0;29
0;35
0;48
#87
0;0
0;2
1;5
1;6
#88
1;0
#89
0;0
1;1
1;3
0;5
0;6
1;7
#90
1;0
#91
0;0
0;3
1;5
#92
1;0
#93
0;0
1;3
1;4
1;6
#94
1;0
1;8
1;10
1;12
1;15
1;20
1;23
1;29
1;35
1;36
1;37
1;48
1;50
#95
0;0
0;1
1;2
0;4
0;7
#96
1;0
0;8
0;10
0;12
0;15
0;20
0;23
0;29
0;35
0;36
0;37
0;48
0;50
#97
0;0
1;1
0;2
0;3
0;5
0;6
#98
1;0
#99
0;0
1;3
#100
1;0
#101
0;0
0;1
1;4
1;6
#102
1;0
#103
0;0
0;4
0;6
#104
1;0
#105
0;0
1;1
1;2
1;6
#106
1;0
#107
0;0
0;1
1;4
0;6
1;7
#108
1;0
1;8
1;10
1;12
1;15
1;26
1;28
1;36
1;37
1;44
1;50
1;53
#109
0;0
0;2
0;4
1;5
1;6
#110
1;0
0;8
0;10
0;12
0;15
0;26
0;28
0;36
0;37
0;44
0;50
0;53
#111
0;0
1;1
1;4
0;5
0;6
#112
1;0
1;10
1;12
1;15
1;36
1;37
1;50
#113
0;0
0;1
0;3
0;4
1;6
0;7
#114
1;0
0;10
0;12
0;15
0;36
0;37
0;50
#115
0;0
1;3
0;6
#116
1;0
#117
0;0
1;5
1;6
1;7
#118
1;0
#119
0;0
0;3
1;4
0;5
0;6
#120
1;0
#121
0;0
1;5
#122
1;0
#123
0;0
1;1
1;2
1;3
0;5
#124
1;0
1;8
1;10
1;12
1;15
1;26
1;28
1;36
1;37
1;44
1;50
1;53
#125
0;0
0;1
0;2
0;4
1;5
1;6
0;7
#126
1;0
0;8
0;10
0;12
0;15
0;26
0;28
0;36
0;37
0;44
0;50
0;53
#127
0;0
0;5
0;6
1;7
#128
1;0
#129
0;0
0;3
1;6
#130
1;0
#131
0;0
1;1
1;2
1;5
0;6
#132
1;0
1;19
1;25
1;38
1;39
1;41
1;45
#133
0;0
0;2
1;3
1;4
#134
1;0
1;10
1;12
1;15
0;19
0;25
1;36
1;37
0;38
0;39
0;41
0;45
1;50
#135
0;0
0;1
1;2
0;4
1;6
0;7
#136
1;0
0;10
0;12
0;15
0;36
0;37
0;50
#137
0;0
1;1
1;4
0;6
#138
1;0
#139
0;0
0;5
1;7
#140
1;0
1;8
1;10
1;12
1;15
1;26
1;28
1;36
1;37
1;44
1;50
1;53
#141
0;0
0;2
0;4
#142
1;0
0;8
0;10
0;12
0;15
0;26
0;28
0;36
0;37
0;44
0;50
0;53
#143
0;0
0;3
1;4
#144
1;0
#145
0;0
1;2
1;3
1;6
0;7
#146
1;0
1;8
1;20
1;23
1;29
1;35
1;48
#147
0;0
0;3
0;4
0;6
1;7
#148
1;0
0;8
0;20
0;23
0;29
0;35
0;48
#149
0;0
0;1
0;2
1;3
0;7
#150
1;0
#151
0;0
0;3
1;7
#152
1;0
#153
0;0
1;3
1;5
#154
1;0
#155
0;0
1;1
1;2
0;5
#156
1;0
1;8
1;26
1;28
1;44
1;53
#157
0;0
0;1
0;2
0;3
1;4
1;6
#158
1;0
0;8
0;26
0;28
0;44
0;53
#159
0;0
1;2
1;3
0;4
1;5
0;7
#160
1;0
#161
0;0
0;2
0;3
0;5
#162
1;0
#163
0;0
1;2
1;3
1;4
1;5
#164
1;0
#165
0;0
1;1
0;4
1;7
#166
1;0
1;8
1;14
1;19
1;21
1;22
1;25
1;26
1;27
1;28
1;38
1;39
1;41
1;44
1;45
1;53
1;56
1;59
#167
0;0
0;3
1;4
0;5
#168
1;0
0;8
0;19
1;20
1;23
0;25
0;26
0;28
1;29
1;35
0;38
0;39
0;41
0;44
0;45
1;48
0;53
#169
0;0
0;1
0;4
1;5
0;6
0;7
#170
1;0
0;14
0;20
0;21
0;22
0;23
0;27
0;29
0;35
0;48
0;56
0;59
#171
0;0
1;1
1;3
1;4
0;5
1;7
#172
1;0
1;8
1;10
1;12
1;15
1;26
1;28
1;36
1;37
1;44
1;50
1;53
#173
0;0
#174
1;0
#175
0;0
0;3
0;4
#176
1;0
0;8
0;10
0;12
0;15
0;26
0;28
0;36
0;37
0;44
0;50
0;53
#177
0;0
1;3
1;4
1;6
#178
1;0
1;8
1;10
1;12
1;14
1;15
1;20
1;21
1;22
1;23
1;26
1;27
1;28
1;29
1;35
1;36
1;37
1;44
1;48
1;50
1;53
1;56
1;59
#179
0;0
0;6
0;7
#180
1;0
0;8
0;10
0;12
0;14
0;15
0;20
0;21
0;22
0;23
0;26
0;27
0;28
0;29
0;35
0;36
0;37
0;44
0;48
0;50
0;53
0;56
0;59
#181
0;0
0;1
0;4
1;7
#182
1;0
1;8
1;26
1;28
1;44
1;53
#183
0;0
1;1
0;2
0;3
#184
1;0
0;8
0;26
0;28
0;44
0;53
#185
0;0
0;1
1;4
1;5
1;6
0;7
#186
1;0
#187
0;0
1;3
#188
1;0
#189
0;0
1;1
1;2
0;4
0;5
0;6
#190
1;0
#191
0;0
1;5
1;6
#192
1;0
#193
0;0
0;6
1;7
#194
1;0
1;8
1;19
1;25
1;26
1;28
1;38
1;39
1;41
1;44
1;45
1;53
#195
0;0
0;1
0;3
0;5
1;6
0;7
#196
1;0
0;8
0;19
0;25
0;26
0;28
0;38
0;39
0;41
0;44
0;45
0;53
#197
0;0
1;1
0;2
1;4
1;7
#198
1;0
1;8
1;20
1;23
1;29
1;35
1;48
#199
0;0
0;1
1;3
1;5
0;6
#200
1;0
0;8
1;10
1;12
1;15
0;20
0;23
0;29
0;35
1;36
1;37
0;48
1;50
#201
0;0
1;2
0;3
0;4
0;5
1;6
0;7
#202
1;0
0;10
0;12
0;15
0;36
0;37
0;50
#203
0;0
1;1
1;3
1;4
1;5
#204
1;0
1;8
1;20
1;23
1;29
1;35
1;48
#205
0;0
0;3
0;4
0;6
1;7
#206
1;0
0;8
1;19
0;20
0;23
1;25
0;29
0;35
1;38
1;39
1;41
1;45
0;48
#207
0;0
0;2
0;5
1;6
#208
1;0
0;19
0;25
0;38
0;39
0;41
0;45
#209
0;0
1;2
1;3
1;4
#210
1;0
1;8
1;10
1;12
1;14
1;15
1;20
1;21
1;22
1;23
1;26
1;27
1;28
1;29
1;35
1;36
1;37
1;44
1;48
1;50
1;53
1;56
1;59
#211
0;0
0;1
0;2
#212
1;0
0;8
0;14
0;20
0;21
0;22
0;23
0;26
0;27
0;28
0;29
0;35
0;44
0;48
0;53
0;56
0;59
#213
0;0
1;1
0;4
1;5
0;7
#214
1;0
0;10
0;12
0;15
0;36
0;37
0;50
#215
0;0
1;2
0;3
0;6
#216
1;0
#217
0;0
0;2
1;6
#218
1;0
#219
0;0
0;1
1;3
0;5
#220
1;0
#221
0;0
1;4
0;6
1;7
#222
1;0
1;10
1;12
1;15
1;36
1;37
1;50
#223
0;0
1;2
0;3
#224
1;0
0;10
0;12
0;15
0;36
0;37
0;50
#225
0;0
0;2
0;7
#226
1;0
#227
0;0
1;2
0;4
1;5
1;6
#228
1;0
#229
0;0
1;1
0;2
0;5
1;7
#230
1;0
#231
0;0
1;2
1;3
1;4
0;7
#232
1;0
1;8
1;20
1;23
1;29
1;35
1;48
#233
0;0
1;5
#234
1;0
#235
0;0
0;1
0;3
0;4
0;5
0;6
#236
1;0
0;8
0;20
0;23
0;29
0;35
0;48
#237
0;0
1;1
0;2
1;4
1;6
1;7
#238
1;0
1;8
1;20
1;23
1;29
1;35
1;48
#239
0;0
0;4
#240
1;0
0;8
0;20
0;23
0;29
0;35
0;48
#241
0;0
0;1
1;3
1;4
1;5
0;6
0;7
#242
1;0
#243
0;0
1;1
1;6
1;7
#244
1;0
1;8
1;10
1;12
1;15
1;20
1;23
1;29
1;35
1;36
1;37
1;48
1;50
#245
0;0
0;1
0;5
0;7
#246
1;0
0;8
0;10
0;12
0;15
0;20
0;23
0;29
0;35
0;36
0;37
0;48
0;50
#247
0;0
1;5
0;6
1;7
#248
1;0
1;10
1;12
1;15
1;36
1;37
1;50
#249
0;0
1;1
1;2
0;3
0;5
1;6
#250
1;0
1;8
0;10
0;12
1;14
0;15
1;20
1;21
1;22
1;23
1;27
1;29
1;35
0;36
0;37
1;48
0;50
1;56
1;59
#251
0;0
0;2
1;3
0;4
0;6
#252
1;0
0;8
0;14
0;20
0;21
0;22
0;23
0;27
0;29
0;35
0;48
0;56
0;59
#253
0;0
0;3
1;4
1;6
#254
1;0
1;8
1;20
1;23
1;29
1;35
1;48
#255
0;0
0;1
1;2
1;3
0;4
1;5
0;7
#256
1;0
0;8
0;20
0;23
0;29
0;35
0;48
#257
0;0
1;4
0;5
0;6
1;7
#258
1;0
1;8
1;10
1;12
1;15
1;26
1;28
1;36
1;37
1;44
1;50
1;53
#259
0;0
0;3
0;4
1;5
1;6
0;7
#260
1;0
0;8
0;10
0;12
0;15
0;26
0;28
0;36
0;37
0;44
0;50
0;53
#261
0;0
1;1
0;2
1;4
0;5
0;6
#262
1;0
#263
0;0
0;1
1;3
0;4
1;5
1;6
#264
1;0
#265
0;0
0;3
1;4
0;6
#266
1;0
#267
0;0
1;1
1;3
0;4
1;6
#268
1;0
#269
0;0
1;2
0;3
0;6
1;7
#270
1;0
1;19
1;25
1;38
1;39
1;41
1;45
#271
0;0
1;4
1;6
#272
1;0
1;8
1;14
1;20
1;21
1;22
1;23
1;27
1;29
1;35
1;48
1;56
1;59
#273
0;0
0;1
0;2
1;3
0;4
0;5
0;6
#274
1;0
0;8
0;14
0;19
0;20
0;21
0;22
0;23
0;25
0;27
0;29
0;35
0;38
0;39
0;41
0;45
0;48
0;56
0;59
#275
0;0
1;1
0;3
1;4
1;6
#276
1;0
1;8
1;20
1;23
1;29
1;35
1;48
#277
0;0
1;2
1;3
0;4
#278
1;0
1;14
0;20
1;21
1;22
0;23
1;26
1;27
1;28
0;29
0;35
1;44
0;48
1;53
1;56
1;59
#279
0;0
0;2
0;3
1;5
0;6
#280
1;0
0;8
0;14
0;21
0;22
0;26
0;27
0;28
0;44
0;53
0;56
0;59
#281
0;0
0;1
0;5
1;6
0;7
#282
1;0
#283
0;0
1;1
1;2
1;5
0;6
1;7
#284
1;0
1;19
1;25
1;38
1;39
1;41
1;45
#285
0;0
1;4
0;5
1;6
#286
1;0
1;8
1;14
0;19
1;20
1;21
1;22
1;23
0;25
1;27
1;29
1;35
0;38
0;39
0;41
0;45
1;48
1;56
1;59
#287
0;0
0;1
1;5
#288
1;0
0;8
1;19
0;20
0;23
1;25
0;29
0;35
1;38
1;39
1;41
1;45
0;48
#289
0;0
0;4
0;6
0;7
#290
1;0
0;14
0;19
0;21
0;22
0;25
0;27
0;38
0;39
0;41
0;45
0;56
0;59
#291
0;0
0;2
1;4
1;7
#292
1;0
#293
0;0
1;1
1;3
0;4
0;5
1;6
#294
1;0
#295
0;0
0;1
1;2
1;4
0;7
#296
1;0
#297
0;0
1;1
0;2
0;3
0;6
1;7
#298
1;0
#299
0;0
1;2
1;3
1;5
1;6
0;7
#300
1;0
1;8
1;20
1;23
1;29
1;35
1;48
#301
0;0
0;1
0;2
0;3
0;5
#302
1;0
0;8
0;20
0;23
0;29
0;35
0;48
#303
0;0
1;3
1;5
0;6
#304
1;0
#305
0;0
1;1
0;3
0;4
0;5
1;7
#306
1;0
#307
0;0
0;1
1;2
1;6
#308
1;0
1;14
1;21
1;22
1;27
1;56
1;59
#309
0;0
1;1
1;4
1;5
0;6
#310
1;0
0;14
1;19
0;21
0;22
1;25
0;27
1;38
1;39
1;41
1;45
0;56
0;59
#311
0;0
1;3
0;4
#312
1;0
1;8
1;26
1;28
1;44
1;53
#313
0;0
1;6
#314
1;0
1;14
1;21
1;22
1;27
1;56
1;59
#315
0;0
0;2
0;3
0;7
#316
1;0
0;8
0;14
0;19
0;21
0;22
0;25
0;26
0;27
0;28
0;38
0;39
0;41
0;44
0;45
0;53
0;56
0;59
#317
0;0
1;3
1;7
#318
1;0
#319
0;0
0;1
1;2
0;3
0;5
0;7
#320
1;0
#321
0;0
0;2
1;3
1;4
1;5
0;6
1;7
#322
1;0
1;10
1;12
1;15
1;36
1;37
1;50
#323
0;0
1;2
0;3
1;6
#324
1;0
0;10
0;12
1;14
0;15
1;19
1;21
1;22
1;25
1;27
0;36
0;37
1;38
1;39
1;41
1;45
0;50
1;56
1;59
#325
0;0
0;2
1;3
0;5
#326
1;0
1;10
1;12
0;14
1;15
0;19
0;21
0;22
0;25
0;27
1;36
1;37
0;38
0;39
0;41
0;45
1;50
0;56
0;59
#327
0;0
0;4
0;7
#328
1;0
0;10
0;12
0;15
0;36
0;37
0;50
#329
0;0
1;2
0;3
1;5
1;7
#330
1;0
1;14
1;19
1;21
1;22
1;25
1;27
1;38
1;39
1;41
1;45
1;56
1;59
#331
0;0
1;3
#332
1;0
1;8
1;26
1;28
1;44
1;53
#333
0;0
0;2
1;4
0;5
0;6
0;7
#334
1;0
0;8
0;14
0;19
0;21
0;22
0;25
0;26
0;27
0;28
0;38
0;39
0;41
0;44
0;45
0;53
0;56
0;59
#335
0;0
1;1
1;2
0;3
1;6
1;7
#336
1;0
1;8
1;14
1;20
1;21
1;22
1;23
1;27
1;29
1;35
1;48
1;56
1;59
#337
0;0
0;1
0;2
0;4
1;5
0;6
#338
1;0
0;8
0;14
0;20
0;21
0;22
0;23
0;27
0;29
0;35
0;48
0;56
0;59
#339
0;0
1;6
0;7
#340
1;0
#341
0;0
1;2
1;4
#342
1;0
#343
0;0
0;6
#344
1;0
#345
0;0
1;1
1;3
0;5
1;6
1;7
#346
1;0
1;8
1;10
1;12
1;14
1;15
1;20
1;21
1;22
1;23
1;26
1;27
1;28
1;29
1;35
1;36
1;37
1;44
1;48
1;50
1;53
1;56
1;59
#347
0;0
0;2
0;3
0;4
0;7
#348
1;0
0;8
0;10
0;12
0;14
0;15
0;20
0;21
0;22
0;23
0;26
0;27
0;28
0;29
0;35
0;36
0;37
0;44
0;48
0;50
0;53
0;56
0;59
#349
0;0
1;3
1;5
1;7
#350
1;0
#351
0;0
1;4
0;7
#352
1;0
1;8
1;20
1;23
1;29
1;35
1;48
#353
0;0
0;1
0;3
#354
1;0
0;8
0;20
0;23
0;29
0;35
0;48
#355
0;0
1;1
1;2
0;6
1;7
#356
1;0
1;19
1;25
1;38
1;39
1;41
1;45
#357
0;0
1;3
0;4
0;5
0;7
#358
1;0
0;19
0;25
0;38
0;39
0;41
0;45
#359
0;0
1;5
1;7
#360
1;0
1;8
1;19
1;25
1;26
1;28
1;38
1;39
1;41
1;44
1;45
1;53
#361
0;0
0;2
1;4
0;5
1;6
#362
1;0
0;8
1;10
1;12
1;15
0;19
1;20
1;23
0;25
0;26
0;28
1;29
1;35
1;36
1;37
0;38
0;39
0;41
0;44
0;45
1;48
1;50
0;53
#363
0;0
1;2
0;7
#364
1;0
0;10
0;12
0;15
0;36
0;37
0;50
#365
0;0
0;2
0;4
1;5
0;6
#366
1;0
0;20
0;23
0;29
0;35
0;48
#367
0;0
1;2
1;4
0;5
1;7
#368
1;0
1;8
1;10
1;12
1;15
1;26
1;28
1;36
1;37
1;44
1;50
1;53
#369
0;0
0;1
1;5
0;7
#370
1;0
0;8
0;10
0;12
0;15
0;26
0;28
0;36
0;37
0;44
0;50
0;53
#371
0;0
1;1
0;2
0;4
1;6
1;7
#372
1;0
#373
0;0
0;5
0;6
0;7
#374
1;0
#375
0;0
0;1
1;2
0;3
1;4
1;6
#376
1;0
#377
0;0
0;2
0;4
1;5
1;7
#378
1;0
#379
0;0
1;2
1;4
#380
1;0
1;14
1;19
1;21
1;22
1;25
1;27
1;38
1;39
1;41
1;45
1;56
1;59
#381
0;0
0;2
1;3
0;6
#382
1;0
1;10
1;12
0;14
1;15
0;19
0;21
0;22
0;25
0;27
1;36
1;37
0;38
0;39
0;41
0;45
1;50
0;56
0;59
#383
0;0
1;1
1;2
0;5
#384
1;0
1;8
1;26
1;28
1;44
1;53
#385
0;0
0;1
0;4
1;5
1;6
#386
1;0
0;10
0;12
1;14
0;15
1;19
1;21
1;22
1;25
1;27
0;36
0;37
1;38
1;39
1;41
1;45
0;50
1;56
1;59
#387
0;0
0;2
0;3
0;5
0;6
#388
1;0
0;8
0;14
0;19
0;21
0;22
0;25
0;26
0;27
0;28
0;38
0;39
0;41
0;44
0;45
0;53
0;56
0;59
#389
0;0
1;1
1;3
#390
1;0
#391
0;0
1;4
1;5
0;7
#392
1;0
#393
0;0
0;5
1;6
#394
1;0
1;8
1;20
1;23
1;29
1;35
1;48
#395
0;0
0;4
1;5
#396
1;0
0;8
0;20
0;23
0;29
0;35
0;48
#397
0;0
0;3
0;5
#398
1;0
#399
0;0
0;1
1;2
1;5
1;7
#400
1;0
1;14
1;19
1;21
1;22
1;25
1;27
1;38
1;39
1;41
1;45
1;56
1;59
#401
0;0
1;1
1;3
0;5
0;7
#402
1;0
0;14
0;19
0;21
0;22
0;25
0;27
0;38
0;39
0;41
0;45
0;56
0;59
#403
0;0
0;1
0;2
0;3
1;4
1;7
#404
1;0
#405
0;0
1;1
0;4
0;6
#406
1;0
#407
0;0
0;1
1;2
1;3
1;4
1;6
#408
1;0
1;8
1;10
1;12
1;14
1;15
1;21
1;22
1;26
1;27
1;28
1;36
1;37
1;44
1;50
1;53
1;56
1;59
#409
0;0
1;1
0;2
0;3
0;4
#410
1;0
0;8
0;10
0;12
0;14
0;15
0;21
0;22
0;26
0;27
0;28
0;36
0;37
0;44
0;50
0;53
0;56
0;59
#411
0;0
0;1
1;3
#412
1;0
#413
0;0
1;1
#414
1;0
#415
0;0
1;2
0;3
1;4
0;7
#416
1;0
1;8
1;20
1;23
1;29
1;35
1;48
#417
0;0
0;1
1;3
1;5
#418
1;0
0;8
0;20
0;23
0;29
0;35
0;48
#419
0;0
1;1
0;6
1;7
#420
1;0
1;8
1;10
1;12
1;15
1;19
1;25
1;26
1;28
1;36
1;37
1;38
1;39
1;41
1;44
1;45
1;50
1;53
#421
0;0
0;1
#422
1;0
#423
0;0
1;1
0;3
0;4
0;5
0;7
#424
1;0
0;8
0;10
0;12
0;15
0;19
0;25
0;26
0;28
0;36
0;37
0;38
0;39
0;41
0;44
0;45
0;50
0;53
#425
0;0
0;1
0;2
1;5
1;7
#426
1;0
#427
0;0
1;2
1;3
0;5
#428
1;0
1;8
1;26
1;28
1;44
1;53
#429
0;0
0;2
1;5
#430
1;0
0;8
0;26
0;28
0;44
0;53
#431
0;0
0;3
1;6
0;7
#432
1;0
#433
0;0
1;1
1;2
1;4
1;7
#434
1;0
1;8
1;14
1;19
1;20
1;21
1;22
1;23
1;25
1;27
1;29
1;35
1;38
1;39
1;41
1;45
1;48
1;56
1;59
#435
0;0
0;1
0;5
0;6
#436
1;0
0;8
0;14
0;19
0;20
0;21
0;22
0;23
0;25
0;27
0;29
0;35
0;38
0;39
0;41
0;45
0;48
0;56
0;59
#437
0;0
1;1
0;2
1;5
1;6
#438
1;0
1;8
1;20
1;23
1;29
1;35
1;48
#439
0;0
0;1
1;2
0;6
#440
1;0
0;8
1;19
0;20
0;23
1;25
0;29
0;35
1;38
1;39
1;41
1;45
0;48
#441
0;0
1;3
0;7
#442
1;0
0;19
0;25
0;38
0;39
0;41
0;45
#443
0;0
0;5
#444
1;0
#445
0;0
0;2
1;6
#446
1;0
#447
0;0
1;1
1;2
0;4
1;7
#448
1;0
1;8
1;14
1;21
1;22
1;26
1;27
1;28
1;44
1;53
1;56
1;59
#449
0;0
0;1
0;2
0;3
1;5
0;7
#450
1;0
0;8
0;14
0;21
0;22
0;26
0;27
0;28
0;44
0;53
0;56
0;59
#451
0;0
1;2
1;4
0;5
0;6
#452
1;0
#453
0;0
0;2
1;6
#454
1;0
#455
0;0
1;3
0;4
1;5
0;6
#456
1;0
#457
0;0
0;5
1;6
#458
1;0
#459
0;0
1;1
0;3
1;7
#460
1;0
#461
0;0
0;1
1;2
1;3
1;4
1;5
0;7
#462
1;0
#463
0;0
1;1
0;2
0;3
0;5
1;7
#464
1;0
1;8
1;20
1;23
1;29
1;35
1;48
#465
0;0
0;1
1;3
0;4
0;6
0;7
#466
1;0
0;8
0;20
0;23
0;29
0;35
0;48
#467
0;0
1;2
0;3
1;4
1;6
1;7
#468
1;0
1;14
1;21
1;22
1;27
1;56
1;59
#469
0;0
0;2
0;4
1;5
#470
1;0
0;14
0;21
0;22
0;27
0;56
0;59
#471
0;0
1;3
1;4
0;5
0;6
0;7
#472
1;0
#473
0;0
1;1
1;2
0;3
1;5
1;6
1;7
#474
1;0
1;8
1;14
1;19
1;20
1;21
1;22
1;23
1;25
1;27
1;29
1;35
1;38
1;39
1;41
1;45
1;48
1;56
1;59
#475
0;0
0;2
1;3
#476
1;0
1;10
1;12
0;14
1;15
0;19
0;21
0;22
0;25
0;27
1;36
1;37
0;38
0;39
0;41
0;45
1;50
0;56
0;59
#477
0;0
0;3
0;5
0;7
#478
1;0
0;10
0;12
0;15
0;36
0;37
0;50
#479
0;0
1;3
1;5
#480
1;0
#481
0;0
1;2
0;4
0;5
1;7
#482
1;0
1;14
0;20
1;21
1;22
0;23
1;26
1;27
1;28
0;29
0;35
1;44
0;48
1;53
1;56
1;59
#483
0;0
0;1
0;2
0;3
1;4
#484
1;0
0;8
0;14
0;21
0;22
0;26
0;27
0;28
0;44
0;53
0;56
0;59
#485
0;0
1;2
1;5
0;6
#486
1;0
1;19
1;25
1;38
1;39
1;41
1;45
#487
0;0
1;3
0;5
#488
1;0
1;8
1;10
1;12
1;15
0;19
0;25
1;26
1;28
1;36
1;37
0;38
0;39
0;41
1;44
0;45
1;50
1;53
#489
0;0
1;1
0;4
#490
1;0
0;10
0;12
0;15
0;36
0;37
0;50
#491
0;0
0;3
1;4
1;6
0;7
#492
1;0
0;8
1;20
1;23
0;26
0;28
1;29
1;35
0;44
1;48
0;53
#493
0;0
0;1
0;2
1;3
0;4
1;5
#494
1;0
0;20
0;23
0;29
0;35
0;48
#495
0;0
1;1
1;4
0;6
#496
1;0
#497
0;0
0;4
0;5
1;6
1;7
#498
1;0
#499
0;0
0;1
1;2
0;3
1;4
1;5
0;6
0;7
#500
1;0
#501
0;0
1;1
1;3
0;5
#502
1;0
#503
0;0
0;2
0;3
0;4
1;6
1;7
#504
1;0
#505
0;0
1;2
1;4
1;5
#506
1;0
1;8
1;14
1;19
1;20
1;21
1;22
1;23
1;25
1;27
1;29
1;35
1;38
1;39
1;41
1;45
1;48
1;56
1;59
#507
0;0
0;2
0;4
0;5
0;6
