input/tcad2026/Next/faulty_traces/vcd/fault_5.vcd
$date
    Oct 31, 2025 04:20:02
$end
$version
    Tracer 3.0.0 - By Enrico Fraccaroli <enry.frak@gmail.com> --- 2022/02/15
$end
$timescale
    1ns
$end
$scope module Next_top_bench $end
$scope module Next_top_ $end
    $var wire 1 ;0 clk $end
    $var wire 1 ;1 b_9 $end
    $var wire 1 ;2 b_6 $end
    $var wire 1 ;3 b_8 $end
    $var wire 1 ;4 a_0 $end
    $var wire 1 ;5 a_2 $end
    $var wire 1 ;6 a_6 $end
    $var wire 1 ;7 b_7 $end
    $var wire 1 ;8 a_5 $end
    $var wire 1 ;9 b_2 $end
    $var wire 1 ;10 b_0 $end
    $var wire 1 ;11 a_8 $end
    $var wire 1 ;12 a_9 $end
    $var wire 1 ;13 a_4 $end
    $var wire 1 ;14 a_3 $end
    $var wire 1 ;15 b_4 $end
    $var wire 1 ;16 c_7 $end
    $var wire 1 ;17 d_7 $end
    $var wire 1 ;18 c_2 $end
    $var wire 1 ;19 d_0 $end
    $var wire 1 ;20 d_3 $end
    $var wire 1 ;21 d_4 $end
    $var wire 1 ;22 c_0 $end
    $var wire 1 ;23 c_1 $end
    $var wire 1 ;24 d_1 $end
    $var wire 1 ;25 d_2 $end
    $var wire 1 ;26 c_8 $end
    $var wire 1 ;27 d_9 $end
    $var wire 1 ;28 d_8 $end
    $var wire 1 ;29 c_5 $end
    $var wire 1 ;30 d_5 $end
$upscope $end
$upscope $end
$enddefinitions $end
#0
$dumpvars
1;0
0;1
0;2
0;3
0;4
0;5
0;6
0;7
0;8
0;9
0;10
0;11
0;12
0;13
0;14
0;15
0;16
0;17
0;18
0;19
0;20
0;21
0;22
0;23
0;24
0;25
0;26
0;27
0;28
0;29
0;30
$end
#1
0;0
1;1
1;3
1;4
1;5
1;6
1;9
1;10
1;12
1;14
1;15
#2
1;0
1;22
#3
0;0
0;1
0;3
0;4
0;5
1;8
0;10
0;12
1;13
0;22
1;23
#4
1;0
0;23
1;24
#5
0;0
1;1
1;5
1;7
0;8
1;11
1;12
0;15
1;18
1;29
#6
1;0
0;18
1;20
0;24
1;25
0;29
1;30
#7
0;0
1;4
0;5
0;7
1;8
0;9
0;12
0;13
0;14
1;15
#8
1;0
1;18
0;20
1;23
0;25
1;27
1;29
0;30
#9
0;0
1;2
1;9
1;10
0;11
1;12
1;14
0;15
0;18
1;22
#10
1;0
1;19
1;24
0;27
1;30
#11
0;0
0;2
0;8
0;9
0;10
1;13
0;14
1;15
0;22
0;23
#12
1;0
0;19
0;24
0;29
#13
0;0
0;1
0;4
1;5
0;6
1;10
1;11
0;12
0;13
1;22
#14
1;0
1;19
0;22
0;30
#15
0;0
1;1
1;2
1;4
0;5
1;8
0;10
1;12
1;13
#16
1;0
0;19
1;23
1;29
#17
0;0
0;1
1;3
1;5
1;6
1;7
1;9
1;10
0;12
1;14
0;15
1;22
1;26
0;29
#18
1;0
1;16
1;18
1;19
1;24
1;28
#19
0;0
1;1
0;2
0;5
0;6
0;8
0;13
0;14
1;15
0;23
1;29
#20
1;0
1;17
1;20
1;21
0;24
0;29
1;30
#21
0;0
0;1
1;2
0;3
1;6
0;7
1;8
0;16
1;23
1;25
0;26
#22
1;0
0;17
0;18
0;21
1;24
1;27
0;28
0;30
#23
0;0
0;4
0;6
0;9
1;12
1;13
1;14
0;15
#24
1;0
0;20
0;22
0;23
0;25
#25
0;0
1;3
1;5
1;6
1;26
#26
1;0
1;18
0;19
0;24
0;27
1;28
#27
0;0
0;6
1;9
0;11
0;12
0;13
0;14
0;18
#28
1;0
0;26
#29
0;0
0;2
1;4
0;9
1;12
1;14
#30
1;0
1;22
1;23
0;28
#31
0;0
1;2
0;4
0;5
1;6
0;8
1;11
0;14
1;15
1;18
0;23
#32
1;0
1;19
1;20
0;22
1;26
#33
0;0
0;2
1;4
0;6
1;9
0;10
1;13
0;15
#34
1;0
0;18
0;19
1;25
1;27
1;28
#35
0;0
1;1
0;3
0;4
1;7
0;9
0;11
0;12
0;26
#36
1;0
0;20
0;25
0;28
#37
0;0
0;1
1;4
1;5
0;7
1;8
1;9
1;10
1;11
#38
1;0
1;22
1;23
0;27
#39
0;0
1;1
1;2
1;3
0;5
1;6
1;7
0;9
0;10
0;13
1;16
0;22
1;26
1;29
#40
1;0
0;16
1;17
1;21
1;24
1;28
1;30
#41
0;0
0;1
0;2
0;3
0;4
0;8
1;9
1;15
0;23
0;26
0;29
#42
1;0
0;17
0;21
0;24
0;28
0;30
#43
0;0
1;1
1;5
0;6
1;8
0;9
1;10
1;12
1;13
1;14
0;15
#44
1;0
1;16
1;18
1;29
#45
0;0
1;2
1;4
0;8
0;10
0;11
0;12
0;13
0;18
#46
1;0
0;16
1;17
1;21
0;29
1;30
#47
0;0
0;2
0;4
0;5
0;7
1;8
1;9
1;11
0;14
1;15
1;18
1;23
#48
1;0
0;17
1;20
0;21
0;23
1;24
1;29
0;30
#49
0;0
0;1
1;5
1;6
1;7
0;8
0;9
1;10
0;11
1;13
1;14
0;18
1;25
0;29
#50
1;0
1;16
0;20
0;24
0;25
1;27
#51
0;0
1;3
0;5
0;7
1;8
1;9
1;11
0;15
0;16
1;18
#52
1;0
0;18
1;20
1;25
1;26
0;27
#53
0;0
1;2
0;3
0;6
0;9
0;10
0;11
1;12
0;13
0;14
0;26
#54
1;0
0;20
0;25
1;27
#55
0;0
0;2
1;4
1;6
1;7
1;15
#56
1;0
1;23
0;27
#57
0;0
1;5
0;6
1;9
1;10
1;11
0;12
1;14
0;15
1;22
#58
1;0
1;16
1;18
1;19
1;24
#59
0;0
1;2
0;7
0;8
0;10
0;11
1;13
0;14
0;16
0;18
0;22
0;23
#60
1;0
0;19
0;24
#61
0;0
0;2
1;6
1;7
0;9
1;10
1;12
1;15
1;22
#62
1;0
1;16
1;19
#63
0;0
1;1
1;2
0;5
1;9
1;14
#64
1;0
1;17
1;21
#65
0;0
0;2
1;5
0;9
1;11
0;12
0;14
0;15
1;18
#66
1;0
1;20
#67
0;0
0;1
1;2
1;3
0;4
0;5
0;7
1;9
1;12
1;15
0;16
1;25
1;26
#68
1;0
0;17
0;18
0;21
0;22
1;27
1;28
#69
0;0
0;6
1;8
0;9
0;10
0;12
0;13
0;15
#70
1;0
1;18
0;19
0;20
0;25
#71
0;0
0;2
0;3
1;7
0;8
1;10
0;11
1;12
1;14
1;15
0;18
0;26
#72
1;0
1;16
0;27
0;28
#73
0;0
1;1
1;2
1;6
0;7
1;13
0;14
0;16
#74
1;0
#75
0;0
0;2
1;3
1;4
0;6
0;10
1;11
0;12
0;13
1;14
#76
1;0
1;18
1;26
#77
0;0
1;2
0;4
1;5
1;6
1;7
1;9
1;10
1;12
1;13
0;14
1;22
#78
1;0
1;16
1;19
1;20
0;22
1;25
1;28
#79
0;0
0;1
0;6
0;7
1;8
0;9
0;10
1;14
0;15
0;16
#80
1;0
0;19
1;27
#81
0;0
1;4
1;6
0;8
1;9
1;10
0;12
0;13
0;14
#82
1;0
0;18
1;22
#83
0;0
1;1
0;6
1;7
1;8
1;12
1;16
1;23
#84
1;0
1;17
1;18
1;19
0;20
1;21
1;24
1;29
#85
0;0
0;1
0;4
0;5
0;9
0;10
0;11
0;12
1;14
0;18
0;22
0;25
0;29
#86
1;0
0;16
0;19
0;23
0;26
0;27
#87
0;0
0;2
1;4
1;5
0;7
0;8
1;9
1;10
1;11
1;12
1;15
1;18
#88
1;0
0;17
0;18
1;20
0;21
1;22
0;24
1;25
1;26
0;28
#89
0;0
1;1
0;3
0;4
0;5
1;6
1;7
1;8
0;9
0;12
1;13
1;16
1;23
0;26
#90
1;0
1;17
1;19
0;20
1;21
0;22
0;23
1;24
0;25
1;27
1;29
#91
0;0
0;1
1;2
1;4
0;7
0;8
0;11
1;12
0;13
0;14
0;16
0;29
#92
1;0
0;17
0;19
0;21
1;22
0;24
0;27
#93
0;0
1;3
0;4
1;7
1;8
0;15
1;16
1;23
#94
1;0
1;17
1;19
1;21
0;22
0;23
1;24
#95
0;0
1;1
0;2
1;4
1;5
1;11
0;12
1;14
1;29
#96
1;0
1;18
0;19
1;22
1;23
0;24
1;26
1;30
#97
0;0
1;2
0;3
0;4
0;5
0;6
1;9
1;12
1;15
0;26
#98
1;0
0;18
1;19
1;20
0;22
0;23
1;24
1;25
#99
0;0
0;1
0;2
1;3
1;4
1;6
0;9
0;11
1;13
0;14
1;26
0;29
#100
1;0
0;19
0;20
1;22
1;23
0;24
0;25
0;26
1;27
1;28
0;30
#101
0;0
1;1
0;3
0;6
0;8
0;10
1;11
0;13
0;15
0;22
0;23
1;29
#102
1;0
0;16
0;27
0;28
0;29
1;30
#103
0;0
0;7
1;8
1;9
0;11
1;14
1;23
#104
1;0
0;17
0;21
1;24
1;29
0;30
#105
0;0
0;9
0;12
1;13
0;14
#106
1;0
1;30
#107
0;0
1;2
0;8
1;9
1;10
1;11
1;12
1;14
1;22
0;23
#108
1;0
1;18
1;19
0;24
0;29
#109
0;0
0;2
1;3
1;5
1;6
1;7
1;8
0;9
0;10
0;12
0;13
0;14
1;16
0;22
1;23
1;26
#110
1;0
0;16
1;17
0;19
1;20
1;21
1;24
1;28
1;29
0;30
#111
0;0
0;1
1;2
0;3
0;4
0;6
1;9
0;11
1;14
1;15
0;18
1;25
0;26
0;29
#112
1;0
0;17
0;20
0;21
0;23
0;25
1;27
0;28
#113
0;0
0;2
1;3
1;4
0;7
0;9
1;10
1;11
1;12
1;13
0;15
1;18
#114
1;0
0;18
1;20
1;22
1;23
0;24
1;25
1;26
0;27
#115
0;0
1;2
0;4
0;8
1;9
0;12
1;15
0;23
#116
1;0
1;19
0;20
0;22
0;25
1;27
1;28
#117
0;0
0;3
1;4
1;6
1;8
0;9
0;10
0;11
1;12
0;14
0;15
0;26
#118
1;0
0;19
1;23
0;27
0;28
#119
0;0
1;1
0;2
1;3
0;5
1;7
0;8
1;9
1;10
0;12
1;14
1;15
1;22
0;23
1;29
#120
1;0
1;16
1;19
0;29
1;30
#121
0;0
0;1
0;4
1;5
0;6
0;7
1;8
0;10
1;11
0;13
0;15
0;16
1;18
0;22
1;23
#122
1;0
0;18
0;19
1;20
0;23
1;24
1;25
1;26
0;30
#123
0;0
0;3
1;7
0;9
0;11
1;13
0;26
#124
1;0
0;20
0;24
0;25
1;27
#125
0;0
1;2
1;4
0;5
1;6
0;8
1;9
1;10
0;14
1;15
#126
1;0
1;16
1;22
0;27
#127
0;0
1;1
1;5
0;9
0;13
1;14
#128
1;0
1;17
1;19
1;21
#129
0;0
0;1
0;2
1;3
0;4
1;8
1;9
0;10
1;12
1;13
0;15
0;22
1;23
#130
1;0
0;16
0;19
0;23
1;24
#131
0;0
0;6
0;7
0;8
0;9
1;11
0;12
1;18
#132
1;0
0;17
0;18
1;20
0;21
0;24
1;25
1;26
#133
0;0
1;2
0;3
1;4
1;6
1;8
1;10
0;14
1;15
0;26
#134
1;0
1;18
0;20
1;22
1;23
0;25
1;27
#135
0;0
1;1
1;3
0;4
0;6
0;10
0;11
0;13
1;14
0;18
0;22
1;26
1;29
#136
1;0
0;23
1;24
0;26
0;27
1;28
1;30
#137
0;0
0;1
1;9
1;11
1;12
1;13
0;14
1;18
0;29
#138
1;0
1;20
0;24
1;26
0;28
0;30
#139
0;0
0;3
1;10
1;14
0;15
0;26
#140
1;0
1;25
1;27
#141
0;0
0;2
1;4
0;5
1;6
0;8
0;9
0;13
0;14
1;15
#142
1;0
0;18
1;22
#143
0;0
0;4
1;8
0;10
0;11
1;13
1;14
0;22
1;23
#144
1;0
0;20
0;23
1;24
#145
0;0
1;2
1;3
1;5
1;7
1;10
#146
1;0
1;16
0;24
0;25
0;27
#147
0;0
1;4
0;6
0;7
0;8
1;9
0;13
0;15
0;16
#148
1;0
1;22
#149
0;0
1;1
0;4
0;10
0;12
1;13
1;15
0;22
#150
1;0
#151
0;0
0;1
0;3
1;4
0;5
1;6
1;7
1;8
1;12
0;14
#152
1;0
1;23
#153
0;0
1;1
0;2
0;6
0;8
0;9
1;10
0;12
1;14
1;22
0;23
1;29
#154
1;0
1;16
1;19
0;29
1;30
#155
0;0
0;1
1;2
1;3
0;4
1;5
1;6
1;11
0;13
0;14
1;18
#156
1;0
1;17
1;20
1;21
0;22
1;25
1;26
0;30
#157
0;0
1;1
0;2
0;7
0;10
1;13
0;15
0;16
#158
1;0
0;17
0;18
0;19
0;21
1;27
1;28
#159
0;0
0;1
1;4
0;5
0;6
1;7
1;9
1;10
0;13
1;14
#160
1;0
1;16
0;20
1;22
#161
0;0
1;1
1;2
0;3
0;4
1;5
1;6
1;8
0;9
1;12
0;14
1;23
0;25
0;26
#162
1;0
1;17
1;19
1;21
0;22
0;23
1;24
0;27
0;28
1;29
#163
0;0
0;1
1;4
0;5
0;7
1;9
0;12
1;13
1;14
1;15
0;16
0;29
#164
1;0
0;17
1;18
0;19
0;21
1;22
1;23
0;24
#165
0;0
1;1
0;2
0;4
1;7
0;9
0;15
1;16
1;29
#166
1;0
1;17
0;18
1;19
1;20
1;21
0;22
0;23
1;24
1;30
#167
0;0
1;2
1;3
1;4
0;6
0;7
0;8
1;9
0;14
1;15
0;16
1;26
#168
1;0
0;17
1;18
0;19
0;20
0;21
1;22
0;24
1;27
1;28
0;29
#169
0;0
0;2
1;6
1;7
1;8
1;16
1;23
#170
1;0
1;17
1;19
1;20
1;21
1;24
1;25
0;27
1;29
0;30
#171
0;0
0;1
1;2
0;3
0;6
0;11
0;18
0;26
0;29
#172
1;0
0;20
0;25
1;27
0;28
#173
0;0
1;1
1;3
0;4
1;6
0;7
0;9
1;11
1;12
0;16
1;29
#174
1;0
0;17
0;21
0;22
0;23
1;26
0;27
1;30
#175
0;0
0;1
0;2
0;3
0;11
0;12
0;13
0;15
0;26
0;29
#176
1;0
0;19
0;24
0;30
#177
0;0
1;1
1;2
1;3
1;5
0;6
1;7
1;9
1;13
1;14
1;15
1;16
1;29
#178
1;0
1;17
1;21
1;30
#179
0;0
0;1
1;4
1;6
0;7
0;8
0;10
1;11
1;12
0;13
0;16
1;18
0;29
#180
1;0
0;17
0;18
1;20
0;21
1;25
1;26
0;30
#181
0;0
1;1
0;2
0;3
0;4
0;5
0;6
1;8
0;12
0;14
1;23
0;26
#182
1;0
1;18
0;20
0;23
1;24
0;25
1;27
1;29
#183
0;0
1;3
1;4
1;5
0;9
1;10
1;13
1;26
#184
1;0
1;20
1;22
1;23
0;24
1;25
0;27
1;28
1;30
#185
0;0
0;1
1;2
0;3
1;7
0;8
0;10
0;11
1;12
0;13
1;16
0;18
0;22
0;23
0;26
0;29
#186
1;0
0;16
1;17
0;20
1;21
0;25
1;27
0;28
0;30
#187
0;0
0;2
1;3
1;6
1;8
1;11
0;12
0;15
1;23
#188
1;0
0;17
0;21
1;24
1;26
0;27
#189
0;0
1;1
0;6
0;7
0;8
1;13
1;14
1;15
0;23
1;29
#190
1;0
1;18
0;24
1;28
0;29
1;30
#191
0;0
0;1
1;2
0;5
1;9
1;10
0;11
0;14
0;15
0;18
1;22
#192
1;0
1;19
0;26
0;30
#193
0;0
1;1
0;4
1;5
1;8
1;11
1;15
1;23
#194
1;0
0;22
0;23
1;24
1;26
0;28
1;29
#195
0;0
0;1
0;2
1;4
1;6
1;7
0;8
1;12
1;16
0;29
#196
1;0
1;17
0;19
1;21
1;22
0;24
1;28
#197
0;0
1;2
0;6
1;8
0;10
0;11
0;12
0;13
0;15
0;22
1;23
#198
1;0
0;16
1;24
0;26
#199
0;0
0;2
0;3
0;5
1;6
0;7
1;13
#200
1;0
0;17
0;21
0;28
#201
0;0
1;1
1;3
0;4
1;5
0;6
0;8
0;9
1;10
1;11
1;14
1;22
0;23
1;29
#202
1;0
1;18
1;19
0;22
0;24
1;26
0;29
1;30
#203
0;0
1;2
1;4
0;5
1;6
1;8
0;10
1;12
0;13
0;14
1;15
#204
1;0
0;19
1;20
1;23
1;25
1;28
1;29
0;30
#205
0;0
0;4
1;5
0;6
1;7
1;10
0;11
1;13
1;14
0;18
1;22
#206
1;0
1;16
1;19
0;20
0;22
0;23
1;24
0;25
0;26
1;27
1;30
#207
0;0
0;1
0;2
0;3
1;4
1;6
0;7
0;8
0;10
0;14
0;16
0;29
#208
1;0
0;19
0;24
0;27
0;28
0;30
#209
0;0
1;2
1;3
0;5
0;6
1;7
1;8
0;12
1;14
0;15
1;23
#210
1;0
1;24
#211
0;0
0;3
0;7
0;8
1;11
0;14
1;18
0;23
#212
1;0
1;20
0;24
#213
0;0
1;9
0;11
1;12
0;13
1;14
0;18
#214
1;0
0;20
1;27
#215
0;0
0;2
1;5
1;7
1;8
1;10
1;11
0;12
1;13
0;14
1;18
1;22
1;23
#216
1;0
1;16
1;19
1;20
1;24
1;25
0;27
#217
0;0
1;1
1;3
0;5
0;8
0;9
0;10
0;11
1;15
0;18
0;22
0;23
1;26
1;29
#218
1;0
0;16
1;17
0;19
0;20
1;21
0;24
0;25
0;26
1;27
1;28
0;29
1;30
#219
0;0
0;1
1;2
0;4
0;7
1;8
1;9
1;10
1;14
0;15
1;22
1;23
#220
1;0
0;17
1;19
0;21
0;22
0;23
1;24
0;27
0;28
0;30
#221
0;0
0;2
1;4
1;6
1;7
1;12
1;15
1;16
#222
1;0
1;17
0;19
1;21
1;22
1;23
0;24
#223
0;0
1;1
1;2
0;3
0;4
1;5
0;6
0;8
0;10
1;11
0;15
1;18
0;22
0;23
1;29
#224
1;0
0;16
0;18
1;20
1;25
0;29
1;30
#225
0;0
1;3
0;5
1;6
0;9
0;12
1;26
#226
1;0
0;17
0;20
0;21
0;25
1;27
1;28
0;30
#227
0;0
0;2
1;4
0;7
1;8
1;9
1;10
0;11
1;15
#228
1;0
1;22
1;23
0;26
0;27
1;29
#229
0;0
0;3
0;4
1;5
1;7
0;8
0;10
1;11
0;13
0;14
1;16
1;18
0;22
0;23
#230
1;0
0;16
1;17
1;20
1;21
0;28
0;29
1;30
#231
0;0
0;1
1;2
1;3
0;6
1;8
0;11
1;12
1;14
0;15
0;18
1;25
1;26
#232
1;0
0;17
0;20
0;21
0;25
0;26
1;27
1;28
0;30
#233
0;0
0;9
1;11
1;13
1;18
#234
1;0
0;18
1;20
1;25
1;26
0;27
0;28
#235
0;0
0;2
0;5
0;7
1;9
1;10
0;12
1;15
#236
1;0
0;20
0;25
1;27
1;28
#237
0;0
1;1
1;2
0;3
0;11
0;13
0;26
1;29
#238
1;0
0;27
0;28
1;30
#239
0;0
0;1
1;3
1;5
1;6
0;9
0;10
1;11
1;12
0;14
1;18
0;29
#240
1;0
1;20
1;26
0;30
#241
0;0
1;1
0;3
0;5
0;6
0;8
1;10
0;12
1;13
1;25
0;26
1;29
#242
1;0
0;18
1;27
0;29
1;30
#243
0;0
0;1
0;2
1;7
1;8
1;9
0;10
1;14
0;15
1;16
#244
1;0
0;16
1;17
0;20
1;21
0;25
0;30
#245
0;0
1;4
0;8
0;9
1;10
0;14
#246
1;0
1;16
0;17
0;21
1;22
0;27
#247
0;0
1;2
1;5
1;6
0;10
0;11
1;12
0;22
#248
1;0
0;16
1;17
1;21
#249
0;0
1;1
0;2
1;8
1;9
0;13
1;15
1;23
#250
1;0
0;17
0;21
1;24
1;29
#251
0;0
0;1
0;4
0;8
0;9
1;10
1;11
0;12
0;15
1;22
0;23
0;29
#252
1;0
1;16
1;19
0;22
0;24
#253
0;0
1;2
1;3
1;4
0;6
0;7
1;9
0;11
0;16
1;26
#254
1;0
0;19
1;22
0;26
1;28
#255
0;0
0;2
0;3
0;4
0;9
0;10
1;12
1;15
0;22
#256
1;0
0;28
#257
0;0
1;1
1;2
1;3
0;5
1;11
#258
1;0
1;26
#259
0;0
0;1
0;2
0;3
1;6
1;9
1;10
0;11
1;14
0;15
0;26
#260
1;0
#261
0;0
1;3
1;4
1;7
0;12
0;14
1;16
#262
1;0
1;17
1;21
1;22
#263
0;0
0;3
0;4
1;5
1;8
0;10
1;14
1;15
0;22
1;23
#264
1;0
0;16
0;23
1;24
#265
0;0
1;2
1;3
1;4
0;5
0;7
1;10
1;13
0;15
#266
1;0
0;17
0;21
1;22
1;23
0;24
#267
0;0
0;4
1;5
0;6
1;7
0;8
0;14
1;15
1;16
0;23
#268
1;0
1;17
1;19
1;21
0;22
#269
0;0
0;2
0;3
1;4
0;7
1;8
1;12
0;15
0;16
#270
1;0
0;17
0;19
0;21
1;22
1;23
#271
0;0
1;3
0;5
1;7
0;8
0;9
0;10
1;11
0;13
1;15
1;16
0;22
0;23
#272
1;0
0;16
1;17
1;21
1;26
#273
0;0
1;1
0;3
1;5
1;6
1;8
1;9
0;11
1;23
0;26
#274
1;0
0;17
0;21
1;24
1;29
#275
0;0
0;1
1;3
0;4
0;6
0;7
0;8
0;9
1;10
1;14
1;22
0;23
0;29
#276
1;0
1;19
0;22
0;24
#277
0;0
1;1
1;4
0;5
1;7
1;8
1;9
0;10
1;13
0;14
1;16
#278
1;0
0;16
1;17
0;19
1;21
1;23
1;29
#279
0;0
0;4
0;7
0;9
0;15
#280
1;0
0;17
0;21
0;23
1;24
1;30
#281
0;0
0;1
1;2
0;3
1;4
1;5
1;7
0;8
0;12
0;13
1;14
0;29
#282
1;0
0;24
0;30
#283
0;0
1;1
0;2
1;6
1;8
1;13
1;23
#284
1;0
1;24
1;29
#285
0;0
1;3
0;6
0;7
1;11
0;13
1;18
#286
1;0
0;18
1;20
1;26
1;30
#287
0;0
0;1
1;2
0;3
0;4
0;5
1;6
1;7
1;9
1;10
1;12
1;13
0;14
1;22
1;25
0;26
0;29
#288
1;0
1;16
1;18
1;19
0;20
0;22
0;23
0;25
1;27
0;30
#289
0;0
1;1
1;4
1;5
0;6
0;10
0;12
0;13
1;14
1;29
#290
1;0
0;16
1;17
0;18
0;19
1;20
1;21
1;23
0;24
1;25
0;27
1;30
#291
0;0
0;1
1;3
1;6
0;7
0;9
1;10
0;11
0;14
1;22
1;26
0;29
#292
1;0
0;17
1;19
0;20
0;21
1;24
0;25
0;26
1;27
1;28
0;30
#293
0;0
1;1
0;3
0;5
1;7
0;8
0;10
1;12
1;13
1;16
0;22
0;23
1;29
#294
1;0
0;16
1;17
0;19
1;21
0;24
0;27
0;28
0;29
1;30
#295
0;0
1;3
0;4
0;6
1;9
1;10
0;12
1;22
#296
1;0
1;16
0;17
1;19
0;21
0;22
0;30
#297
0;0
0;1
1;5
0;9
1;11
0;13
#298
1;0
1;17
0;19
1;21
1;26
#299
0;0
1;4
1;6
1;13
1;14
#300
1;0
1;18
1;22
1;28
#301
0;0
1;1
0;3
0;4
0;7
1;9
0;10
0;13
0;16
0;22
0;26
#302
1;0
0;17
0;18
1;20
0;21
0;28
#303
0;0
1;3
0;5
0;6
1;8
0;9
0;11
1;15
1;26
#304
1;0
0;20
0;26
1;27
1;28
1;29
#305
0;0
0;1
0;2
0;3
1;5
1;6
1;7
1;9
1;10
1;13
0;14
0;29
#306
1;0
1;16
0;27
0;28
#307
0;0
1;2
1;4
0;5
0;6
0;7
0;8
0;10
0;13
0;16
#308
1;0
#309
0;0
1;1
0;2
1;5
1;6
0;9
1;10
1;11
1;13
1;14
1;22
#310
1;0
1;18
1;19
#311
0;0
0;1
1;2
0;4
0;5
0;6
0;10
0;13
0;15
0;22
#312
1;0
0;18
0;19
1;20
#313
0;0
1;1
1;3
1;4
1;8
1;10
0;11
1;13
0;14
1;15
1;25
1;26
#314
1;0
0;20
1;22
1;23
0;25
0;26
1;27
1;28
1;29
#315
0;0
0;1
0;2
0;3
1;5
1;7
1;9
0;10
1;11
0;13
1;14
1;16
0;22
0;29
#316
1;0
0;16
1;17
1;18
1;21
1;24
0;27
0;28
#317
0;0
1;1
1;2
0;4
0;5
1;6
0;7
0;9
0;11
0;15
0;18
1;29
#318
1;0
0;17
0;21
0;23
1;30
#319
0;0
0;2
1;3
1;4
1;5
0;6
0;8
1;9
1;10
1;12
1;13
#320
1;0
1;22
0;24
0;29
#321
0;0
0;1
0;5
0;10
0;13
0;22
#322
1;0
0;30
#323
0;0
1;1
0;3
0;4
1;6
0;9
1;10
1;11
0;12
0;14
1;15
1;18
1;22
#324
1;0
1;19
1;20
0;22
#325
0;0
1;3
1;5
1;8
1;9
1;26
#326
1;0
0;18
0;19
1;25
1;27
1;28
1;29
#327
0;0
1;2
1;4
1;7
0;11
1;13
1;14
0;15
1;16
#328
1;0
1;17
0;20
1;21
1;22
1;23
0;25
0;26
1;30
#329
0;0
0;2
0;4
0;5
0;6
0;7
0;9
1;12
1;15
0;16
#330
1;0
0;17
1;19
0;21
0;22
0;23
1;24
0;27
0;28
#331
0;0
0;1
0;3
1;5
1;6
1;7
0;8
1;11
0;15
1;16
1;18
0;29
#332
1;0
1;17
0;18
0;19
1;20
1;21
0;24
1;25
0;30
#333
0;0
1;4
0;5
0;6
1;9
0;11
0;12
1;15
#334
1;0
0;20
1;22
0;25
1;27
#335
0;0
1;3
0;7
1;8
0;13
0;14
0;16
1;23
#336
1;0
0;17
1;19
0;21
1;24
0;27
#337
0;0
0;4
1;5
0;8
0;9
0;10
1;14
0;15
0;22
0;23
#338
1;0
0;19
0;24
#339
0;0
1;1
1;2
0;3
0;5
1;8
1;9
1;10
0;14
#340
1;0
1;29
#341
0;0
0;2
1;4
1;6
1;7
0;8
1;12
1;16
#342
1;0
1;17
1;21
1;22
0;29
1;30
#343
0;0
0;1
1;2
0;4
1;5
0;6
0;7
1;11
1;13
1;14
1;15
0;16
#344
1;0
0;17
1;18
1;19
0;21
0;22
0;30
#345
0;0
1;1
1;3
1;4
0;5
1;6
1;8
0;9
0;10
0;11
0;12
0;14
0;18
1;26
#346
1;0
0;19
1;23
0;26
1;28
1;29
#347
0;0
0;1
0;2
0;3
0;4
0;6
0;8
1;12
1;14
0;23
0;29
#348
1;0
0;28
#349
0;0
1;1
1;2
1;8
1;9
1;11
0;13
0;14
0;15
1;18
#350
1;0
1;20
1;25
1;29
#351
0;0
0;2
1;6
1;13
1;15
#352
1;0
0;18
1;27
1;30
#353
0;0
0;1
1;2
0;6
0;8
1;10
0;11
0;12
0;29
#354
1;0
0;20
0;25
0;30
#355
0;0
1;1
0;2
1;3
1;4
0;10
1;14
0;15
#356
1;0
0;27
#357
0;0
0;1
0;3
0;4
1;7
1;8
0;9
1;23
#358
1;0
0;23
1;24
#359
0;0
1;4
0;8
0;13
0;14
#360
1;0
0;24
#361
0;0
1;1
1;5
1;9
1;10
1;13
1;14
1;15
1;22
#362
1;0
1;16
1;19
#363
0;0
1;2
0;4
0;7
0;9
1;11
1;12
0;16
1;18
#364
1;0
0;18
1;20
0;22
1;25
#365
0;0
0;2
1;3
1;4
0;14
0;15
1;26
#366
1;0
1;18
0;19
0;20
1;22
0;25
1;27
1;28
#367
0;0
0;3
0;5
1;6
1;7
1;9
0;12
0;13
1;14
1;16
0;26
#368
1;0
1;17
0;18
1;19
1;20
1;21
1;25
0;27
0;28
#369
0;0
0;6
0;9
0;10
1;13
0;22
#370
1;0
0;16
0;19
0;20
0;25
1;27
#371
0;0
1;5
0;7
1;9
0;13
0;14
1;15
#372
1;0
0;17
0;21
0;27
#373
0;0
0;1
1;2
0;5
1;7
0;9
1;10
0;11
1;12
1;13
1;14
0;15
1;22
#374
1;0
1;16
1;19
#375
0;0
0;2
0;4
1;6
1;9
0;10
0;13
1;15
0;22
#376
1;0
0;16
1;17
0;19
1;21
#377
0;0
1;2
0;7
1;8
1;11
1;13
0;14
0;15
1;18
#378
1;0
0;17
1;20
0;21
#379
0;0
0;2
1;5
0;6
0;8
1;10
0;11
0;13
0;18
#380
1;0
0;20
1;27
#381
0;0
1;1
0;5
1;7
0;9
0;10
1;13
1;15
1;16
#382
1;0
0;16
1;17
1;21
0;27
#383
0;0
1;4
1;6
0;7
1;9
1;10
0;13
#384
1;0
0;17
0;21
1;22
#385
0;0
0;6
1;7
1;8
1;11
1;16
1;23
#386
1;0
1;17
1;19
1;21
1;24
1;29
#387
0;0
0;1
1;2
1;3
0;4
0;8
0;9
0;10
0;12
1;13
0;22
0;23
1;26
0;29
#388
1;0
0;16
0;19
0;24
1;28
#389
0;0
1;6
1;8
1;12
1;14
#390
1;0
0;17
1;18
0;21
#391
0;0
1;1
0;3
1;5
0;6
0;7
0;8
1;9
1;10
0;11
0;12
0;15
0;18
0;26
1;29
#392
1;0
0;28
0;29
1;30
#393
0;0
0;1
0;2
1;3
1;4
0;5
1;6
1;8
0;10
1;11
1;15
1;18
#394
1;0
0;18
1;20
1;23
1;25
1;26
0;30
#395
0;0
0;4
0;6
1;7
0;11
1;12
0;13
#396
1;0
0;20
0;23
1;24
0;25
0;26
1;27
1;28
#397
0;0
1;1
1;5
1;6
0;7
0;8
1;10
0;12
1;13
0;14
1;29
#398
1;0
0;24
0;27
0;28
0;29
1;30
#399
0;0
0;1
1;4
0;6
1;12
0;13
0;15
#400
1;0
1;22
0;30
#401
0;0
1;1
1;2
0;3
0;4
0;5
0;9
1;11
0;12
1;13
#402
1;0
1;19
0;22
#403
0;0
0;2
1;3
0;13
1;14
1;26
#404
1;0
1;18
0;19
1;28
#405
0;0
1;2
0;3
1;4
1;5
1;7
1;8
0;11
1;12
0;14
1;15
1;16
0;18
0;26
#406
1;0
1;17
1;21
1;22
1;23
0;28
1;29
#407
0;0
0;1
1;3
1;6
0;8
1;9
1;11
0;12
1;13
0;15
0;23
0;29
#408
1;0
1;19
1;26
#409
0;0
0;4
0;5
0;6
0;7
0;9
0;10
1;14
0;16
0;22
#410
1;0
0;17
1;18
0;19
0;21
1;28
#411
0;0
0;2
1;4
1;5
1;6
1;7
1;8
1;9
0;11
0;14
0;18
#412
1;0
1;23
0;26
#413
0;0
1;1
0;4
0;5
0;6
0;7
0;8
0;9
1;12
1;14
1;15
0;23
1;29
