tool/syntetic_gen/hif_sim/injected/traces/fault_27.vcd
$date
    Feb 04, 2025 08:39:30
$end
$version
    Tracer 3.0.0 - By Enrico Fraccaroli <enry.frak@gmail.com> --- 2022/02/15
$end
$timescale
    1ns
$end
$scope module test_bench $end
$scope module test_ $end
    $var wire 1 ;0 clock $end
    $var wire 1 ;1 b_1 $end
    $var wire 1 ;2 b_3 $end
    $var wire 1 ;3 a_3 $end
    $var wire 1 ;4 a_1 $end
    $var wire 1 ;5 a_2 $end
    $var wire 1 ;6 b_2 $end
    $var wire 1 ;7 c_1 $end
    $var wire 1 ;8 c_2 $end
    $var wire 1 ;9 c_3 $end
$upscope $end
$upscope $end
$enddefinitions $end
#0
$dumpvars
1;0
0;1
0;2
0;3
0;4
0;5
0;6
0;7
0;8
0;9
$end
#1
0;0
1;1
1;3
1;4
1;5
1;6
#2
1;0
1;8
#3
0;0
0;1
0;5
#4
1;0
0;8
#5
0;0
1;2
0;4
0;6
#6
1;0
1;9
#7
0;0
0;2
1;5
1;6
#8
1;0
1;8
0;9
#9
0;0
0;3
1;4
#10
1;0
0;8
#11
0;0
1;1
0;4
#12
1;0
1;7
1;8
#13
0;0
1;3
#14
1;0
0;7
0;8
#15
0;0
1;2
0;3
1;4
0;5
0;6
#16
1;0
1;9
#17
0;0
0;2
1;3
0;4
1;5
#18
1;0
1;7
0;9
#19
0;0
0;1
1;2
0;3
0;5
1;6
#20
1;0
0;7
1;8
1;9
#21
0;0
1;1
1;4
#22
1;0
0;8
0;9
#23
0;0
0;1
1;3
#24
1;0
1;8
#25
0;0
0;3
0;6
#26
1;0
0;8
1;9
#27
0;0
1;1
0;2
1;3
0;4
#28
1;0
1;7
0;9
#29
0;0
0;1
1;4
1;6
#30
1;0
0;7
1;8
#31
0;0
0;3
0;4
1;5
0;6
#32
1;0
0;8
#33
0;0
1;4
#34
1;0
#35
0;0
1;3
#36
1;0
#37
0;0
1;1
0;3
0;4
#38
1;0
1;7
#39
0;0
0;1
1;2
1;3
1;4
0;5
1;6
#40
1;0
0;7
1;8
#41
0;0
1;5
#42
1;0
0;8
1;9
#43
0;0
1;1
0;6
#44
1;0
1;7
#45
0;0
0;3
0;5
1;6
#46
1;0
1;8
#47
0;0
0;2
#48
1;0
0;8
0;9
#49
0;0
1;2
0;4
#50
1;0
1;8
#51
0;0
0;1
1;4
#52
1;0
0;7
0;8
#53
0;0
1;3
1;5
0;6
#54
1;0
#55
0;0
0;2
0;4
#56
1;0
#57
0;0
0;3
#58
1;0
#59
0;0
1;1
1;2
1;3
1;4
#60
1;0
#61
0;0
0;1
0;4
1;6
#62
1;0
1;8
1;9
#63
0;0
0;3
1;4
#64
1;0
0;8
#65
0;0
1;1
0;4
#66
1;0
1;7
1;8
0;9
#67
0;0
0;1
#68
1;0
0;7
0;8
#69
0;0
1;1
0;2
0;5
0;6
#70
1;0
#71
0;0
0;1
1;3
1;4
1;5
#72
1;0
#73
0;0
1;2
0;3
0;5
1;6
#74
1;0
1;8
1;9
#75
0;0
0;4
1;5
#76
1;0
0;8
0;9
#77
0;0
0;2
1;3
0;5
0;6
#78
1;0
#79
0;0
1;1
1;2
1;6
#80
1;0
1;8
1;9
#81
0;0
0;1
0;2
1;4
0;6
#82
1;0
0;8
0;9
#83
0;0
0;4
1;5
1;6
#84
1;0
1;8
#85
0;0
1;1
0;3
1;4
0;5
0;6
#86
1;0
0;8
#87
0;0
0;1
#88
1;0
#89
0;0
#90
1;0
#91
0;0
1;5
#92
1;0
#93
0;0
1;2
1;3
#94
1;0
#95
0;0
1;1
0;2
0;3
1;6
#96
1;0
1;7
1;8
#97
0;0
1;3
0;6
#98
1;0
0;8
#99
0;0
0;1
1;2
0;3
0;4
0;5
#100
1;0
0;7
1;9
#101
0;0
0;2
1;6
#102
1;0
1;8
0;9
#103
0;0
1;1
1;3
1;5
0;6
#104
1;0
0;8
#105
0;0
0;1
1;4
0;5
#106
1;0
#107
0;0
1;2
0;3
1;5
#108
1;0
1;9
#109
0;0
1;1
1;3
#110
1;0
1;7
0;9
#111
0;0
0;3
#112
1;0
1;9
#113
0;0
0;2
0;4
0;5
#114
1;0
0;9
#115
0;0
0;1
1;2
1;4
#116
1;0
0;7
#117
0;0
0;2
0;4
1;5
1;6
#118
1;0
1;8
#119
0;0
1;2
0;5
#120
1;0
0;8
#121
0;0
0;2
1;5
#122
1;0
1;8
#123
0;0
1;1
1;4
0;5
0;6
#124
1;0
0;8
#125
0;0
1;2
1;3
0;4
1;6
#126
1;0
1;7
1;8
#127
0;0
0;1
0;2
1;5
#128
1;0
0;7
0;8
#129
0;0
1;1
1;2
0;3
1;4
0;6
#130
1;0
1;9
#131
0;0
0;1
0;4
0;5
#132
1;0
0;9
#133
0;0
1;6
#134
1;0
1;8
#135
0;0
0;2
0;6
#136
1;0
0;8
#137
0;0
1;1
1;3
1;4
1;5
#138
1;0
#139
0;0
0;1
0;4
0;5
1;6
#140
1;0
1;8
#141
0;0
0;3
1;4
1;5
0;6
#142
1;0
0;8
#143
0;0
1;1
1;2
1;3
#144
1;0
1;7
#145
0;0
0;1
0;3
0;4
#146
1;0
0;7
1;9
#147
0;0
1;1
0;5
1;6
#148
1;0
1;8
0;9
#149
0;0
0;1
0;2
1;4
0;6
#150
1;0
0;8
#151
0;0
1;5
1;6
#152
1;0
1;8
#153
0;0
1;1
0;5
#154
1;0
1;7
0;8
#155
0;0
1;3
1;5
0;6
#156
1;0
#157
0;0
0;5
1;6
#158
1;0
1;8
#159
0;0
1;5
#160
1;0
0;8
#161
0;0
0;3
#162
1;0
1;8
#163
0;0
0;6
#164
1;0
0;8
#165
0;0
0;4
1;6
#166
1;0
1;8
#167
0;0
0;1
1;3
0;5
#168
1;0
0;7
0;8
#169
0;0
1;1
1;2
1;4
#170
1;0
1;8
1;9
#171
0;0
0;1
0;4
0;6
#172
1;0
0;8
#173
0;0
0;3
1;5
#174
1;0
#175
0;0
0;2
0;5
#176
1;0
0;9
#177
0;0
1;4
#178
1;0
#179
0;0
1;1
1;3
0;4
1;5
1;6
#180
1;0
1;7
1;8
#181
0;0
1;2
0;3
0;5
#182
1;0
0;7
0;8
1;9
#183
0;0
0;1
0;2
1;4
#184
1;0
1;8
0;9
#185
0;0
1;1
1;3
#186
1;0
1;7
0;8
#187
0;0
0;3
0;4
0;6
#188
1;0
#189
0;0
0;1
1;2
1;5
1;6
#190
1;0
0;7
1;8
#191
0;0
1;1
1;3
#192
1;0
0;8
#193
0;0
0;2
1;4
#194
1;0
1;8
#195
0;0
0;4
#196
1;0
1;7
0;8
#197
0;0
0;1
1;2
0;3
0;6
#198
1;0
0;7
1;9
#199
0;0
1;3
1;4
#200
1;0
0;9
#201
0;0
1;6
#202
1;0
1;8
1;9
#203
0;0
0;2
0;6
#204
1;0
0;8
0;9
#205
0;0
0;3
1;6
#206
1;0
1;8
#207
0;0
1;1
1;2
#208
1;0
1;7
0;8
#209
0;0
1;3
0;4
0;5
0;6
#210
1;0
#211
0;0
0;1
#212
1;0
0;7
1;9
#213
0;0
1;1
0;3
#214
1;0
#215
0;0
0;1
1;6
#216
1;0
1;8
0;9
#217
0;0
1;1
#218
1;0
0;8
#219
0;0
1;3
1;5
#220
1;0
1;8
#221
0;0
0;2
0;3
0;5
#222
1;0
0;8
#223
0;0
1;2
1;4
1;5
0;6
#224
1;0
#225
0;0
1;3
0;4
#226
1;0
1;7
#227
0;0
0;2
0;5
#228
1;0
0;7
#229
0;0
1;6
#230
1;0
1;8
#231
0;0
0;1
1;2
#232
1;0
0;8
1;9
#233
0;0
1;1
0;3
1;4
#234
1;0
1;8
#235
0;0
0;1
0;2
#236
1;0
0;8
0;9
#237
0;0
1;1
1;2
1;3
1;5
0;6
#238
1;0
1;7
#239
0;0
0;3
0;4
#240
1;0
1;9
#241
0;0
0;5
#242
1;0
0;7
0;9
#243
0;0
1;3
1;4
1;5
1;6
#244
1;0
1;8
#245
0;0
0;1
0;4
0;5
#246
1;0
0;8
1;9
#247
0;0
1;1
0;2
1;4
1;5
0;6
#248
1;0
0;9
#249
0;0
0;5
1;6
#250
1;0
1;7
1;8
#251
0;0
0;3
0;6
#252
1;0
0;8
#253
0;0
0;4
1;5
1;6
#254
1;0
1;8
#255
0;0
0;1
1;4
0;5
0;6
#256
1;0
0;7
0;8
#257
0;0
1;1
0;4
1;5
1;6
#258
1;0
1;7
1;8
#259
0;0
0;1
1;3
0;6
#260
1;0
0;7
0;8
#261
0;0
1;1
0;3
1;4
0;5
#262
1;0
#263
0;0
0;1
1;2
0;4
#264
1;0
#265
0;0
1;1
0;2
1;4
1;5
#266
1;0
#267
0;0
0;4
0;5
1;6
#268
1;0
1;7
1;8
#269
0;0
1;2
1;3
1;4
1;5
0;6
#270
1;0
0;7
0;8
#271
0;0
0;2
1;6
#272
1;0
1;7
1;8
#273
0;0
1;2
0;3
0;4
0;6
#274
1;0
0;8
1;9
#275
0;0
0;1
0;2
#276
1;0
0;7
0;9
#277
0;0
1;2
1;4
1;6
#278
1;0
1;8
#279
0;0
0;2
0;4
#280
1;0
0;8
#281
0;0
1;3
1;4
0;6
#282
1;0
#283
0;0
1;2
0;3
1;6
#284
1;0
1;8
1;9
#285
0;0
1;1
0;4
#286
1;0
1;7
0;8
0;9
#287
0;0
0;1
0;5
#288
1;0
0;7
1;8
#289
0;0
1;1
1;4
1;5
#290
1;0
0;8
#291
0;0
0;1
#292
1;0
1;8
#293
0;0
0;4
0;5
#294
1;0
0;8
#295
0;0
1;1
0;2
1;4
#296
1;0
1;8
#297
0;0
1;3
#298
1;0
1;7
0;8
#299
0;0
0;3
1;5
#300
1;0
1;8
#301
0;0
0;1
1;3
0;4
0;6
#302
1;0
0;7
0;8
#303
0;0
1;2
#304
1;0
1;9
#305
0;0
0;3
0;5
#306
1;0
#307
0;0
1;4
1;5
#308
1;0
0;9
#309
0;0
0;2
#310
1;0
#311
0;0
1;2
0;5
1;6
#312
1;0
1;8
#313
0;0
1;1
0;2
1;3
0;6
#314
1;0
1;7
0;8
#315
0;0
1;5
#316
1;0
#317
0;0
1;2
0;5
#318
1;0
1;9
#319
0;0
0;2
0;3
0;4
1;5
1;6
#320
1;0
1;8
0;9
#321
0;0
0;1
1;3
#322
1;0
0;7
0;8
#323
0;0
1;1
1;2
0;5
#324
1;0
1;8
1;9
#325
0;0
0;3
#326
1;0
0;8
#327
0;0
0;1
0;6
#328
1;0
0;9
#329
0;0
1;4
1;5
#330
1;0
#331
0;0
1;6
#332
1;0
1;8
#333
0;0
0;6
#334
1;0
0;8
#335
0;0
1;1
0;2
1;3
1;6
#336
1;0
1;7
1;8
#337
0;0
0;1
1;2
0;3
0;4
0;6
#338
1;0
0;7
0;8
1;9
#339
0;0
0;2
1;6
#340
1;0
1;8
0;9
#341
0;0
1;2
1;3
0;6
#342
1;0
0;8
#343
0;0
1;6
#344
1;0
1;8
1;9
#345
0;0
1;1
0;2
0;6
#346
1;0
0;8
0;9
#347
0;0
0;1
1;2
0;3
1;6
#348
1;0
1;8
1;9
#349
0;0
1;1
1;3
1;4
0;6
#350
1;0
0;8
0;9
#351
0;0
0;1
0;2
0;3
0;5
1;6
#352
1;0
1;8
#353
0;0
1;5
#354
1;0
0;8
#355
0;0
1;3
0;4
0;5
0;6
#356
1;0
#357
0;0
1;5
#358
1;0
#359
0;0
1;4
1;6
#360
1;0
1;8
#361
0;0
1;2
0;4
#362
1;0
0;8
1;9
#363
0;0
1;1
0;3
1;4
0;5
#364
1;0
1;8
#365
0;0
1;3
0;4
1;5
#366
1;0
1;7
0;8
0;9
#367
0;0
0;3
0;5
#368
1;0
0;7
1;8
1;9
#369
0;0
0;2
1;3
1;5
0;6
#370
1;0
0;8
0;9
#371
0;0
1;2
#372
1;0
1;9
#373
0;0
0;1
0;2
0;5
#374
1;0
0;9
#375
0;0
1;1
1;2
1;5
#376
1;0
1;9
#377
0;0
0;2
1;4
1;6
#378
1;0
1;8
0;9
#379
0;0
0;1
0;5
#380
1;0
0;8
#381
0;0
1;1
0;3
0;6
#382
1;0
1;7
#383
0;0
#384
1;0
#385
0;0
1;2
1;3
0;4
1;5
1;6
#386
1;0
1;8
#387
0;0
0;1
1;4
0;5
0;6
#388
1;0
0;7
0;8
1;9
#389
0;0
1;1
0;3
0;4
1;6
#390
1;0
1;7
1;8
#391
0;0
0;2
1;3
1;5
#392
1;0
0;7
0;8
0;9
#393
0;0
0;1
0;3
0;6
#394
1;0
#395
0;0
1;1
0;5
1;6
#396
1;0
1;8
#397
0;0
1;4
#398
1;0
0;8
#399
0;0
1;2
0;4
1;5
0;6
#400
1;0
1;7
#401
0;0
1;6
#402
1;0
0;7
1;8
#403
0;0
1;4
#404
1;0
0;8
#405
0;0
0;1
0;2
0;4
0;6
#406
1;0
#407
0;0
1;1
1;3
1;6
#408
1;0
1;8
#409
0;0
1;2
0;3
1;4
#410
1;0
0;8
1;9
#411
0;0
0;2
0;4
0;5
#412
1;0
1;7
1;8
0;9
#413
0;0
1;2
1;4
1;5
0;6
#414
1;0
0;7
0;8
#415
0;0
1;6
#416
1;0
1;7
1;8
#417
0;0
0;2
0;4
0;5
#418
1;0
0;8
#419
0;0
1;2
1;4
#420
1;0
0;7
1;8
#421
0;0
0;2
1;3
#422
1;0
1;7
0;8
#423
0;0
1;2
1;5
0;6
#424
1;0
1;9
#425
0;0
0;2
0;4
#426
1;0
0;9
#427
0;0
0;3
1;4
1;6
#428
1;0
0;7
1;8
#429
0;0
0;5
#430
1;0
1;7
0;8
#431
0;0
1;2
1;3
0;4
#432
1;0
1;8
#433
0;0
0;1
0;3
1;4
1;5
#434
1;0
0;7
0;8
1;9
#435
0;0
1;1
0;2
1;3
0;4
0;5
0;6
#436
1;0
1;7
0;9
#437
0;0
0;1
1;5
#438
1;0
0;7
#439
0;0
1;1
0;3
0;5
#440
1;0
#441
0;0
1;2
1;3
1;5
#442
1;0
#443
0;0
1;4
0;5
#444
1;0
1;9
#445
0;0
0;4
1;5
1;6
#446
1;0
1;7
1;8
#447
0;0
0;5
#448
1;0
0;7
0;8
#449
0;0
0;1
1;5
#450
1;0
1;8
#451
0;0
1;1
0;2
0;3
0;5
0;6
#452
1;0
0;8
0;9
#453
0;0
0;1
1;2
1;3
1;5
#454
1;0
#455
0;0
0;2
1;4
0;5
1;6
#456
1;0
1;8
#457
0;0
1;1
1;2
0;3
0;4
1;5
0;6
#458
1;0
1;7
0;8
1;9
#459
0;0
1;4
0;5
1;6
#460
1;0
0;7
1;8
0;9
#461
0;0
0;1
1;5
0;6
#462
1;0
0;8
#463
0;0
1;1
0;2
0;4
0;5
1;6
#464
1;0
1;7
1;8
#465
0;0
0;1
1;3
#466
1;0
0;7
0;8
#467
0;0
1;1
1;2
1;4
1;5
0;6
#468
1;0
1;9
#469
0;0
0;1
0;3
0;4
0;5
#470
1;0
#471
0;0
1;1
0;2
1;3
1;4
1;5
#472
1;0
0;9
#473
0;0
0;1
0;3
0;4
#474
1;0
#475
0;0
1;1
1;2
1;3
1;6
#476
1;0
1;8
#477
0;0
0;2
0;3
0;5
#478
1;0
0;8
#479
0;0
1;4
0;6
#480
1;0
#481
0;0
1;2
1;3
0;4
1;5
#482
1;0
1;7
#483
0;0
0;1
1;4
#484
1;0
0;7
1;9
#485
0;0
1;1
0;2
0;4
0;5
1;6
#486
1;0
1;7
1;8
0;9
#487
0;0
1;2
1;4
#488
1;0
0;7
0;8
1;9
#489
0;0
#490
1;0
1;7
1;8
#491
0;0
0;1
1;5
0;6
#492
1;0
0;7
0;8
#493
0;0
1;1
0;4
0;5
#494
1;0
1;7
#495
0;0
0;1
0;2
0;3
#496
1;0
0;7
0;9
#497
0;0
1;1
1;3
1;5
1;6
#498
1;0
1;8
#499
0;0
0;1
0;3
1;4
0;5
0;6
#500
1;0
0;8
#501
0;0
1;1
1;3
0;4
1;5
#502
1;0
1;7
#503
0;0
0;1
0;3
1;4
#504
1;0
0;7
#505
0;0
1;1
1;2
1;6
#506
1;0
1;7
1;8
#507
0;0
0;2
1;3
0;4
0;6
#508
1;0
0;8
#509
0;0
0;1
1;2
0;5
1;6
#510
1;0
0;7
1;8
1;9
#511
0;0
1;1
1;5
0;6
#512
1;0
0;8
#513
0;0
0;3
1;4
0;5
1;6
#514
1;0
1;8
#515
0;0
1;3
0;4
0;6
#516
1;0
1;7
0;8
0;9
#517
0;0
#518
1;0
0;7
1;9
#519
0;0
0;1
0;2
1;4
1;6
#520
1;0
1;8
0;9
#521
0;0
1;2
0;6
#522
1;0
0;8
1;9
#523
0;0
1;1
0;3
0;4
#524
1;0
1;7
#525
0;0
1;5
#526
1;0
0;7
0;9
#527
0;0
0;2
0;5
#528
1;0
#529
0;0
0;1
1;2
1;4
#530
1;0
#531
0;0
#532
1;0
#533
0;0
0;2
1;3
0;4
1;6
#534
1;0
1;8
#535
0;0
1;2
0;3
0;6
#536
1;0
0;8
1;9
#537
0;0
1;1
1;4
1;5
1;6
#538
1;0
1;8
0;9
#539
0;0
0;5
0;6
#540
1;0
1;7
0;8
#541
0;0
0;2
1;3
#542
1;0
#543
0;0
0;3
0;4
#544
1;0
#545
0;0
1;3
1;5
1;6
#546
1;0
0;7
1;8
#547
0;0
0;1
0;3
#548
1;0
0;8
#549
0;0
1;1
1;4
0;6
#550
1;0
#551
0;0
0;1
1;3
0;5
1;6
#552
1;0
1;8
#553
0;0
1;1
1;2
#554
1;0
1;7
0;8
1;9
#555
0;0
1;5
0;6
#556
1;0
#557
0;0
0;1
0;3
0;5
1;6
#558
1;0
0;7
1;8
#559
0;0
1;3
1;5
0;6
#560
1;0
0;8
0;9
#561
0;0
1;1
0;4
0;5
1;6
#562
1;0
1;7
1;8
1;9
#563
0;0
0;2
0;3
1;5
0;6
#564
1;0
0;7
0;8
0;9
#565
0;0
1;2
1;4
0;5
1;6
#566
1;0
1;8
#567
0;0
0;2
1;3
0;4
1;5
#568
1;0
1;7
0;8
#569
0;0
0;3
1;4
#570
1;0
0;7
1;8
#571
0;0
0;4
#572
1;0
1;7
0;8
#573
0;0
1;3
0;6
#574
1;0
0;7
#575
0;0
0;1
1;6
#576
1;0
1;8
#577
0;0
1;2
0;3
1;4
#578
1;0
0;8
1;9
#579
0;0
0;2
1;3
0;4
0;6
#580
1;0
0;9
#581
0;0
1;2
#582
1;0
1;9
#583
0;0
1;1
0;3
1;6
#584
1;0
1;8
#585
0;0
0;5
#586
1;0
0;8
0;9
#587
0;0
0;1
0;2
1;5
#588
1;0
1;8
#589
0;0
1;1
1;2
1;4
#590
1;0
0;8
#591
0;0
0;4
0;5
0;6
#592
1;0
1;7
#593
0;0
0;1
1;3
1;4
#594
1;0
0;7
#595
0;0
0;4
1;5
1;6
#596
1;0
1;8
1;9
#597
0;0
0;6
#598
1;0
0;8
#599
0;0
0;5
1;6
#600
1;0
1;8
#601
0;0
1;1
0;3
0;6
#602
1;0
0;8
#603
0;0
0;1
0;2
1;4
1;5
#604
1;0
0;9
#605
0;0
1;1
1;3
0;4
0;5
#606
1;0
1;7
#607
0;0
0;1
0;3
1;4
1;5
1;6
#608
1;0
0;7
1;8
#609
0;0
1;2
0;6
#610
1;0
0;8
#611
0;0
0;2
0;5
#612
1;0
#613
0;0
1;1
1;5
#614
1;0
1;7
#615
0;0
0;4
#616
1;0
#617
0;0
1;2
1;3
1;4
0;5
#618
1;0
0;7
#619
0;0
0;1
0;2
#620
1;0
#621
0;0
1;1
0;3
1;5
1;6
#622
1;0
1;7
1;8
#623
0;0
1;2
1;3
0;4
0;5
#624
1;0
0;8
#625
0;0
0;1
0;2
0;6
#626
1;0
0;7
#627
0;0
1;2
1;4
#628
1;0
1;9
#629
0;0
1;1
0;3
0;4
#630
1;0
1;7
#631
0;0
0;1
1;3
1;4
1;5
#632
1;0
0;7
0;9
#633
0;0
0;2
0;5
#634
1;0
#635
0;0
0;3
0;4
#636
1;0
#637
0;0
1;2
#638
1;0
#639
0;0
0;2
1;3
1;6
#640
1;0
1;8
#641
0;0
1;1
1;2
0;6
#642
1;0
0;8
1;9
#643
0;0
0;1
0;2
0;3
1;5
1;6
#644
1;0
1;8
0;9
#645
0;0
1;3
0;5
0;6
#646
1;0
0;8
#647
0;0
1;6
#648
1;0
1;8
#649
0;0
1;1
1;5
0;6
#650
1;0
0;8
#651
0;0
0;1
1;4
0;5
1;6
#652
1;0
1;8
#653
0;0
1;1
0;6
#654
1;0
1;7
0;8
#655
0;0
0;1
0;3
0;4
#656
1;0
0;7
#657
0;0
1;2
1;3
1;4
1;5
1;6
#658
1;0
1;8
#659
0;0
0;2
0;3
0;4
#660
1;0
0;8
#661
0;0
1;2
1;3
1;4
0;5
#662
1;0
1;8
#663
0;0
0;6
#664
1;0
0;8
1;9
#665
0;0
1;1
0;3
0;4
1;5
1;6
#666
1;0
1;7
1;8
#667
0;0
0;1
1;4
0;5
#668
1;0
0;7
0;8
0;9
#669
0;0
1;1
0;2
#670
1;0
1;7
1;8
#671
0;0
0;1
1;5
0;6
#672
1;0
0;7
0;8
#673
0;0
1;2
1;3
0;5
1;6
#674
1;0
1;8
#675
0;0
1;1
0;2
0;3
0;4
#676
1;0
1;7
0;8
#677
0;0
1;4
0;6
#678
1;0
0;7
#679
0;0
0;1
1;2
1;3
0;4
1;6
#680
1;0
1;8
#681
0;0
1;1
0;2
0;3
1;4
1;5
#682
1;0
0;8
#683
0;0
1;2
1;3
0;4
0;5
#684
1;0
1;7
1;8
#685
0;0
0;1
0;2
#686
1;0
0;7
0;8
#687
0;0
1;2
0;3
0;6
#688
1;0
1;9
#689
0;0
1;1
0;2
1;3
1;5
1;6
#690
1;0
1;8
0;9
#691
0;0
1;4
0;5
0;6
#692
1;0
0;8
#693
0;0
1;2
0;4
1;6
#694
1;0
1;7
1;8
1;9
#695
0;0
0;2
1;4
#696
1;0
0;7
0;8
0;9
#697
0;0
0;1
0;3
0;4
1;5
0;6
#698
1;0
#699
0;0
1;3
1;4
0;5
#700
1;0
#701
0;0
1;2
0;3
1;5
#702
1;0
1;9
#703
0;0
1;1
0;2
0;4
0;5
#704
1;0
1;7
0;9
#705
0;0
0;1
1;2
1;4
#706
1;0
0;7
#707
0;0
1;1
1;3
1;5
#708
1;0
1;7
#709
0;0
0;1
0;2
0;3
#710
1;0
0;7
#711
0;0
1;1
1;3
#712
1;0
1;7
#713
0;0
0;1
1;2
0;3
0;4
#714
1;0
0;7
1;9
#715
0;0
#716
1;0
0;9
#717
0;0
0;2
1;3
1;4
1;6
#718
1;0
1;8
#719
0;0
1;1
1;2
0;5
0;6
#720
1;0
1;7
0;8
1;9
#721
0;0
0;3
1;5
#722
1;0
#723
0;0
1;3
0;4
#724
1;0
0;9
#725
0;0
0;1
0;3
1;6
#726
1;0
0;7
1;8
1;9
#727
0;0
1;1
1;3
0;6
#728
1;0
0;8
0;9
#729
0;0
0;2
0;3
0;5
#730
1;0
#731
0;0
1;2
1;4
1;6
#732
1;0
1;8
#733
0;0
0;2
0;4
#734
1;0
1;7
0;8
#735
0;0
1;4
1;5
#736
1;0
0;7
1;8
#737
0;0
0;1
0;5
#738
1;0
0;8
#739
0;0
1;1
0;6
#740
1;0
1;7
#741
0;0
0;1
1;2
1;3
0;4
1;5
#742
1;0
0;7
#743
0;0
1;1
0;2
0;3
1;4
#744
1;0
#745
0;0
0;1
0;4
1;6
#746
1;0
1;8
#747
0;0
1;1
1;2
1;3
1;4
0;5
0;6
#748
1;0
0;8
#749
0;0
0;3
1;5
#750
1;0
1;7
1;9
#751
0;0
0;4
1;6
#752
1;0
1;8
0;9
#753
0;0
0;1
0;2
1;3
0;6
#754
1;0
0;7
0;8
#755
0;0
1;2
0;3
1;4
1;6
#756
1;0
1;8
1;9
#757
0;0
0;2
0;4
0;6
#758
1;0
0;8
0;9
#759
0;0
1;6
#760
1;0
1;8
#761
0;0
#762
1;0
0;8
#763
0;0
1;1
1;2
1;3
1;4
0;5
0;6
#764
1;0
#765
0;0
0;2
0;4
1;5
#766
1;0
1;7
#767
0;0
0;3
0;5
1;6
#768
1;0
0;7
1;8
#769
0;0
0;1
#770
1;0
0;8
#771
0;0
1;1
1;4
1;5
#772
1;0
1;8
#773
0;0
0;1
0;6
#774
1;0
0;8
#775
0;0
1;1
1;2
1;3
0;4
#776
1;0
1;7
#777
0;0
0;1
0;2
0;3
0;5
#778
1;0
0;7
#779
0;0
1;2
1;5
#780
1;0
#781
0;0
1;1
1;3
1;4
0;5
#782
1;0
#783
0;0
0;1
0;3
#784
1;0
1;9
#785
0;0
1;1
0;2
1;3
0;4
#786
1;0
1;7
0;9
#787
0;0
1;2
0;3
1;4
1;5
1;6
#788
1;0
0;7
1;8
1;9
#789
0;0
0;1
0;4
#790
1;0
0;8
0;9
#791
0;0
1;1
0;5
#792
1;0
1;8
#793
0;0
0;1
0;6
#794
1;0
0;8
#795
0;0
1;4
1;6
#796
1;0
1;8
#797
0;0
1;1
0;4
#798
1;0
1;7
0;8
#799
0;0
0;2
1;3
1;4
1;5
0;6
#800
1;0
0;7
#801
0;0
0;1
0;5
#802
1;0
#803
0;0
0;4
1;6
#804
1;0
1;8
#805
0;0
1;2
0;3
1;4
0;6
#806
1;0
0;8
1;9
#807
0;0
0;2
1;3
0;4
#808
1;0
0;9
#809
0;0
1;1
1;2
0;3
1;6
#810
1;0
1;8
1;9
#811
0;0
0;2
1;3
1;5
#812
1;0
0;8
0;9
#813
0;0
0;1
1;2
1;4
0;6
#814
1;0
1;9
#815
0;0
0;2
1;6
#816
1;0
1;8
0;9
#817
0;0
1;1
1;2
#818
1;0
1;7
0;8
1;9
#819
0;0
0;2
0;3
0;6
#820
1;0
0;9
#821
0;0
1;3
0;4
0;5
#822
1;0
#823
0;0
0;1
1;2
0;3
1;4
1;6
#824
1;0
0;7
1;8
1;9
#825
0;0
1;1
1;3
0;4
0;6
#826
1;0
1;7
0;8
0;9
#827
0;0
0;1
1;4
#828
1;0
0;7
1;9
#829
0;0
1;1
1;5
#830
1;0
1;7
#831
0;0
0;1
0;2
0;3
0;5
#832
1;0
0;7
0;9
#833
0;0
1;1
1;3
#834
1;0
1;7
#835
0;0
1;2
0;4
1;6
#836
1;0
1;8
1;9
#837
0;0
0;2
0;3
1;5
#838
1;0
0;7
0;8
0;9
#839
0;0
0;5
#840
1;0
1;8
#841
0;0
0;1
1;3
1;5
0;6
#842
1;0
0;8
#843
0;0
0;3
0;5
#844
1;0
#845
0;0
1;2
1;4
1;5
#846
1;0
#847
0;0
0;2
0;4
1;6
#848
1;0
1;8
#849
0;0
1;1
0;5
0;6
#850
1;0
0;8
#851
0;0
1;4
1;6
#852
1;0
1;8
#853
0;0
1;3
#854
1;0
1;7
0;8
#855
0;0
0;1
0;3
0;4
1;5
0;6
#856
1;0
0;7
#857
0;0
1;2
0;5
1;6
#858
1;0
1;8
#859
0;0
1;1
1;3
1;4
1;5
#860
1;0
0;8
#861
0;0
0;5
#862
1;0
1;7
1;8
1;9
#863
0;0
0;1
0;3
0;4
0;6
#864
1;0
0;7
0;8
#865
0;0
1;1
0;2
1;3
#866
1;0
0;9
#867
0;0
0;1
0;3
#868
1;0
#869
0;0
1;3
1;4
1;5
1;6
#870
1;0
1;8
#871
0;0
1;1
1;2
0;3
0;4
0;5
0;6
#872
1;0
1;7
0;8
1;9
#873
0;0
0;1
1;3
1;5
1;6
#874
1;0
0;7
1;8
0;9
#875
0;0
0;2
0;3
1;4
0;5
0;6
#876
1;0
0;8
#877
0;0
1;3
0;4
1;5
1;6
#878
1;0
1;8
#879
0;0
1;2
1;4
0;5
#880
1;0
0;8
1;9
#881
0;0
0;3
0;4
0;6
#882
1;0
#883
0;0
0;2
1;3
1;4
#884
1;0
0;9
#885
0;0
1;1
1;6
#886
1;0
1;7
1;8
#887
0;0
0;3
0;4
#888
1;0
0;8
#889
0;0
0;1
1;4
1;5
0;6
#890
1;0
0;7
#891
0;0
0;4
0;5
#892
1;0
#893
0;0
1;1
1;2
#894
1;0
#895
0;0
#896
1;0
#897
0;0
0;2
1;4
#898
1;0
#899
0;0
0;1
0;4
#900
1;0
#901
0;0
1;1
1;4
1;5
#902
1;0
#903
0;0
1;3
0;5
#904
1;0
1;7
#905
0;0
1;2
1;5
#906
1;0
1;9
#907
0;0
0;1
0;3
0;4
0;5
#908
1;0
0;7
#909
0;0
1;1
1;3
1;4
1;5
1;6
#910
1;0
1;8
0;9
#911
0;0
0;2
0;6
#912
1;0
1;7
0;8
#913
0;0
0;1
0;3
1;6
#914
1;0
0;7
1;8
#915
0;0
1;1
0;5
0;6
#916
1;0
1;7
0;8
#917
0;0
1;3
1;6
#918
1;0
1;8
#919
0;0
1;2
0;3
0;4
1;5
0;6
#920
1;0
0;8
1;9
#921
0;0
0;2
1;4
0;5
#922
1;0
0;7
0;9
#923
0;0
0;4
1;5
#924
1;0
1;7
#925
0;0
1;2
1;4
0;5
#926
1;0
0;7
#927
0;0
0;4
1;6
#928
1;0
1;7
1;8
#929
0;0
0;1
#930
1;0
0;7
0;8
#931
0;0
1;4
0;6
#932
1;0
#933
0;0
1;1
0;2
1;6
#934
1;0
1;7
1;8
#935
0;0
1;2
0;4
0;6
#936
1;0
0;8
#937
0;0
0;1
0;2
1;3
1;4
1;6
#938
1;0
0;7
1;8
#939
0;0
0;4
1;5
#940
1;0
0;8
#941
0;0
1;2
0;3
0;5
#942
1;0
1;8
1;9
#943
0;0
1;3
1;5
#944
1;0
0;8
0;9
#945
0;0
1;1
0;2
0;3
0;5
0;6
#946
1;0
#947
0;0
0;1
1;2
1;6
#948
1;0
1;8
#949
0;0
1;1
0;2
1;3
0;6
#950
1;0
0;8
#951
0;0
0;3
#952
1;0
#953
0;0
1;6
#954
1;0
1;8
#955
0;0
1;3
1;4
0;6
