tool/synthetic_gen/raw_challenges/NextAndChain/faulty_traces/vcd/fault_212.vcd
$date
    Mar 10, 2025 02:05:51
$end
$version
    Tracer 3.0.0 - By Enrico Fraccaroli <enry.frak@gmail.com> --- 2022/02/15
$end
$timescale
    1ns
$end
$scope module NextAndChain_top_bench $end
$scope module NextAndChain_top_ $end
    $var wire 1 ;0 clk $end
    $var wire 1 ;1 b_4 $end
    $var wire 1 ;2 a_2 $end
    $var wire 1 ;3 c_1 $end
    $var wire 1 ;4 c_3 $end
    $var wire 1 ;5 b_2 $end
    $var wire 1 ;6 a_1 $end
    $var wire 1 ;7 a_4 $end
    $var wire 1 ;8 b_0 $end
    $var wire 1 ;9 a_0 $end
    $var wire 1 ;10 b_3 $end
    $var wire 1 ;11 c_0 $end
    $var wire 1 ;12 c_4 $end
    $var wire 1 ;13 a_3 $end
    $var wire 1 ;14 b_1 $end
    $var wire 1 ;15 c_2 $end
    $var wire 1 ;16 f_3 $end
    $var wire 1 ;17 e_1 $end
    $var wire 1 ;18 e_4 $end
    $var wire 1 ;19 f_4 $end
    $var wire 1 ;20 e_2 $end
    $var wire 1 ;21 f_0 $end
    $var wire 1 ;22 e_3 $end
    $var wire 1 ;23 f_1 $end
    $var wire 1 ;24 d_2 $end
    $var wire 1 ;25 f_2 $end
    $var wire 1 ;26 e_0 $end
    $var wire 1 ;27 d_0 $end
    $var wire 1 ;28 d_4 $end
    $var wire 1 ;29 d_3 $end
    $var wire 1 ;30 d_1 $end
$upscope $end
$upscope $end
$enddefinitions $end
#0
$dumpvars
1;0
0;1
0;2
0;3
0;4
0;5
0;6
0;7
0;8
0;9
0;10
0;11
0;12
0;13
0;14
0;15
0;16
0;17
0;18
0;19
0;20
0;21
0;22
0;23
0;24
0;25
0;26
0;27
0;28
0;29
0;30
$end
#1
0;0
1;1
1;3
1;4
1;5
1;6
1;9
1;10
1;12
1;14
1;15
#2
1;0
#3
0;0
0;1
0;3
0;4
0;5
1;8
0;10
0;12
1;13
#4
1;0
#5
0;0
1;1
1;5
1;7
0;8
1;11
1;12
0;15
#6
1;0
1;26
1;27
#7
0;0
1;4
0;5
0;7
1;8
0;9
0;12
0;13
0;14
1;15
#8
1;0
1;21
0;26
0;27
#9
0;0
1;2
1;9
1;10
0;11
1;12
1;14
0;15
#10
1;0
0;21
#11
0;0
0;2
0;8
0;9
0;10
1;13
0;14
1;15
#12
1;0
#13
0;0
0;1
0;4
1;5
0;6
1;10
1;11
0;12
0;13
#14
1;0
#15
0;0
1;1
1;2
1;4
0;5
1;8
0;10
1;12
1;13
#16
1;0
#17
0;0
0;1
1;3
1;5
1;6
1;7
1;9
1;10
0;12
1;14
0;15
#18
1;0
#19
0;0
1;1
0;2
0;5
0;6
0;8
0;13
0;14
1;15
#20
1;0
1;17
1;20
1;22
1;24
1;26
1;27
1;29
1;30
#21
0;0
0;1
1;2
0;3
1;6
0;7
1;8
#22
1;0
1;16
0;17
0;20
1;21
0;22
1;23
0;24
1;25
0;26
0;27
0;29
0;30
#23
0;0
0;4
0;6
0;9
1;12
1;13
1;14
0;15
#24
1;0
0;16
0;21
0;23
0;25
1;26
1;27
#25
0;0
1;3
1;5
1;6
#26
1;0
1;21
0;26
0;27
#27
0;0
0;6
1;9
0;11
0;12
0;13
0;14
#28
1;0
1;17
0;21
1;30
#29
0;0
0;2
1;4
0;9
1;12
1;14
#30
1;0
0;17
1;23
0;30
#31
0;0
1;2
0;4
0;5
1;6
0;8
1;11
0;14
1;15
#32
1;0
0;23
#33
0;0
0;2
1;4
0;6
1;9
0;10
1;13
0;15
#34
1;0
#35
0;0
1;1
0;3
0;4
1;7
0;9
0;11
0;12
#36
1;0
#37
0;0
0;1
1;4
1;5
0;7
1;8
1;9
1;10
1;11
#38
1;0
#39
0;0
1;1
1;2
1;3
0;5
1;6
1;7
0;9
0;10
0;13
#40
1;0
1;22
1;26
1;27
1;29
#41
0;0
0;1
0;2
0;3
0;4
0;8
1;9
1;15
#42
1;0
1;16
1;21
0;22
0;26
0;27
0;29
#43
0;0
1;1
1;5
0;6
1;8
0;9
1;10
1;12
1;13
1;14
0;15
#44
1;0
0;16
0;21
#45
0;0
1;2
1;4
0;8
0;10
0;11
0;12
0;13
#46
1;0
1;22
1;29
#47
0;0
0;2
0;4
0;5
0;7
1;8
1;9
1;11
0;14
1;15
#48
1;0
1;16
1;20
0;22
1;24
0;29
#49
0;0
0;1
1;5
1;6
1;7
0;8
0;9
1;10
0;11
1;13
1;14
#50
1;0
0;16
0;20
0;24
1;25
#51
0;0
1;3
0;5
0;7
1;8
1;9
1;11
0;15
#52
1;0
1;17
0;25
1;30
#53
0;0
1;2
0;3
0;6
0;9
0;10
0;11
1;12
0;13
0;14
#54
1;0
0;17
1;23
0;30
#55
0;0
0;2
1;4
1;6
1;7
1;15
#56
1;0
0;23
#57
0;0
1;5
0;6
1;9
1;10
1;11
0;12
1;14
0;15
#58
1;0
#59
0;0
1;2
0;7
0;8
0;10
0;11
1;13
0;14
#60
1;0
#61
0;0
0;2
1;6
1;7
0;9
1;10
1;12
1;15
#62
1;0
1;20
1;24
#63
0;0
1;1
1;2
0;5
1;9
1;14
#64
1;0
0;20
1;22
0;24
1;25
1;29
#65
0;0
0;2
1;5
0;9
1;11
0;12
0;14
0;15
#66
1;0
1;16
0;25
#67
0;0
0;1
1;2
1;3
0;4
0;5
0;7
1;9
1;12
1;15
#68
1;0
1;18
0;22
1;28
0;29
#69
0;0
0;6
1;8
0;9
0;10
0;12
0;13
0;15
#70
1;0
0;16
0;18
1;19
0;28
#71
0;0
0;2
0;3
1;7
0;8
1;10
0;11
1;12
1;14
1;15
#72
1;0
0;19
#73
0;0
1;1
1;2
1;6
0;7
1;13
0;14
#74
1;0
#75
0;0
0;2
1;3
1;4
0;6
0;10
1;11
0;12
0;13
1;14
#76
1;0
1;22
1;29
#77
0;0
1;2
0;4
1;5
1;6
1;7
1;9
1;10
1;12
1;13
0;14
#78
1;0
1;16
0;22
0;29
#79
0;0
0;1
0;6
0;7
1;8
0;9
0;10
1;14
0;15
#80
1;0
0;16
1;18
1;28
#81
0;0
1;4
1;6
0;8
1;9
1;10
0;12
0;13
0;14
#82
1;0
0;18
1;19
0;28
#83
0;0
1;1
0;6
1;7
1;8
1;12
#84
1;0
0;19
#85
0;0
0;1
0;4
0;5
0;9
0;10
0;11
0;12
1;14
#86
1;0
#87
0;0
0;2
1;4
1;5
0;7
0;8
1;9
1;10
1;11
1;12
1;15
#88
1;0
#89
0;0
1;1
0;3
0;4
0;5
1;6
1;7
1;8
0;9
0;12
1;13
#90
1;0
#91
0;0
0;1
1;2
1;4
0;7
0;8
0;11
1;12
0;13
0;14
#92
1;0
1;18
1;22
1;28
1;29
#93
0;0
1;3
0;4
1;7
1;8
0;15
#94
1;0
1;16
0;18
1;19
0;22
0;28
0;29
#95
0;0
1;1
0;2
1;4
1;5
1;11
0;12
1;14
#96
1;0
0;16
0;19
#97
0;0
1;2
0;3
0;4
0;5
0;6
1;9
1;12
1;15
#98
1;0
1;18
1;28
#99
0;0
0;1
0;2
1;3
1;4
1;6
0;9
0;11
1;13
0;14
#100
1;0
1;19
#101
0;0
1;1
0;3
0;6
0;8
0;10
1;11
0;13
0;15
#102
1;0
0;18
1;22
0;28
1;29
#103
0;0
0;7
1;8
1;9
0;11
1;14
#104
1;0
1;16
1;18
0;19
0;22
1;28
0;29
#105
0;0
0;9
0;12
1;13
0;14
#106
1;0
0;16
0;18
1;19
0;28
#107
0;0
1;2
0;8
1;9
1;10
1;11
1;12
1;14
#108
1;0
0;19
#109
0;0
0;2
1;3
1;5
1;6
1;7
1;8
0;9
0;10
0;12
0;13
0;14
#110
1;0
1;22
1;29
#111
0;0
0;1
1;2
0;3
0;4
0;6
1;9
0;11
1;14
1;15
#112
1;0
1;16
0;22
0;29
#113
0;0
0;2
1;3
1;4
0;7
0;9
1;10
1;11
1;12
1;13
0;15
#114
1;0
0;16
1;26
1;27
#115
0;0
1;2
0;4
0;8
1;9
0;12
1;15
#116
1;0
1;21
0;26
0;27
#117
0;0
0;3
1;4
1;6
1;8
0;9
0;10
0;11
1;12
0;14
0;15
#118
1;0
0;21
1;22
1;29
#119
0;0
1;1
0;2
1;3
0;5
1;7
0;8
1;9
1;10
0;12
1;14
1;15
#120
1;0
1;16
1;20
0;22
1;24
0;29
#121
0;0
0;1
0;4
1;5
0;6
0;7
1;8
0;10
1;11
0;13
0;15
#122
1;0
0;16
1;17
0;20
0;24
1;25
1;30
#123
0;0
0;3
1;7
0;9
0;11
1;13
#124
1;0
0;17
1;23
0;25
0;30
#125
0;0
1;2
1;4
0;5
1;6
0;8
1;9
1;10
0;14
1;15
#126
1;0
0;23
#127
0;0
1;1
1;5
0;9
0;13
1;14
#128
1;0
1;22
1;29
#129
0;0
0;1
0;2
1;3
0;4
1;8
1;9
0;10
1;12
1;13
0;15
#130
1;0
1;16
1;17
1;18
0;22
1;28
0;29
1;30
#131
0;0
0;6
0;7
0;8
0;9
1;11
0;12
#132
1;0
0;16
0;18
1;19
1;23
1;26
1;27
0;28
#133
0;0
1;2
0;3
1;4
1;6
1;8
1;10
0;14
1;15
#134
1;0
0;17
0;19
1;21
0;26
0;27
0;30
#135
0;0
1;1
1;3
0;4
0;6
0;10
0;11
0;13
1;14
#136
1;0
1;20
0;21
0;23
1;24
#137
0;0
0;1
1;9
1;11
1;12
1;13
0;14
#138
1;0
1;25
#139
0;0
0;3
1;10
1;14
0;15
#140
1;0
0;20
0;24
1;26
1;27
#141
0;0
0;2
1;4
0;5
1;6
0;8
0;9
0;13
0;14
1;15
#142
1;0
1;20
1;21
1;22
1;24
0;25
1;29
#143
0;0
0;4
1;8
0;10
0;11
1;13
1;14
#144
1;0
1;16
0;20
0;22
0;24
1;25
0;26
0;27
0;29
#145
0;0
1;2
1;3
1;5
1;7
1;10
#146
1;0
0;16
1;17
0;21
0;25
1;30
#147
0;0
1;4
0;6
0;7
0;8
1;9
0;13
0;15
#148
1;0
1;22
1;23
1;29
#149
0;0
1;1
0;4
0;10
0;12
1;13
1;15
#150
1;0
1;16
0;17
1;20
0;22
1;24
0;29
0;30
#151
0;0
0;1
0;3
1;4
0;5
1;6
1;7
1;8
1;12
0;14
#152
1;0
0;16
0;23
1;25
#153
0;0
1;1
0;2
0;6
0;8
0;9
1;10
0;12
1;14
#154
1;0
0;20
0;24
#155
0;0
0;1
1;2
1;3
0;4
1;5
1;6
1;11
0;13
0;14
#156
1;0
0;25
#157
0;0
1;1
0;2
0;7
0;10
1;13
0;15
#158
1;0
#159
0;0
0;1
1;4
0;5
0;6
1;7
1;9
1;10
0;13
1;14
#160
1;0
#161
0;0
1;1
1;2
0;3
0;4
1;5
1;6
1;8
0;9
1;12
0;14
#162
1;0
#163
0;0
0;1
1;4
0;5
0;7
1;9
0;12
1;13
1;14
1;15
#164
1;0
1;20
1;24
#165
0;0
1;1
0;2
0;4
1;7
0;9
0;15
#166
1;0
0;20
0;24
1;25
1;26
1;27
#167
0;0
1;2
1;3
1;4
0;6
0;7
0;8
1;9
0;14
1;15
#168
1;0
1;17
1;21
1;22
0;25
0;26
0;27
1;29
1;30
#169
0;0
0;2
1;6
1;7
1;8
#170
1;0
1;16
0;17
0;21
1;23
0;30
#171
0;0
0;1
1;2
0;3
0;6
0;11
#172
1;0
0;23
#173
0;0
1;1
1;3
0;4
1;6
0;7
0;9
1;11
1;12
#174
1;0
0;22
1;26
1;27
0;29
#175
0;0
0;1
0;2
0;3
0;11
0;12
0;13
0;15
#176
1;0
0;16
1;21
0;26
0;27
#177
0;0
1;1
1;2
1;3
1;5
0;6
1;7
1;9
1;13
1;14
1;15
#178
1;0
0;21
#179
0;0
0;1
1;4
1;6
0;7
0;8
0;10
1;11
1;12
0;13
#180
1;0
1;18
1;20
1;22
1;24
1;26
1;27
1;28
1;29
#181
0;0
1;1
0;2
0;3
0;4
0;5
0;6
1;8
0;12
0;14
#182
1;0
1;16
0;18
1;19
1;21
0;22
1;25
0;26
0;27
0;28
0;29
#183
0;0
1;3
1;4
1;5
0;9
1;10
1;13
#184
1;0
0;16
0;19
0;20
0;21
0;24
1;26
1;27
#185
0;0
0;1
1;2
0;3
1;7
0;8
0;10
0;11
1;12
0;13
#186
1;0
1;21
1;22
0;25
0;26
0;27
1;29
#187
0;0
0;2
1;3
1;6
1;8
1;11
0;12
0;15
#188
1;0
1;16
0;21
0;22
0;29
#189
0;0
1;1
0;6
0;7
0;8
1;13
1;14
1;15
#190
1;0
0;16
#191
0;0
0;1
1;2
0;5
1;9
1;10
0;11
0;14
0;15
#192
1;0
#193
0;0
1;1
0;4
1;5
1;8
1;11
1;15
#194
1;0
#195
0;0
0;1
0;2
1;4
1;6
1;7
0;8
1;12
#196
1;0
1;20
1;22
1;24
1;26
1;27
1;29
#197
0;0
1;2
0;6
1;8
0;10
0;11
0;12
0;13
0;15
#198
1;0
1;16
0;20
1;21
0;24
1;25
0;26
0;27
#199
0;0
0;2
0;3
0;5
1;6
0;7
1;13
#200
1;0
0;21
0;22
0;25
0;29
#201
0;0
1;1
1;3
0;4
1;5
0;6
0;8
0;9
1;10
1;11
1;14
#202
1;0
0;16
1;26
1;27
#203
0;0
1;2
1;4
0;5
1;6
1;8
0;10
1;12
0;13
0;14
1;15
#204
1;0
1;21
1;22
0;26
0;27
1;29
#205
0;0
0;4
1;5
0;6
1;7
1;10
0;11
1;13
1;14
#206
1;0
1;16
0;21
0;22
0;29
#207
0;0
0;1
0;2
0;3
1;4
1;6
0;7
0;8
0;10
0;14
#208
1;0
0;16
1;18
1;20
1;22
1;24
1;28
1;29
#209
0;0
1;2
1;3
0;5
0;6
1;7
1;8
0;12
1;14
0;15
#210
1;0
1;16
0;18
1;19
0;20
0;22
0;24
1;25
0;28
0;29
#211
0;0
0;3
0;7
0;8
1;11
0;14
#212
1;0
0;16
0;19
0;25
#213
0;0
1;9
0;11
1;12
0;13
1;14
#214
1;0
#215
0;0
0;2
1;5
1;7
1;8
1;10
1;11
0;12
1;13
0;14
#216
1;0
#217
0;0
1;1
1;3
0;5
0;8
0;9
0;10
0;11
1;15
#218
1;0
1;22
1;29
#219
0;0
0;1
1;2
0;4
0;7
1;8
1;9
1;10
1;14
0;15
#220
1;0
1;16
0;22
0;29
#221
0;0
0;2
1;4
1;6
1;7
1;12
1;15
#222
1;0
0;16
1;22
1;29
#223
0;0
1;1
1;2
0;3
0;4
1;5
0;6
0;8
0;10
1;11
0;15
#224
1;0
1;16
0;22
1;26
1;27
0;29
#225
0;0
1;3
0;5
1;6
0;9
0;12
#226
1;0
0;16
1;21
0;26
0;27
#227
0;0
0;2
1;4
0;7
1;8
1;9
1;10
0;11
1;15
#228
1;0
1;17
0;21
1;30
#229
0;0
0;3
0;4
1;5
1;7
0;8
0;10
1;11
0;13
0;14
#230
1;0
0;17
1;23
1;26
1;27
0;30
#231
0;0
0;1
1;2
1;3
0;6
1;8
0;11
1;12
1;14
0;15
#232
1;0
1;18
1;21
0;23
0;26
0;27
1;28
#233
0;0
0;9
1;11
1;13
#234
1;0
1;19
0;21
1;26
1;27
#235
0;0
0;2
0;5
0;7
1;9
1;10
0;12
1;15
#236
1;0
0;18
1;20
1;21
1;24
0;26
0;27
0;28
#237
0;0
1;1
1;2
0;3
0;11
0;13
#238
1;0
0;19
0;20
0;21
0;24
1;25
#239
0;0
0;1
1;3
1;5
1;6
0;9
0;10
1;11
1;12
0;14
#240
1;0
0;25
1;26
1;27
#241
0;0
1;1
0;3
0;5
0;6
0;8
1;10
0;12
1;13
#242
1;0
1;20
1;21
1;24
0;26
0;27
#243
0;0
0;1
0;2
1;7
1;8
1;9
0;10
1;14
0;15
#244
1;0
0;20
0;21
0;24
1;25
#245
0;0
1;4
0;8
0;9
1;10
0;14
#246
1;0
0;25
1;26
1;27
#247
0;0
1;2
1;5
1;6
0;10
0;11
1;12
#248
1;0
1;21
1;22
0;26
0;27
1;29
#249
0;0
1;1
0;2
1;8
1;9
0;13
1;15
#250
1;0
1;16
1;20
0;21
0;22
1;24
0;29
#251
0;0
0;1
0;4
0;8
0;9
1;10
1;11
0;12
0;15
#252
1;0
0;16
0;20
0;24
1;25
1;26
1;27
#253
0;0
1;2
1;3
1;4
0;6
0;7
1;9
0;11
#254
1;0
1;21
0;25
0;26
0;27
#255
0;0
0;2
0;3
0;4
0;9
0;10
1;12
1;15
#256
1;0
1;20
0;21
1;24
#257
0;0
1;1
1;2
1;3
0;5
1;11
#258
1;0
0;20
0;24
1;25
#259
0;0
0;1
0;2
0;3
1;6
1;9
1;10
0;11
1;14
0;15
#260
1;0
0;25
#261
0;0
1;3
1;4
1;7
0;12
0;14
#262
1;0
1;17
1;30
#263
0;0
0;3
0;4
1;5
1;8
0;10
1;14
1;15
#264
1;0
0;17
1;23
0;30
#265
0;0
1;2
1;3
1;4
0;5
0;7
1;10
1;13
0;15
#266
1;0
1;17
0;23
1;30
#267
0;0
0;4
1;5
0;6
1;7
0;8
0;14
1;15
#268
1;0
1;23
#269
0;0
0;2
0;3
1;4
0;7
1;8
1;12
0;15
#270
1;0
0;17
1;22
1;29
0;30
#271
0;0
1;3
0;5
1;7
0;8
0;9
0;10
1;11
0;13
1;15
#272
1;0
1;16
0;23
1;26
1;27
#273
0;0
1;1
0;3
1;5
1;6
1;8
1;9
0;11
#274
1;0
1;21
0;22
0;26
0;27
0;29
#275
0;0
0;1
1;3
0;4
0;6
0;7
0;8
0;9
1;10
1;14
#276
1;0
0;16
1;18
0;21
1;28
#277
0;0
1;1
1;4
0;5
1;7
1;8
1;9
0;10
1;13
0;14
#278
1;0
0;18
1;19
0;28
#279
0;0
0;4
0;7
0;9
0;15
#280
1;0
1;18
0;19
1;28
#281
0;0
0;1
1;2
0;3
1;4
1;5
1;7
0;8
0;12
0;13
1;14
#282
1;0
0;18
1;19
0;28
#283
0;0
1;1
0;2
1;6
1;8
1;13
#284
1;0
0;19
#285
0;0
1;3
0;6
0;7
1;11
0;13
#286
1;0
1;17
1;30
#287
0;0
0;1
1;2
0;3
0;4
0;5
1;6
1;7
1;9
1;10
1;12
1;13
0;14
#288
1;0
0;17
1;23
0;30
#289
0;0
1;1
1;4
1;5
0;6
0;10
0;12
0;13
1;14
#290
1;0
1;22
0;23
1;26
1;27
1;29
#291
0;0
0;1
1;3
1;6
0;7
0;9
1;10
0;11
0;14
#292
1;0
1;16
1;21
0;22
0;26
0;27
0;29
#293
0;0
1;1
0;3
0;5
1;7
0;8
0;10
1;12
1;13
#294
1;0
0;16
0;21
#295
0;0
1;3
0;4
0;6
1;9
1;10
0;12
#296
1;0
#297
0;0
0;1
1;5
0;9
1;11
0;13
#298
1;0
#299
0;0
1;4
1;6
1;13
1;14
#300
1;0
#301
0;0
1;1
0;3
0;4
0;7
1;9
0;10
0;13
#302
1;0
#303
0;0
1;3
0;5
0;6
1;8
0;9
0;11
1;15
#304
1;0
1;17
1;20
1;24
1;30
#305
0;0
0;1
0;2
0;3
1;5
1;6
1;7
1;9
1;10
1;13
0;14
#306
1;0
0;17
0;20
1;23
0;24
1;25
0;30
#307
0;0
1;2
1;4
0;5
0;6
0;7
0;8
0;10
0;13
#308
1;0
1;22
0;23
0;25
1;29
#309
0;0
1;1
0;2
1;5
1;6
0;9
1;10
1;11
1;13
1;14
#310
1;0
1;16
0;22
0;29
#311
0;0
0;1
1;2
0;4
0;5
0;6
0;10
0;13
0;15
#312
1;0
0;16
#313
0;0
1;1
1;3
1;4
1;8
1;10
0;11
1;13
0;14
1;15
#314
1;0
#315
0;0
0;1
0;2
0;3
1;5
1;7
1;9
0;10
1;11
0;13
1;14
#316
1;0
1;22
1;29
#317
0;0
1;1
1;2
0;4
0;5
1;6
0;7
0;9
0;11
0;15
#318
1;0
1;16
0;22
0;29
#319
0;0
0;2
1;3
1;4
1;5
0;6
0;8
1;9
1;10
1;12
1;13
#320
1;0
0;16
1;17
1;30
#321
0;0
0;1
0;5
0;10
0;13
#322
1;0
0;17
1;22
1;23
1;29
0;30
#323
0;0
1;1
0;3
0;4
1;6
0;9
1;10
1;11
0;12
0;14
1;15
#324
1;0
1;16
0;22
0;23
0;29
#325
0;0
1;3
1;5
1;8
1;9
#326
1;0
0;16
#327
0;0
1;2
1;4
1;7
0;11
1;13
1;14
0;15
#328
1;0
#329
0;0
0;2
0;4
0;5
0;6
0;7
0;9
1;12
1;15
#330
1;0
1;17
1;18
1;20
1;24
1;28
1;30
#331
0;0
0;1
0;3
1;5
1;6
1;7
0;8
1;11
0;15
#332
1;0
0;17
0;18
1;19
0;20
1;23
0;24
1;25
0;28
0;30
#333
0;0
1;4
0;5
0;6
1;9
0;11
0;12
1;15
#334
1;0
0;19
1;22
0;23
0;25
1;29
#335
0;0
1;3
0;7
1;8
0;13
0;14
#336
1;0
1;16
#337
0;0
0;4
1;5
0;8
0;9
0;10
1;14
0;15
#338
1;0
0;22
0;29
#339
0;0
1;1
1;2
0;3
0;5
1;8
1;9
1;10
0;14
#340
1;0
0;16
#341
0;0
0;2
1;4
1;6
1;7
0;8
1;12
#342
1;0
#343
0;0
0;1
1;2
0;4
1;5
0;6
0;7
1;11
1;13
1;14
1;15
#344
1;0
1;18
1;28
#345
0;0
1;1
1;3
1;4
0;5
1;6
1;8
0;9
0;10
0;11
0;12
0;14
#346
1;0
0;18
1;19
1;20
1;22
1;24
0;28
1;29
#347
0;0
0;1
0;2
0;3
0;4
0;6
0;8
1;12
1;14
#348
1;0
1;16
0;19
0;20
0;22
0;24
1;25
0;29
#349
0;0
1;1
1;2
1;8
1;9
1;11
0;13
0;14
0;15
#350
1;0
0;16
0;25
#351
0;0
0;2
1;6
1;13
1;15
#352
1;0
1;26
1;27
#353
0;0
0;1
1;2
0;6
0;8
1;10
0;11
0;12
#354
1;0
1;21
0;26
0;27
#355
0;0
1;1
0;2
1;3
1;4
0;10
1;14
0;15
#356
1;0
0;21
1;22
1;29
#357
0;0
0;1
0;3
0;4
1;7
1;8
0;9
#358
1;0
1;16
0;22
0;29
#359
0;0
1;4
0;8
0;13
0;14
#360
1;0
0;16
#361
0;0
1;1
1;5
1;9
1;10
1;13
1;14
1;15
#362
1;0
#363
0;0
1;2
0;4
0;7
0;9
1;11
1;12
#364
1;0
1;18
1;28
#365
0;0
0;2
1;3
1;4
0;14
0;15
#366
1;0
0;18
1;19
1;22
0;28
1;29
#367
0;0
0;3
0;5
1;6
1;7
1;9
0;12
0;13
1;14
#368
1;0
1;16
0;19
#369
0;0
0;6
0;9
0;10
1;13
#370
1;0
0;22
0;29
#371
0;0
1;5
0;7
1;9
0;13
0;14
1;15
#372
1;0
0;16
#373
0;0
0;1
1;2
0;5
1;7
0;9
1;10
0;11
1;12
1;13
1;14
0;15
#374
1;0
#375
0;0
0;2
0;4
1;6
1;9
0;10
0;13
1;15
#376
1;0
#377
0;0
1;2
0;7
1;8
1;11
1;13
0;14
0;15
#378
1;0
#379
0;0
0;2
1;5
0;6
0;8
1;10
0;11
0;13
#380
1;0
#381
0;0
1;1
0;5
1;7
0;9
0;10
1;13
1;15
#382
1;0
#383
0;0
1;4
1;6
0;7
1;9
1;10
0;13
#384
1;0
1;18
1;28
#385
0;0
0;6
1;7
1;8
1;11
#386
1;0
0;18
1;19
0;28
#387
0;0
0;1
1;2
1;3
0;4
0;8
0;9
0;10
0;12
1;13
#388
1;0
0;19
1;26
1;27
#389
0;0
1;6
1;8
1;12
1;14
#390
1;0
1;21
0;26
0;27
#391
0;0
1;1
0;3
1;5
0;6
0;7
0;8
1;9
1;10
0;11
0;12
0;15
#392
1;0
0;21
#393
0;0
0;1
0;2
1;3
1;4
0;5
1;6
1;8
0;10
1;11
1;15
#394
1;0
1;20
1;22
1;24
1;29
#395
0;0
0;4
0;6
1;7
0;11
1;12
0;13
#396
1;0
1;16
1;17
0;20
0;22
0;24
1;25
0;29
1;30
#397
0;0
1;1
1;5
1;6
0;7
0;8
1;10
0;12
1;13
0;14
#398
1;0
0;16
0;17
1;23
0;25
0;30
#399
0;0
0;1
1;4
0;6
1;12
0;13
0;15
#400
1;0
1;22
0;23
1;29
#401
0;0
1;1
1;2
0;3
0;4
0;5
0;9
1;11
0;12
1;13
#402
1;0
1;16
0;22
0;29
#403
0;0
0;2
1;3
0;13
1;14
#404
1;0
0;16
#405
0;0
1;2
0;3
1;4
1;5
1;7
1;8
0;11
1;12
0;14
1;15
#406
1;0
#407
0;0
0;1
1;3
1;6
0;8
1;9
1;11
0;12
1;13
0;15
#408
1;0
#409
0;0
0;4
0;5
0;6
0;7
0;9
0;10
1;14
#410
1;0
#411
0;0
0;2
1;4
1;5
1;6
1;7
1;8
1;9
0;11
0;14
#412
1;0
#413
0;0
1;1
0;4
0;5
0;6
0;7
0;8
0;9
1;12
1;14
1;15
#414
1;0
#415
0;0
1;2
1;4
1;8
1;9
1;10
0;12
0;15
#416
1;0
#417
0;0
0;1
0;2
0;3
1;7
0;8
0;9
1;11
0;14
1;15
#418
1;0
1;22
1;26
1;27
1;29
#419
0;0
1;2
1;14
#420
1;0
1;16
1;21
0;26
0;27
#421
0;0
1;1
1;3
1;6
1;9
0;14
0;15
#422
1;0
0;21
#423
0;0
0;1
0;2
0;3
0;4
1;5
0;6
0;7
1;8
0;10
0;11
0;13
1;14
1;15
#424
1;0
0;22
0;29
#425
0;0
1;1
1;6
1;7
0;8
1;10
1;11
1;13
0;14
#426
1;0
0;16
1;26
1;27
#427
0;0
0;1
1;3
0;5
0;7
0;9
0;13
1;14
#428
1;0
1;21
0;26
0;27
#429
0;0
1;1
1;2
1;5
0;6
1;7
1;8
0;10
0;11
1;12
#430
1;0
1;17
0;21
1;30
#431
0;0
1;4
1;6
0;7
0;8
1;9
1;11
0;12
0;15
#432
1;0
0;17
1;23
0;30
#433
0;0
0;4
0;6
0;11
1;12
1;13
0;14
1;15
#434
1;0
1;17
1;20
0;23
1;24
1;30
#435
0;0
0;1
0;2
0;3
1;4
1;8
0;9
1;10
1;11
0;13
1;14
#436
1;0
0;17
1;23
1;25
0;30
#437
0;0
0;5
1;6
1;7
0;8
1;9
0;11
#438
1;0
0;20
0;23
0;24
#439
0;0
1;1
1;2
1;3
0;4
0;6
0;7
0;10
1;11
0;12
1;13
#440
1;0
1;17
0;25
1;30
#441
0;0
0;1
1;6
1;7
1;12
0;15
#442
1;0
0;17
1;23
0;30
#443
0;0
1;1
1;5
1;8
0;14
#444
1;0
1;17
0;23
1;30
#445
0;0
0;1
0;3
0;6
0;9
1;10
0;13
1;14
1;15
#446
1;0
0;17
1;18
1;20
1;23
1;24
1;26
1;27
1;28
0;30
#447
0;0
1;1
0;2
0;5
1;6
0;7
0;11
#448
1;0
1;19
1;21
0;23
1;25
0;26
0;27
#449
0;0
1;2
1;4
1;5
0;6
1;7
1;9
0;10
0;12
1;13
0;14
#450
1;0
0;18
0;20
0;21
0;24
0;28
#451
0;0
0;1
1;3
0;4
0;5
0;8
1;10
1;11
1;12
0;13
0;15
#452
1;0
1;18
0;19
0;25
1;26
1;27
1;28
#453
0;0
0;3
1;6
0;7
1;8
0;9
0;12
1;14
1;15
#454
1;0
0;18
1;19
1;21
0;26
0;27
0;28
#455
0;0
1;1
1;4
0;6
1;7
0;10
0;15
#456
1;0
0;19
0;21
#457
0;0
0;1
1;3
0;4
1;6
0;7
0;8
0;11
1;13
0;14
1;15
#458
1;0
#459
0;0
0;3
0;6
1;7
1;8
1;10
1;12
0;15
#460
1;0
#461
0;0
1;1
0;2
1;5
0;10
1;11
0;12
0;13
#462
1;0
#463
0;0
1;4
0;7
0;8
1;13
1;14
#464
1;0
#465
0;0
1;6
1;7
0;11
0;13
0;14
#466
1;0
#467
0;0
1;2
1;3
0;6
1;8
1;10
1;11
1;12
1;13
#468
1;0
1;18
1;28
#469
0;0
0;4
0;8
0;10
0;11
0;13
1;14
1;15
#470
1;0
1;19
1;20
1;24
#471
0;0
0;1
0;2
1;4
1;9
1;10
0;12
1;13
0;15
#472
1;0
0;18
0;20
0;24
1;25
0;28
#473
0;0
1;1
1;2
0;4
0;7
1;12
0;13
0;14
#474
1;0
0;19
0;25
#475
0;0
0;3
0;5
1;6
0;9
1;11
0;12
1;13
1;15
#476
1;0
1;20
1;24
#477
0;0
0;2
1;4
1;7
1;8
0;10
0;11
0;13
#478
1;0
0;20
1;22
0;24
1;25
1;29
#479
0;0
0;1
1;2
0;6
0;7
0;8
1;14
0;15
#480
1;0
1;16
0;22
0;25
0;29
#481
0;0
0;4
1;6
1;8
0;14
#482
1;0
0;16
#483
0;0
1;1
0;2
1;3
1;4
1;5
0;8
1;14
1;15
#484
1;0
#485
0;0
1;2
0;3
0;6
1;8
1;11
0;14
0;15
#486
1;0
#487
0;0
0;1
0;4
1;7
1;10
1;13
1;15
#488
1;0
1;20
1;24
#489
0;0
1;1
1;4
0;5
0;7
1;9
0;10
1;12
0;13
#490
1;0
1;22
1;25
1;29
#491
0;0
0;1
0;2
0;4
1;6
0;8
0;9
0;12
1;13
1;14
0;15
#492
1;0
1;16
0;20
0;22
0;24
1;26
1;27
0;29
#493
0;0
1;3
1;4
1;5
1;7
1;8
#494
1;0
0;16
1;17
1;21
0;25
0;26
0;27
1;30
#495
0;0
1;2
0;3
0;5
0;7
0;8
1;9
1;10
0;14
1;15
#496
1;0
0;17
0;21
1;23
0;30
#497
0;0
1;1
0;2
1;3
0;4
1;5
1;7
0;9
0;10
0;13
#498
1;0
0;23
#499
0;0
0;1
1;2
0;5
1;9
1;13
0;15
#500
1;0
#501
0;0
1;5
0;6
1;8
1;10
1;14
#502
1;0
#503
0;0
1;1
1;6
0;9
0;10
1;12
0;14
#504
1;0
1;26
1;27
#505
0;0
0;8
0;13
1;14
