tool/synthetic_gen/raw_challenges/AndChain/test_input/faulty_traces/vcd/fault_18.vcd
$date
    Sep 29, 2025 05:39:53
$end
$version
    Tracer 3.0.0 - By Enrico Fraccaroli <enry.frak@gmail.com> --- 2022/02/15
$end
$timescale
    1ns
$end
$scope module AndChain_top_bench $end
$scope module AndChain_top_ $end
    $var wire 1 ;0 clk $end
    $var wire 1 ;1 b_2 $end
    $var wire 1 ;2 c_2 $end
    $var wire 1 ;3 c_0 $end
    $var wire 1 ;4 b_0 $end
    $var wire 1 ;5 a_3 $end
    $var wire 1 ;6 c_3 $end
    $var wire 1 ;7 a_0 $end
    $var wire 1 ;8 b_4 $end
    $var wire 1 ;9 a_1 $end
    $var wire 1 ;10 a_2 $end
    $var wire 1 ;11 b_3 $end
    $var wire 1 ;12 c_4 $end
    $var wire 1 ;13 c_1 $end
    $var wire 1 ;14 a_4 $end
    $var wire 1 ;15 b_1 $end
    $var wire 1 ;16 d_0 $end
    $var wire 1 ;17 e_4 $end
    $var wire 1 ;18 f_1 $end
    $var wire 1 ;19 f_4 $end
    $var wire 1 ;20 f_2 $end
    $var wire 1 ;21 e_3 $end
    $var wire 1 ;22 f_3 $end
    $var wire 1 ;23 d_1 $end
    $var wire 1 ;24 d_4 $end
    $var wire 1 ;25 e_1 $end
    $var wire 1 ;26 f_0 $end
    $var wire 1 ;27 e_0 $end
    $var wire 1 ;28 d_2 $end
    $var wire 1 ;29 d_3 $end
    $var wire 1 ;30 e_2 $end
$upscope $end
$upscope $end
$enddefinitions $end
#0
$dumpvars
1;0
0;1
0;2
0;3
0;4
0;5
0;6
0;7
0;8
0;9
0;10
0;11
0;12
0;13
0;14
0;15
0;16
0;17
0;18
0;19
0;20
0;21
0;22
0;23
0;24
0;25
0;26
0;27
0;28
0;29
0;30
$end
#1
0;0
1;1
1;3
1;4
1;5
1;6
1;9
1;10
1;12
1;14
1;15
#2
1;0
#3
0;0
0;1
0;3
0;4
0;5
1;8
0;10
0;12
1;13
#4
1;0
1;18
1;23
#5
0;0
1;1
1;5
1;7
0;8
1;11
1;12
0;15
#6
1;0
0;18
1;21
1;22
0;23
1;29
#7
0;0
1;4
0;5
0;7
1;8
0;9
0;12
0;13
0;14
1;15
#8
1;0
0;21
0;22
0;29
#9
0;0
1;2
1;9
1;10
0;11
1;12
1;14
0;15
#10
1;0
1;17
1;19
1;20
1;24
1;28
1;30
#11
0;0
0;2
0;8
0;9
0;10
1;13
0;14
1;15
#12
1;0
0;17
0;19
0;20
0;24
0;28
0;30
#13
0;0
0;1
0;4
1;5
0;6
1;10
1;11
0;12
0;13
#14
1;0
#15
0;0
1;1
1;2
1;4
0;5
1;8
0;10
1;12
1;13
#16
1;0
#17
0;0
0;1
1;3
1;5
1;6
1;7
1;9
1;10
0;12
1;14
0;15
#18
1;0
1;16
1;21
1;22
1;26
1;27
1;29
#19
0;0
1;1
0;2
0;5
0;6
0;8
0;13
0;14
1;15
#20
1;0
0;21
0;22
0;29
#21
0;0
0;1
1;2
0;3
1;6
0;7
1;8
#22
1;0
0;16
0;26
0;27
#23
0;0
0;4
0;6
0;9
1;12
1;13
1;14
0;15
#24
1;0
1;17
1;19
1;24
#25
0;0
1;3
1;5
1;6
#26
1;0
1;21
1;22
1;29
#27
0;0
0;6
1;9
0;11
0;12
0;13
0;14
#28
1;0
0;17
0;19
0;21
0;22
0;24
0;29
#29
0;0
0;2
1;4
0;9
1;12
1;14
#30
1;0
1;17
1;19
1;24
#31
0;0
1;2
0;4
0;5
1;6
0;8
1;11
0;14
1;15
#32
1;0
0;17
0;19
0;24
#33
0;0
0;2
1;4
0;6
1;9
0;10
1;13
0;15
#34
1;0
#35
0;0
1;1
0;3
0;4
1;7
0;9
0;11
0;12
#36
1;0
#37
0;0
0;1
1;4
1;5
0;7
1;8
1;9
1;10
1;11
#38
1;0
#39
0;0
1;1
1;2
1;3
0;5
1;6
1;7
0;9
0;10
0;13
#40
1;0
1;16
1;26
1;27
#41
0;0
0;1
0;2
0;3
0;4
0;8
1;9
1;15
#42
1;0
0;16
0;26
0;27
#43
0;0
1;1
1;5
0;6
1;8
0;9
1;10
1;12
1;13
1;14
0;15
#44
1;0
1;17
1;19
1;24
#45
0;0
1;2
1;4
0;8
0;10
0;11
0;12
0;13
#46
1;0
0;17
0;19
0;24
#47
0;0
0;2
0;4
0;5
0;7
1;8
1;9
1;11
0;14
1;15
#48
1;0
#49
0;0
0;1
1;5
1;6
1;7
0;8
0;9
1;10
0;11
1;13
1;14
#50
1;0
#51
0;0
1;3
0;5
0;7
1;8
1;9
1;11
0;15
#52
1;0
#53
0;0
1;2
0;3
0;6
0;9
0;10
0;11
1;12
0;13
0;14
#54
1;0
#55
0;0
0;2
1;4
1;6
1;7
1;15
#56
1;0
#57
0;0
1;5
0;6
1;9
1;10
1;11
0;12
1;14
0;15
#58
1;0
#59
0;0
1;2
0;7
0;8
0;10
0;11
1;13
0;14
#60
1;0
#61
0;0
0;2
1;6
1;7
0;9
1;10
1;12
1;15
#62
1;0
#63
0;0
1;1
1;2
0;5
1;9
1;14
#64
1;0
1;18
1;20
1;23
1;28
1;30
#65
0;0
0;2
1;5
0;9
1;11
0;12
0;14
0;15
#66
1;0
0;18
0;20
1;21
1;22
0;23
0;28
1;29
0;30
#67
0;0
0;1
1;2
1;3
0;4
0;5
0;7
1;9
1;12
1;15
#68
1;0
1;18
0;21
0;22
1;23
0;29
#69
0;0
0;6
1;8
0;9
0;10
0;12
0;13
0;15
#70
1;0
0;18
0;23
#71
0;0
0;2
0;3
1;7
0;8
1;10
0;11
1;12
1;14
1;15
#72
1;0
#73
0;0
1;1
1;2
1;6
0;7
1;13
0;14
#74
1;0
1;20
1;28
1;30
#75
0;0
0;2
1;3
1;4
0;6
0;10
1;11
0;12
0;13
1;14
#76
1;0
0;20
0;28
0;30
#77
0;0
1;2
0;4
1;5
1;6
1;7
1;9
1;10
1;12
1;13
0;14
#78
1;0
1;18
1;20
1;21
1;22
1;23
1;28
1;29
1;30
#79
0;0
0;1
0;6
0;7
1;8
0;9
0;10
1;14
0;15
#80
1;0
1;17
0;18
1;19
0;20
0;21
0;22
0;23
1;24
0;28
0;29
0;30
#81
0;0
1;4
1;6
0;8
1;9
1;10
0;12
0;13
0;14
#82
1;0
0;17
0;19
1;21
1;22
0;24
1;29
#83
0;0
1;1
0;6
1;7
1;8
1;12
#84
1;0
1;16
1;20
0;21
0;22
1;26
1;27
1;28
0;29
1;30
#85
0;0
0;1
0;4
0;5
0;9
0;10
0;11
0;12
1;14
#86
1;0
0;16
0;20
0;26
0;27
0;28
0;30
#87
0;0
0;2
1;4
1;5
0;7
0;8
1;9
1;10
1;11
1;12
1;15
#88
1;0
#89
0;0
1;1
0;3
0;4
0;5
1;6
1;7
1;8
0;9
0;12
1;13
#90
1;0
#91
0;0
0;1
1;2
1;4
0;7
0;8
0;11
1;12
0;13
0;14
#92
1;0
#93
0;0
1;3
0;4
1;7
1;8
0;15
#94
1;0
#95
0;0
1;1
0;2
1;4
1;5
1;11
0;12
1;14
#96
1;0
1;16
1;21
1;22
1;26
1;27
1;29
#97
0;0
1;2
0;3
0;4
0;5
0;6
1;9
1;12
1;15
#98
1;0
0;16
1;17
1;19
1;20
0;21
0;22
1;24
0;26
0;27
1;28
0;29
1;30
#99
0;0
0;1
0;2
1;3
1;4
1;6
0;9
0;11
1;13
0;14
#100
1;0
1;16
0;17
0;19
0;20
0;24
1;26
1;27
0;28
0;30
#101
0;0
1;1
0;3
0;6
0;8
0;10
1;11
0;13
0;15
#102
1;0
0;16
0;26
0;27
#103
0;0
0;7
1;8
1;9
0;11
1;14
#104
1;0
1;17
1;19
1;24
#105
0;0
0;9
0;12
1;13
0;14
#106
1;0
0;17
0;19
0;24
#107
0;0
1;2
0;8
1;9
1;10
1;11
1;12
1;14
#108
1;0
1;20
1;28
1;30
#109
0;0
0;2
1;3
1;5
1;6
1;7
1;8
0;9
0;10
0;12
0;13
0;14
#110
1;0
1;16
0;20
1;21
1;22
1;26
1;27
0;28
1;29
0;30
#111
0;0
0;1
1;2
0;3
0;4
0;6
1;9
0;11
1;14
1;15
#112
1;0
0;16
0;21
0;22
0;26
0;27
0;29
#113
0;0
0;2
1;3
1;4
0;7
0;9
1;10
1;11
1;12
1;13
0;15
#114
1;0
1;17
1;19
1;24
#115
0;0
1;2
0;4
0;8
1;9
0;12
1;15
#116
1;0
0;17
1;18
0;19
1;23
0;24
#117
0;0
0;3
1;4
1;6
1;8
0;9
0;10
0;11
1;12
0;14
0;15
#118
1;0
0;18
0;23
#119
0;0
1;1
0;2
1;3
0;5
1;7
0;8
1;9
1;10
0;12
1;14
1;15
#120
1;0
1;16
1;18
1;23
1;26
1;27
#121
0;0
0;1
0;4
1;5
0;6
0;7
1;8
0;10
1;11
0;13
0;15
#122
1;0
0;16
0;18
0;23
0;26
0;27
#123
0;0
0;3
1;7
0;9
0;11
1;13
#124
1;0
#125
0;0
1;2
1;4
0;5
1;6
0;8
1;9
1;10
0;14
1;15
#126
1;0
1;18
1;23
#127
0;0
1;1
1;5
0;9
0;13
1;14
#128
1;0
0;18
1;20
0;23
1;28
1;30
#129
0;0
0;1
0;2
1;3
0;4
1;8
1;9
0;10
1;12
1;13
0;15
#130
1;0
1;17
1;19
0;20
1;24
0;28
0;30
#131
0;0
0;6
0;7
0;8
0;9
1;11
0;12
#132
1;0
0;17
0;19
0;24
#133
0;0
1;2
0;3
1;4
1;6
1;8
1;10
0;14
1;15
#134
1;0
1;21
1;22
1;29
#135
0;0
1;1
1;3
0;4
0;6
0;10
0;11
0;13
1;14
#136
1;0
0;21
0;22
0;29
#137
0;0
0;1
1;9
1;11
1;12
1;13
0;14
#138
1;0
1;18
1;23
#139
0;0
0;3
1;10
1;14
0;15
#140
1;0
1;17
0;18
1;19
0;23
1;24
#141
0;0
0;2
1;4
0;5
1;6
0;8
0;9
0;13
0;14
1;15
#142
1;0
0;17
0;19
0;24
#143
0;0
0;4
1;8
0;10
0;11
1;13
1;14
#144
1;0
1;17
1;19
1;24
#145
0;0
1;2
1;3
1;5
1;7
1;10
#146
1;0
#147
0;0
1;4
0;6
0;7
0;8
1;9
0;13
0;15
#148
1;0
0;17
0;19
0;24
#149
0;0
1;1
0;4
0;10
0;12
1;13
1;15
#150
1;0
1;18
1;23
#151
0;0
0;1
0;3
1;4
0;5
1;6
1;7
1;8
1;12
0;14
#152
1;0
#153
0;0
1;1
0;2
0;6
0;8
0;9
1;10
0;12
1;14
#154
1;0
0;18
0;23
#155
0;0
0;1
1;2
1;3
0;4
1;5
1;6
1;11
0;13
0;14
#156
1;0
1;21
1;22
1;29
#157
0;0
1;1
0;2
0;7
0;10
1;13
0;15
#158
1;0
#159
0;0
0;1
1;4
0;5
0;6
1;7
1;9
1;10
0;13
1;14
#160
1;0
1;16
0;21
0;22
1;26
1;27
0;29
#161
0;0
1;1
1;2
0;3
0;4
1;5
1;6
1;8
0;9
1;12
0;14
#162
1;0
0;16
1;20
1;21
1;22
0;26
0;27
1;28
1;29
1;30
#163
0;0
0;1
1;4
0;5
0;7
1;9
0;12
1;13
1;14
1;15
#164
1;0
1;18
0;20
0;21
0;22
1;23
0;28
0;29
0;30
#165
0;0
1;1
0;2
0;4
1;7
0;9
0;15
#166
1;0
0;18
0;23
#167
0;0
1;2
1;3
1;4
0;6
0;7
0;8
1;9
0;14
1;15
#168
1;0
1;18
1;20
1;23
1;28
1;30
#169
0;0
0;2
1;6
1;7
1;8
#170
1;0
1;16
0;20
1;26
1;27
0;28
0;30
#171
0;0
0;1
1;2
0;3
0;6
0;11
#172
1;0
0;16
0;26
0;27
#173
0;0
1;1
1;3
0;4
1;6
0;7
0;9
1;11
1;12
#174
1;0
0;18
1;20
0;23
1;28
1;30
#175
0;0
0;1
0;2
0;3
0;11
0;12
0;13
0;15
#176
1;0
0;20
0;28
0;30
#177
0;0
1;1
1;2
1;3
1;5
0;6
1;7
1;9
1;13
1;14
1;15
#178
1;0
1;18
1;20
1;23
1;28
1;30
#179
0;0
0;1
1;4
1;6
0;7
0;8
0;10
1;11
1;12
0;13
#180
1;0
0;18
0;20
1;21
1;22
0;23
0;28
1;29
0;30
#181
0;0
1;1
0;2
0;3
0;4
0;5
0;6
1;8
0;12
0;14
#182
1;0
0;21
0;22
0;29
#183
0;0
1;3
1;4
1;5
0;9
1;10
1;13
#184
1;0
#185
0;0
0;1
1;2
0;3
1;7
0;8
0;10
0;11
1;12
0;13
#186
1;0
#187
0;0
0;2
1;3
1;6
1;8
1;11
0;12
0;15
#188
1;0
1;16
1;21
1;22
1;26
1;27
1;29
#189
0;0
1;1
0;6
0;7
0;8
1;13
1;14
1;15
#190
1;0
0;16
0;21
0;22
0;26
0;27
0;29
#191
0;0
0;1
1;2
0;5
1;9
1;10
0;11
0;14
0;15
#192
1;0
#193
0;0
1;1
0;4
1;5
1;8
1;11
1;15
#194
1;0
1;18
1;20
1;23
1;28
1;30
#195
0;0
0;1
0;2
1;4
1;6
1;7
0;8
1;12
#196
1;0
1;16
0;20
1;21
1;22
1;26
1;27
0;28
1;29
0;30
#197
0;0
1;2
0;6
1;8
0;10
0;11
0;12
0;13
0;15
#198
1;0
0;18
0;21
0;22
0;23
0;29
#199
0;0
0;2
0;3
0;5
1;6
0;7
1;13
#200
1;0
0;16
0;26
0;27
#201
0;0
1;1
1;3
0;4
1;5
0;6
0;8
0;9
1;10
1;11
1;14
#202
1;0
#203
0;0
1;2
1;4
0;5
1;6
1;8
0;10
1;12
0;13
0;14
1;15
#204
1;0
#205
0;0
0;4
1;5
0;6
1;7
1;10
0;11
1;13
1;14
#206
1;0
1;17
1;19
1;20
1;24
1;28
1;30
#207
0;0
0;1
0;2
0;3
1;4
1;6
0;7
0;8
0;10
0;14
#208
1;0
0;17
0;19
0;20
0;24
0;28
0;30
#209
0;0
1;2
1;3
0;5
0;6
1;7
1;8
0;12
1;14
0;15
#210
1;0
1;16
1;26
1;27
#211
0;0
0;3
0;7
0;8
1;11
0;14
#212
1;0
0;16
0;26
0;27
#213
0;0
1;9
0;11
1;12
0;13
1;14
#214
1;0
#215
0;0
0;2
1;5
1;7
1;8
1;10
1;11
0;12
1;13
0;14
#216
1;0
#217
0;0
1;1
1;3
0;5
0;8
0;9
0;10
0;11
1;15
#218
1;0
1;16
1;26
1;27
#219
0;0
0;1
1;2
0;4
0;7
1;8
1;9
1;10
1;14
0;15
#220
1;0
0;16
0;26
0;27
#221
0;0
0;2
1;4
1;6
1;7
1;12
1;15
#222
1;0
1;16
1;17
1;18
1;19
1;23
1;24
1;26
1;27
#223
0;0
1;1
1;2
0;3
0;4
1;5
0;6
0;8
0;10
1;11
0;15
#224
1;0
0;16
0;17
0;18
0;19
0;23
0;24
0;26
0;27
#225
0;0
1;3
0;5
1;6
0;9
0;12
#226
1;0
#227
0;0
0;2
1;4
0;7
1;8
1;9
1;10
0;11
1;15
#228
1;0
1;18
1;23
#229
0;0
0;3
0;4
1;5
1;7
0;8
0;10
1;11
0;13
0;14
#230
1;0
0;18
1;21
1;22
0;23
1;29
#231
0;0
0;1
1;2
1;3
0;6
1;8
0;11
1;12
1;14
0;15
#232
1;0
1;17
1;19
0;21
0;22
1;24
0;29
#233
0;0
0;9
1;11
1;13
#234
1;0
#235
0;0
0;2
0;5
0;7
1;9
1;10
0;12
1;15
#236
1;0
0;17
1;18
0;19
1;23
0;24
#237
0;0
1;1
1;2
0;3
0;11
0;13
#238
1;0
0;18
1;20
0;23
1;28
1;30
#239
0;0
0;1
1;3
1;5
1;6
0;9
0;10
1;11
1;12
0;14
#240
1;0
0;20
1;21
1;22
0;28
1;29
0;30
#241
0;0
1;1
0;3
0;5
0;6
0;8
1;10
0;12
1;13
#242
1;0
1;20
0;21
0;22
1;28
0;29
1;30
#243
0;0
0;1
0;2
1;7
1;8
1;9
0;10
1;14
0;15
#244
1;0
0;20
0;28
0;30
#245
0;0
1;4
0;8
0;9
1;10
0;14
#246
1;0
#247
0;0
1;2
1;5
1;6
0;10
0;11
1;12
#248
1;0
#249
0;0
1;1
0;2
1;8
1;9
0;13
1;15
#250
1;0
#251
0;0
0;1
0;4
0;8
0;9
1;10
1;11
0;12
0;15
#252
1;0
1;21
1;22
1;29
#253
0;0
1;2
1;3
1;4
0;6
0;7
1;9
0;11
#254
1;0
0;21
0;22
0;29
#255
0;0
0;2
0;3
0;4
0;9
0;10
1;12
1;15
#256
1;0
#257
0;0
1;1
1;2
1;3
0;5
1;11
#258
1;0
#259
0;0
0;1
0;2
0;3
1;6
1;9
1;10
0;11
1;14
0;15
#260
1;0
#261
0;0
1;3
1;4
1;7
0;12
0;14
#262
1;0
1;16
1;26
1;27
#263
0;0
0;3
0;4
1;5
1;8
0;10
1;14
1;15
#264
1;0
0;16
0;26
0;27
#265
0;0
1;2
1;3
1;4
0;5
0;7
1;10
1;13
0;15
#266
1;0
#267
0;0
0;4
1;5
0;6
1;7
0;8
0;14
1;15
#268
1;0
1;18
1;23
#269
0;0
0;2
0;3
1;4
0;7
1;8
1;12
0;15
#270
1;0
0;18
0;23
#271
0;0
1;3
0;5
1;7
0;8
0;9
0;10
1;11
0;13
1;15
#272
1;0
1;16
1;26
1;27
#273
0;0
1;1
0;3
1;5
1;6
1;8
1;9
0;11
#274
1;0
0;16
0;26
0;27
#275
0;0
0;1
1;3
0;4
0;6
0;7
0;8
0;9
1;10
1;14
#276
1;0
#277
0;0
1;1
1;4
0;5
1;7
1;8
1;9
0;10
1;13
0;14
#278
1;0
1;16
1;18
1;23
1;26
1;27
#279
0;0
0;4
0;7
0;9
0;15
#280
1;0
0;16
0;18
0;23
0;26
0;27
#281
0;0
0;1
1;2
0;3
1;4
1;5
1;7
0;8
0;12
0;13
1;14
#282
1;0
#283
0;0
1;1
0;2
1;6
1;8
1;13
#284
1;0
#285
0;0
1;3
0;6
0;7
1;11
0;13
#286
1;0
#287
0;0
0;1
1;2
0;3
0;4
0;5
1;6
1;7
1;9
1;10
1;12
1;13
0;14
#288
1;0
#289
0;0
1;1
1;4
1;5
0;6
0;10
0;12
0;13
1;14
#290
1;0
#291
0;0
0;1
1;3
1;6
0;7
0;9
1;10
0;11
0;14
#292
1;0
#293
0;0
1;1
0;3
0;5
1;7
0;8
0;10
1;12
1;13
#294
1;0
#295
0;0
1;3
0;4
0;6
1;9
1;10
0;12
#296
1;0
1;20
1;28
1;30
#297
0;0
0;1
1;5
0;9
1;11
0;13
#298
1;0
0;20
0;28
0;30
#299
0;0
1;4
1;6
1;13
1;14
#300
1;0
1;16
1;21
1;22
1;26
1;27
1;29
#301
0;0
1;1
0;3
0;4
0;7
1;9
0;10
0;13
#302
1;0
0;16
0;26
0;27
#303
0;0
1;3
0;5
0;6
1;8
0;9
0;11
1;15
#304
1;0
0;21
0;22
0;29
#305
0;0
0;1
0;2
0;3
1;5
1;6
1;7
1;9
1;10
1;13
0;14
#306
1;0
1;18
1;23
#307
0;0
1;2
1;4
0;5
0;6
0;7
0;8
0;10
0;13
#308
1;0
0;18
0;23
#309
0;0
1;1
0;2
1;5
1;6
0;9
1;10
1;11
1;13
1;14
#310
1;0
1;21
1;22
1;29
#311
0;0
0;1
1;2
0;4
0;5
0;6
0;10
0;13
0;15
#312
1;0
0;21
0;22
0;29
#313
0;0
1;1
1;3
1;4
1;8
1;10
0;11
1;13
0;14
1;15
#314
1;0
1;20
1;28
1;30
#315
0;0
0;1
0;2
0;3
1;5
1;7
1;9
0;10
1;11
0;13
1;14
#316
1;0
0;20
0;28
0;30
#317
0;0
1;1
1;2
0;4
0;5
1;6
0;7
0;9
0;11
0;15
#318
1;0
#319
0;0
0;2
1;3
1;4
1;5
0;6
0;8
1;9
1;10
1;12
1;13
#320
1;0
#321
0;0
0;1
0;5
0;10
0;13
#322
1;0
#323
0;0
1;1
0;3
0;4
1;6
0;9
1;10
1;11
0;12
0;14
1;15
#324
1;0
#325
0;0
1;3
1;5
1;8
1;9
#326
1;0
1;21
1;22
1;29
#327
0;0
1;2
1;4
1;7
0;11
1;13
1;14
0;15
#328
1;0
1;16
1;20
0;21
0;22
1;26
1;27
1;28
0;29
1;30
#329
0;0
0;2
0;4
0;5
0;6
0;7
0;9
1;12
1;15
#330
1;0
0;16
1;17
1;19
0;20
1;24
0;26
0;27
0;28
0;30
#331
0;0
0;1
0;3
1;5
1;6
1;7
0;8
1;11
0;15
#332
1;0
0;17
0;19
1;21
1;22
0;24
1;29
#333
0;0
1;4
0;5
0;6
1;9
0;11
0;12
1;15
#334
1;0
1;18
0;21
0;22
1;23
0;29
#335
0;0
1;3
0;7
1;8
0;13
0;14
#336
1;0
0;18
0;23
#337
0;0
0;4
1;5
0;8
0;9
0;10
1;14
0;15
#338
1;0
#339
0;0
1;1
1;2
0;3
0;5
1;8
1;9
1;10
0;14
#340
1;0
1;20
1;28
1;30
#341
0;0
0;2
1;4
1;6
1;7
0;8
1;12
#342
1;0
0;20
0;28
0;30
#343
0;0
0;1
1;2
0;4
1;5
0;6
0;7
1;11
1;13
1;14
1;15
#344
1;0
1;18
1;23
#345
0;0
1;1
1;3
1;4
0;5
1;6
1;8
0;9
0;10
0;11
0;12
0;14
#346
1;0
0;18
0;23
#347
0;0
0;1
0;2
0;3
0;4
0;6
0;8
1;12
1;14
#348
1;0
#349
0;0
1;1
1;2
1;8
1;9
1;11
0;13
0;14
0;15
#350
1;0
#351
0;0
0;2
1;6
1;13
1;15
#352
1;0
1;18
1;23
#353
0;0
0;1
1;2
0;6
0;8
1;10
0;11
0;12
#354
1;0
#355
0;0
1;1
0;2
1;3
1;4
0;10
1;14
0;15
#356
1;0
0;18
0;23
#357
0;0
0;1
0;3
0;4
1;7
1;8
0;9
#358
1;0
#359
0;0
1;4
0;8
0;13
0;14
#360
1;0
#361
0;0
1;1
1;5
1;9
1;10
1;13
1;14
1;15
#362
1;0
1;18
1;23
#363
0;0
1;2
0;4
0;7
0;9
1;11
1;12
#364
1;0
0;18
1;20
0;23
1;28
1;30
#365
0;0
0;2
1;3
1;4
0;14
0;15
#366
1;0
0;20
0;28
0;30
#367
0;0
0;3
0;5
1;6
1;7
1;9
0;12
0;13
1;14
#368
1;0
#369
0;0
0;6
0;9
0;10
1;13
#370
1;0
#371
0;0
1;5
0;7
1;9
0;13
0;14
1;15
#372
1;0
#373
0;0
0;1
1;2
0;5
1;7
0;9
1;10
0;11
1;12
1;13
1;14
0;15
#374
1;0
#375
0;0
0;2
0;4
1;6
1;9
0;10
0;13
1;15
#376
1;0
#377
0;0
1;2
0;7
1;8
1;11
1;13
0;14
0;15
#378
1;0
#379
0;0
0;2
1;5
0;6
0;8
1;10
0;11
0;13
#380
1;0
#381
0;0
1;1
0;5
1;7
0;9
0;10
1;13
1;15
#382
1;0
#383
0;0
1;4
1;6
0;7
1;9
1;10
0;13
#384
1;0
#385
0;0
0;6
1;7
1;8
1;11
#386
1;0
#387
0;0
0;1
1;2
1;3
0;4
0;8
0;9
0;10
0;12
1;13
#388
1;0
#389
0;0
1;6
1;8
1;12
1;14
#390
1;0
1;17
1;19
1;24
#391
0;0
1;1
0;3
1;5
0;6
0;7
0;8
1;9
1;10
0;11
0;12
0;15
#392
1;0
0;17
0;19
1;20
0;24
1;28
1;30
#393
0;0
0;1
0;2
1;3
1;4
0;5
1;6
1;8
0;10
1;11
1;15
#394
1;0
1;18
0;20
1;23
0;28
0;30
#395
0;0
0;4
0;6
1;7
0;11
1;12
0;13
#396
1;0
1;17
0;18
1;19
0;23
1;24
#397
0;0
1;1
1;5
1;6
0;7
0;8
1;10
0;12
1;13
0;14
#398
1;0
0;17
1;18
0;19
1;23
0;24
#399
0;0
0;1
1;4
0;6
1;12
0;13
0;15
#400
1;0
0;18
0;23
#401
0;0
1;1
1;2
0;3
0;4
0;5
0;9
1;11
0;12
1;13
#402
1;0
1;20
1;28
1;30
#403
0;0
0;2
1;3
0;13
1;14
#404
1;0
0;20
0;28
0;30
#405
0;0
1;2
0;3
1;4
1;5
1;7
1;8
0;11
1;12
0;14
1;15
#406
1;0
1;20
1;28
1;30
#407
0;0
0;1
1;3
1;6
0;8
1;9
1;11
0;12
1;13
0;15
#408
1;0
1;16
0;20
1;21
1;22
1;26
1;27
0;28
1;29
0;30
#409
0;0
0;4
0;5
0;6
0;7
0;9
0;10
1;14
#410
1;0
0;16
0;21
0;22
0;26
0;27
0;29
#411
0;0
0;2
1;4
1;5
1;6
1;7
1;8
1;9
0;11
0;14
#412
1;0
1;16
1;26
1;27
#413
0;0
1;1
0;4
0;5
0;6
0;7
0;8
0;9
1;12
1;14
1;15
#414
1;0
0;16
0;26
0;27
#415
0;0
1;2
1;4
1;8
1;9
1;10
0;12
0;15
#416
1;0
1;20
1;28
1;30
#417
0;0
0;1
0;2
0;3
1;7
0;8
0;9
1;11
0;14
1;15
#418
1;0
0;20
0;28
0;30
#419
0;0
1;2
1;14
#420
1;0
#421
0;0
1;1
1;3
1;6
1;9
0;14
0;15
#422
1;0
1;16
1;20
1;26
1;27
1;28
1;30
#423
0;0
0;1
0;2
0;3
0;4
1;5
0;6
0;7
1;8
0;10
0;11
0;13
1;14
1;15
#424
1;0
0;16
0;20
0;26
0;27
0;28
0;30
#425
0;0
1;1
1;6
1;7
0;8
1;10
1;11
1;13
0;14
#426
1;0
1;18
1;21
1;22
1;23
1;29
#427
0;0
0;1
1;3
0;5
0;7
0;9
0;13
1;14
#428
1;0
0;18
0;21
0;22
0;23
0;29
#429
0;0
1;1
1;2
1;5
0;6
1;7
1;8
0;10
0;11
1;12
#430
1;0
1;17
1;19
1;24
#431
0;0
1;4
1;6
0;7
0;8
1;9
1;11
0;12
0;15
#432
1;0
0;17
0;19
1;21
1;22
0;24
1;29
#433
0;0
0;4
0;6
0;11
1;12
1;13
0;14
1;15
#434
1;0
1;18
0;21
0;22
1;23
0;29
#435
0;0
0;1
0;2
0;3
1;4
1;8
0;9
1;10
1;11
0;13
1;14
#436
1;0
1;17
0;18
1;19
0;23
1;24
#437
0;0
0;5
1;6
1;7
0;8
1;9
0;11
#438
1;0
0;17
0;19
0;24
#439
0;0
1;1
1;2
1;3
0;4
0;6
0;7
0;10
1;11
0;12
1;13
#440
1;0
1;18
1;23
#441
0;0
0;1
1;6
1;7
1;12
0;15
#442
1;0
0;18
0;23
#443
0;0
1;1
1;5
1;8
0;14
#444
1;0
1;21
1;22
1;29
#445
0;0
0;1
0;3
0;6
0;9
1;10
0;13
1;14
1;15
#446
1;0
1;17
1;19
0;21
0;22
1;24
0;29
#447
0;0
1;1
0;2
0;5
1;6
0;7
0;11
#448
1;0
#449
0;0
1;2
1;4
1;5
0;6
1;7
1;9
0;10
0;12
1;13
0;14
#450
1;0
0;17
1;18
0;19
1;23
0;24
#451
0;0
0;1
1;3
0;4
0;5
0;8
1;10
1;11
1;12
0;13
0;15
#452
1;0
0;18
0;23
#453
0;0
0;3
1;6
0;7
1;8
0;9
0;12
1;14
1;15
#454
1;0
#455
0;0
1;1
1;4
0;6
1;7
0;10
0;15
#456
1;0
#457
0;0
0;1
1;3
0;4
1;6
0;7
0;8
0;11
1;13
0;14
1;15
#458
1;0
#459
0;0
0;3
0;6
1;7
1;8
1;10
1;12
0;15
#460
1;0
#461
0;0
1;1
0;2
1;5
0;10
1;11
0;12
0;13
#462
1;0
#463
0;0
1;4
0;7
0;8
1;13
1;14
#464
1;0
#465
0;0
1;6
1;7
0;11
0;13
0;14
#466
1;0
#467
0;0
1;2
1;3
0;6
1;8
1;10
1;11
1;12
1;13
#468
1;0
1;16
1;20
1;26
1;27
1;28
1;30
#469
0;0
0;4
0;8
0;10
0;11
0;13
1;14
1;15
#470
1;0
0;16
0;20
0;26
0;27
0;28
0;30
#471
0;0
0;1
0;2
1;4
1;9
1;10
0;12
1;13
0;15
#472
1;0
1;16
1;26
1;27
#473
0;0
1;1
1;2
0;4
0;7
1;12
0;13
0;14
#474
1;0
0;16
1;20
0;26
0;27
1;28
1;30
#475
0;0
0;3
0;5
1;6
0;9
1;11
0;12
1;13
1;15
#476
1;0
#477
0;0
0;2
1;4
1;7
1;8
0;10
0;11
0;13
#478
1;0
0;20
0;28
0;30
#479
0;0
0;1
1;2
0;6
0;7
0;8
1;14
0;15
#480
1;0
#481
0;0
0;4
1;6
1;8
0;14
#482
1;0
#483
0;0
1;1
0;2
1;3
1;4
1;5
0;8
1;14
1;15
#484
1;0
#485
0;0
1;2
0;3
0;6
1;8
1;11
0;14
0;15
#486
1;0
#487
0;0
0;1
0;4
1;7
1;10
1;13
1;15
#488
1;0
#489
0;0
1;1
1;4
0;5
0;7
1;9
0;10
1;12
0;13
#490
1;0
#491
0;0
0;1
0;2
0;4
1;6
0;8
0;9
0;12
1;13
1;14
0;15
#492
1;0
#493
0;0
1;3
1;4
1;5
1;7
1;8
#494
1;0
1;16
1;21
1;22
1;26
1;27
1;29
#495
0;0
1;2
0;3
0;5
0;7
0;8
1;9
1;10
0;14
1;15
#496
1;0
0;16
1;18
0;21
0;22
1;23
0;26
0;27
0;29
#497
0;0
1;1
0;2
1;3
0;4
1;5
1;7
0;9
0;10
0;13
#498
1;0
0;18
1;21
1;22
0;23
1;29
#499
0;0
0;1
1;2
0;5
1;9
1;13
0;15
#500
1;0
0;21
0;22
0;29
#501
0;0
1;5
0;6
1;8
1;10
1;14
#502
1;0
#503
0;0
1;1
1;6
0;9
0;10
1;12
0;14
#504
1;0
1;21
1;22
1;29
#505
0;0
0;8
0;13
1;14
#506
1;0
#507
0;0
0;1
0;2
0;5
0;6
1;8
1;9
1;10
1;13
0;14
1;15
#508
1;0
1;18
0;21
0;22
1;23
0;29
#509
0;0
1;1
0;3
1;6
0;13
1;14
0;15
#510
1;0
1;17
0;18
1;19
0;23
1;24
