tool/synthetic_gen/work/faulty_traces/vcd/fault_9.vcd
$date
    Oct 02, 2025 04:18:32
$end
$version
    Tracer 3.0.0 - By Enrico Fraccaroli <enry.frak@gmail.com> --- 2022/02/15
$end
$timescale
    1ns
$end
$scope module sample__bench $end
$scope module sample__ $end
    $var wire 1 ;0 clk $end
    $var wire 1 ;1 a_2 $end
    $var wire 1 ;2 a_1 $end
    $var wire 1 ;3 b_2 $end
    $var wire 1 ;4 b_1 $end
    $var wire 1 ;5 b_0 $end
    $var wire 1 ;6 a_0 $end
    $var wire 1 ;7 d_1 $end
    $var wire 1 ;8 c_0 $end
    $var wire 1 ;9 c_2 $end
    $var wire 1 ;10 d_0 $end
    $var wire 1 ;11 d_2 $end
    $var wire 1 ;12 c_1 $end
$upscope $end
$upscope $end
$enddefinitions $end
#0
$dumpvars
1;0
0;1
0;2
0;3
0;4
0;5
0;6
0;7
0;8
0;9
0;10
0;11
0;12
$end
#1
0;0
1;1
1;3
1;4
1;5
1;6
#2
1;0
1;8
1;9
#3
0;0
0;1
0;5
0;8
#4
1;0
0;9
#5
0;0
1;2
0;4
0;6
#6
1;0
1;11
#7
0;0
0;2
1;5
1;6
#8
1;0
1;8
0;11
#9
0;0
0;3
1;4
#10
1;0
#11
0;0
1;1
0;4
#12
1;0
1;10
#13
0;0
1;3
1;9
#14
1;0
#15
0;0
1;2
0;3
1;4
0;5
0;6
0;8
0;9
#16
1;0
1;11
1;12
#17
0;0
0;2
1;3
0;4
1;5
1;9
0;12
#18
1;0
0;10
0;11
#19
0;0
0;1
1;2
0;3
0;5
1;6
0;9
#20
1;0
1;11
#21
0;0
1;1
1;4
1;12
#22
1;0
0;11
#23
0;0
0;1
1;3
1;9
#24
1;0
1;7
0;9
#25
0;0
0;3
0;6
#26
1;0
1;11
#27
0;0
1;1
0;2
1;3
0;4
0;12
#28
1;0
1;9
0;11
#29
0;0
0;1
1;4
1;6
#30
1;0
0;7
0;9
#31
0;0
0;3
0;4
1;5
0;6
1;8
#32
1;0
0;8
1;11
#33
0;0
1;4
#34
1;0
1;10
0;11
#35
0;0
1;3
#36
1;0
0;10
#37
0;0
1;1
0;3
0;4
#38
1;0
#39
0;0
0;1
1;2
1;3
1;4
0;5
1;6
1;9
#40
1;0
0;9
1;12
#41
0;0
1;5
1;8
#42
1;0
1;11
#43
0;0
1;1
0;6
#44
1;0
1;7
0;8
1;9
1;10
0;11
#45
0;0
0;3
0;5
1;6
0;9
#46
1;0
#47
0;0
0;2
#48
1;0
0;10
0;12
#49
0;0
1;2
0;4
#50
1;0
#51
0;0
0;1
1;4
1;12
#52
1;0
0;7
#53
0;0
1;3
1;5
0;6
1;8
#54
1;0
1;7
0;8
#55
0;0
0;2
0;4
0;12
#56
1;0
1;10
#57
0;0
0;3
#58
1;0
0;7
0;10
#59
0;0
1;1
1;2
1;3
1;4
#60
1;0
1;9
1;12
#61
0;0
0;1
0;4
1;6
0;12
#62
1;0
1;8
0;9
#63
0;0
0;3
1;4
1;12
#64
1;0
1;11
#65
0;0
1;1
0;4
0;12
#66
1;0
1;7
1;10
0;11
#67
0;0
0;1
#68
1;0
0;7
#69
0;0
1;1
0;2
0;5
0;6
0;8
#70
1;0
#71
0;0
0;1
1;3
1;4
1;5
1;9
#72
1;0
0;9
0;10
#73
0;0
1;2
0;3
0;5
1;6
#74
1;0
1;11
1;12
#75
0;0
0;4
1;5
1;8
0;12
#76
1;0
0;11
#77
0;0
0;2
1;3
0;5
0;6
0;8
#78
1;0
1;10
#79
0;0
1;1
1;2
1;6
#80
1;0
1;9
0;10
#81
0;0
0;1
0;2
1;4
0;6
1;12
#82
1;0
0;9
0;12
#83
0;0
0;4
1;5
1;6
#84
1;0
1;7
1;8
1;11
#85
0;0
1;1
0;3
1;4
0;5
0;6
0;8
#86
1;0
0;7
0;11
#87
0;0
0;1
#88
1;0
#89
0;0
#90
1;0
#91
0;0
1;5
#92
1;0
#93
0;0
1;2
1;3
#94
1;0
1;12
#95
0;0
1;1
0;2
0;3
1;6
#96
1;0
1;8
0;12
#97
0;0
1;3
0;6
1;9
#98
1;0
1;7
0;8
#99
0;0
0;1
1;2
0;3
0;4
0;5
0;9
#100
1;0
0;7
1;10
1;11
#101
0;0
0;2
1;6
#102
1;0
0;10
0;11
#103
0;0
1;1
1;3
1;5
0;6
1;8
#104
1;0
0;8
1;9
#105
0;0
0;1
1;4
0;5
#106
1;0
0;9
1;10
#107
0;0
1;2
0;3
1;5
#108
1;0
0;10
1;11
1;12
#109
0;0
1;1
1;3
#110
1;0
1;9
0;11
#111
0;0
0;3
0;9
#112
1;0
1;7
#113
0;0
0;2
0;4
0;5
0;12
#114
1;0
#115
0;0
0;1
1;2
1;4
#116
1;0
0;7
1;12
#117
0;0
0;2
0;4
1;5
1;6
0;12
#118
1;0
1;8
#119
0;0
1;2
0;5
0;8
#120
1;0
#121
0;0
0;2
1;5
1;8
#122
1;0
#123
0;0
1;1
1;4
0;5
0;6
0;8
#124
1;0
1;10
#125
0;0
1;2
1;3
0;4
1;6
1;9
#126
1;0
0;10
#127
0;0
0;1
0;2
1;5
1;8
#128
1;0
0;9
1;11
#129
0;0
1;1
1;2
0;3
1;4
0;6
#130
1;0
0;8
1;10
1;12
#131
0;0
0;1
0;4
0;5
0;12
#132
1;0
0;11
#133
0;0
1;6
#134
1;0
0;10
#135
0;0
0;2
0;6
#136
1;0
#137
0;0
1;1
1;3
1;4
1;5
#138
1;0
1;9
#139
0;0
0;1
0;4
0;5
1;6
#140
1;0
0;9
#141
0;0
0;3
1;4
1;5
0;6
1;8
#142
1;0
0;8
1;11
#143
0;0
1;1
1;2
1;3
#144
1;0
1;9
1;10
0;11
1;12
#145
0;0
0;1
0;3
0;4
0;9
0;12
#146
1;0
0;10
#147
0;0
1;1
0;5
1;6
#148
1;0
#149
0;0
0;1
0;2
1;4
0;6
1;12
#150
1;0
0;12
#151
0;0
1;5
1;6
#152
1;0
1;7
1;8
#153
0;0
1;1
0;5
0;8
#154
1;0
0;7
#155
0;0
1;3
1;5
0;6
1;8
1;9
#156
1;0
0;8
#157
0;0
0;5
1;6
#158
1;0
1;10
1;11
#159
0;0
1;5
1;8
#160
1;0
0;10
#161
0;0
0;3
0;9
#162
1;0
1;10
#163
0;0
0;6
#164
1;0
0;8
0;11
#165
0;0
0;4
1;6
#166
1;0
1;8
#167
0;0
0;1
1;3
0;5
0;8
1;9
#168
1;0
0;9
0;10
#169
0;0
1;1
1;2
1;4
#170
1;0
1;9
1;11
1;12
#171
0;0
0;1
0;4
0;6
0;12
#172
1;0
0;9
0;11
#173
0;0
0;3
1;5
#174
1;0
1;11
#175
0;0
0;2
0;5
#176
1;0
0;11
#177
0;0
1;4
#178
1;0
#179
0;0
1;1
1;3
0;4
1;5
1;6
#180
1;0
1;8
1;9
#181
0;0
1;2
0;3
0;5
0;8
0;9
#182
1;0
#183
0;0
0;1
0;2
1;4
1;12
#184
1;0
0;12
#185
0;0
1;1
1;3
#186
1;0
1;7
1;9
#187
0;0
0;3
0;4
0;6
0;9
#188
1;0
0;7
#189
0;0
0;1
1;2
1;5
1;6
#190
1;0
1;8
#191
0;0
1;1
1;3
#192
1;0
1;9
#193
0;0
0;2
1;4
1;12
#194
1;0
1;10
0;12
#195
0;0
0;4
#196
1;0
1;7
1;11
#197
0;0
0;1
1;2
0;3
0;6
0;9
#198
1;0
0;7
0;8
#199
0;0
1;3
1;4
1;12
#200
1;0
0;11
#201
0;0
1;6
#202
1;0
1;7
1;8
0;10
#203
0;0
0;2
0;6
#204
1;0
0;8
0;12
#205
0;0
0;3
1;6
#206
1;0
1;8
1;10
#207
0;0
1;1
1;2
#208
1;0
0;7
0;10
1;12
#209
0;0
1;3
0;4
0;5
0;6
0;8
1;9
0;12
#210
1;0
1;10
#211
0;0
0;1
#212
1;0
0;9
0;10
1;11
#213
0;0
1;1
0;3
#214
1;0
#215
0;0
0;1
1;6
#216
1;0
0;11
#217
0;0
1;1
#218
1;0
#219
0;0
1;3
1;5
1;8
1;9
#220
1;0
#221
0;0
0;2
0;3
0;5
0;8
0;9
#222
1;0
1;10
1;11
#223
0;0
1;2
1;4
1;5
0;6
#224
1;0
1;8
0;10
0;11
1;12
#225
0;0
1;3
0;4
1;9
0;12
#226
1;0
0;8
#227
0;0
0;2
0;5
#228
1;0
1;10
1;11
#229
0;0
1;6
#230
1;0
0;10
#231
0;0
0;1
1;2
#232
1;0
0;9
#233
0;0
1;1
0;3
1;4
1;12
#234
1;0
#235
0;0
0;1
0;2
#236
1;0
1;7
0;11
0;12
#237
0;0
1;1
1;2
1;3
1;5
0;6
1;8
#238
1;0
0;8
1;9
1;12
#239
0;0
0;3
0;4
0;9
0;12
#240
1;0
0;7
1;10
#241
0;0
0;5
#242
1;0
0;10
#243
0;0
1;3
1;4
1;5
1;6
1;9
1;12
#244
1;0
1;8
#245
0;0
0;1
0;4
0;5
0;8
0;12
#246
1;0
1;7
0;9
1;11
#247
0;0
1;1
0;2
1;4
1;5
0;6
1;8
1;12
#248
1;0
0;7
0;8
1;9
0;12
#249
0;0
0;5
1;6
#250
1;0
1;7
1;10
0;11
#251
0;0
0;3
0;6
0;9
#252
1;0
0;7
0;10
1;11
#253
0;0
0;4
1;5
1;6
#254
1;0
1;8
0;11
#255
0;0
0;1
1;4
0;5
0;6
0;8
#256
1;0
#257
0;0
1;1
0;4
1;5
1;6
#258
1;0
1;8
#259
0;0
0;1
1;3
0;6
1;9
#260
1;0
0;8
0;9
#261
0;0
1;1
0;3
1;4
0;5
#262
1;0
1;10
1;11
#263
0;0
0;1
1;2
0;4
#264
1;0
0;10
0;11
#265
0;0
1;1
0;2
1;4
1;5
1;12
#266
1;0
0;12
#267
0;0
0;4
0;5
1;6
#268
1;0
1;7
#269
0;0
1;2
1;3
1;4
1;5
0;6
1;8
1;9
#270
1;0
0;7
0;8
1;12
#271
0;0
0;2
1;6
#272
1;0
1;8
1;10
1;11
0;12
#273
0;0
1;2
0;3
0;4
0;6
0;8
0;9
#274
1;0
1;7
1;8
0;10
#275
0;0
0;1
0;2
#276
1;0
0;7
0;8
0;11
#277
0;0
1;2
1;4
1;6
#278
1;0
1;8
1;10
1;12
#279
0;0
0;2
0;4
0;12
#280
1;0
0;10
#281
0;0
1;3
1;4
0;6
#282
1;0
0;8
1;10
#283
0;0
1;2
0;3
1;6
#284
1;0
1;8
1;12
#285
0;0
1;1
0;4
0;12
#286
1;0
0;10
#287
0;0
0;1
0;5
0;8
#288
1;0
1;10
#289
0;0
1;1
1;4
1;5
1;8
1;12
#290
1;0
0;10
#291
0;0
0;1
#292
1;0
1;7
1;10
#293
0;0
0;4
0;5
0;8
0;12
#294
1;0
#295
0;0
1;1
0;2
1;4
1;12
#296
1;0
0;7
0;10
0;12
#297
0;0
1;3
1;9
#298
1;0
1;7
#299
0;0
0;3
1;5
1;8
0;9
#300
1;0
0;7
1;11
#301
0;0
0;1
1;3
0;4
0;6
1;9
#302
1;0
0;8
0;9
1;10
0;11
#303
0;0
1;2
#304
1;0
1;11
#305
0;0
0;3
0;5
#306
1;0
0;10
0;11
#307
0;0
1;4
1;5
1;12
#308
1;0
#309
0;0
0;2
#310
1;0
1;7
0;12
#311
0;0
1;2
0;5
1;6
#312
1;0
1;12
#313
0;0
1;1
0;2
1;3
0;6
#314
1;0
0;7
1;9
0;12
#315
0;0
1;5
#316
1;0
1;7
#317
0;0
1;2
0;5
#318
1;0
0;7
1;11
1;12
#319
0;0
0;2
0;3
0;4
1;5
1;6
0;9
0;12
#320
1;0
1;8
#321
0;0
0;1
1;3
1;9
#322
1;0
0;9
0;11
#323
0;0
1;1
1;2
0;5
0;8
#324
1;0
1;9
1;10
1;11
#325
0;0
0;3
0;9
#326
1;0
0;10
0;11
#327
0;0
0;1
0;6
#328
1;0
#329
0;0
1;4
1;5
1;12
#330
1;0
#331
0;0
1;6
#332
1;0
1;7
1;8
#333
0;0
0;6
#334
1;0
0;8
#335
0;0
1;1
0;2
1;3
1;6
#336
1;0
1;8
1;9
1;10
0;12
#337
0;0
0;1
1;2
0;3
0;4
0;6
0;8
0;9
#338
1;0
1;8
0;10
#339
0;0
0;2
1;6
#340
1;0
0;7
#341
0;0
1;2
1;3
0;6
#342
1;0
0;8
1;10
#343
0;0
1;6
#344
1;0
1;8
#345
0;0
1;1
0;2
0;6
0;8
#346
1;0
1;8
1;9
0;10
#347
0;0
0;1
1;2
0;3
1;6
0;9
#348
1;0
#349
0;0
1;1
1;3
1;4
0;6
1;12
#350
1;0
0;8
1;9
1;10
#351
0;0
0;1
0;2
0;3
0;5
1;6
0;9
#352
1;0
1;7
0;12
#353
0;0
1;5
1;8
#354
1;0
0;10
#355
0;0
1;3
0;4
0;5
0;6
0;8
#356
1;0
0;7
1;10
#357
0;0
1;5
#358
1;0
0;10
#359
0;0
1;4
1;6
#360
1;0
1;8
#361
0;0
1;2
0;4
#362
1;0
#363
0;0
1;1
0;3
1;4
0;5
0;8
1;12
#364
1;0
1;10
#365
0;0
1;3
0;4
1;5
1;8
1;9
0;12
#366
1;0
1;7
0;10
#367
0;0
0;3
0;5
0;8
0;9
#368
1;0
0;7
1;10
1;11
#369
0;0
0;2
1;3
1;5
0;6
1;9
#370
1;0
1;8
0;10
0;11
#371
0;0
1;2
#372
1;0
0;8
1;11
#373
0;0
0;1
0;2
0;5
#374
1;0
0;9
1;10
#375
0;0
1;1
1;2
1;5
#376
1;0
1;9
0;10
#377
0;0
0;2
1;4
1;6
1;12
#378
1;0
1;8
0;11
0;12
#379
0;0
0;1
0;5
0;8
#380
1;0
1;7
0;9
1;11
#381
0;0
1;1
0;3
0;6
#382
1;0
0;7
#383
0;0
#384
1;0
0;11
#385
0;0
1;2
1;3
0;4
1;5
1;6
1;9
#386
1;0
1;8
#387
0;0
0;1
1;4
0;5
0;6
0;8
1;12
#388
1;0
0;9
1;11
#389
0;0
1;1
0;3
0;4
1;6
0;12
#390
1;0
1;7
#391
0;0
0;2
1;3
1;5
1;8
1;9
#392
1;0
0;7
0;11
#393
0;0
0;1
0;3
0;6
0;9
#394
1;0
0;8
1;10
1;11
#395
0;0
1;1
0;5
1;6
#396
1;0
0;11
#397
0;0
1;4
#398
1;0
0;10
#399
0;0
1;2
0;4
1;5
0;6
1;8
#400
1;0
0;8
#401
0;0
1;6
#402
1;0
1;8
1;10
#403
0;0
1;4
1;12
#404
1;0
0;10
#405
0;0
0;1
0;2
0;4
0;6
0;12
#406
1;0
1;7
0;8
1;10
#407
0;0
1;1
1;3
1;6
#408
1;0
0;7
1;8
1;9
#409
0;0
1;2
0;3
1;4
0;9
#410
1;0
0;10
1;12
#411
0;0
0;2
0;4
0;5
0;8
0;12
#412
1;0
1;10
#413
0;0
1;2
1;4
1;5
0;6
#414
1;0
1;8
0;10
1;12
#415
0;0
1;6
#416
1;0
#417
0;0
0;2
0;4
0;5
0;8
0;12
#418
1;0
1;7
1;10
#419
0;0
1;2
1;4
#420
1;0
0;7
0;10
1;12
#421
0;0
0;2
1;3
1;9
#422
1;0
0;12
#423
0;0
1;2
1;5
0;6
1;8
#424
1;0
1;7
0;8
1;11
1;12
#425
0;0
0;2
0;4
0;12
#426
1;0
0;7
1;10
#427
0;0
0;3
1;4
1;6
0;9
#428
1;0
1;8
0;10
#429
0;0
0;5
0;8
#430
1;0
0;11
#431
0;0
1;2
1;3
0;4
1;9
#432
1;0
#433
0;0
0;1
0;3
1;4
1;5
1;8
0;9
1;12
#434
1;0
1;11
#435
0;0
1;1
0;2
1;3
0;4
0;5
0;6
0;8
0;12
#436
1;0
1;7
1;9
1;10
0;11
#437
0;0
0;1
1;5
#438
1;0
0;7
0;9
0;10
#439
0;0
1;1
0;3
0;5
#440
1;0
1;11
#441
0;0
1;2
1;3
1;5
1;9
#442
1;0
0;11
#443
0;0
1;4
0;5
1;12
#444
1;0
1;11
#445
0;0
0;4
1;5
1;6
0;12
#446
1;0
1;7
1;8
#447
0;0
0;5
0;8
#448
1;0
0;7
#449
0;0
0;1
1;5
1;8
#450
1;0
0;9
#451
0;0
1;1
0;2
0;3
0;5
0;6
0;8
#452
1;0
1;10
#453
0;0
0;1
1;2
1;3
1;5
1;9
#454
1;0
0;9
0;10
0;11
#455
0;0
0;2
1;4
0;5
1;6
1;12
#456
1;0
1;11
0;12
#457
0;0
1;1
1;2
0;3
0;4
1;5
0;6
1;8
#458
1;0
1;7
0;8
0;11
#459
0;0
1;4
0;5
1;6
1;12
#460
1;0
0;7
1;10
#461
0;0
0;1
1;5
0;6
#462
1;0
1;7
1;8
0;10
#463
0;0
1;1
0;2
0;4
0;5
1;6
0;8
0;12
#464
1;0
#465
0;0
0;1
1;3
1;9
#466
1;0
0;7
0;9
#467
0;0
1;1
1;2
1;4
1;5
0;6
1;8
#468
1;0
0;8
1;9
1;11
1;12
#469
0;0
0;1
0;3
0;4
0;5
0;9
0;12
#470
1;0
1;10
0;11
#471
0;0
1;1
0;2
1;3
1;4
1;5
1;12
#472
1;0
1;9
0;10
0;12
#473
0;0
0;1
0;3
0;4
0;9
#474
1;0
1;7
#475
0;0
1;1
1;2
1;3
1;6
#476
1;0
0;7
1;8
1;9
#477
0;0
0;2
0;3
0;5
0;8
0;9
#478
1;0
#479
0;0
1;4
0;6
#480
1;0
#481
0;0
1;2
1;3
0;4
1;5
1;9
#482
1;0
#483
0;0
0;1
1;4
1;12
#484
1;0
0;9
1;11
#485
0;0
1;1
0;2
0;4
0;5
1;6
0;12
#486
1;0
1;7
1;9
#487
0;0
1;2
1;4
#488
1;0
0;7
0;11
1;12
#489
0;0
#490
1;0
1;11
#491
0;0
0;1
1;5
0;6
1;8
#492
1;0
1;7
0;8
0;9
#493
0;0
1;1
0;4
0;5
0;12
#494
1;0
1;9
1;10
#495
0;0
0;1
0;2
0;3
0;9
#496
1;0
0;7
0;10
0;11
#497
0;0
1;1
1;3
1;5
1;6
#498
1;0
1;8
1;9
#499
0;0
0;1
0;3
1;4
0;5
0;6
0;8
0;9
#500
1;0
#501
0;0
1;1
1;3
0;4
1;5
#502
1;0
1;9
#503
0;0
0;1
0;3
1;4
0;9
#504
1;0
#505
0;0
1;1
1;2
1;6
#506
1;0
1;8
1;12
#507
0;0
0;2
1;3
0;4
0;6
1;9
0;12
#508
1;0
0;8
#509
0;0
0;1
1;2
0;5
1;6
#510
1;0
0;9
1;10
1;11
#511
0;0
1;1
1;5
0;6
#512
1;0
1;8
1;9
0;10
#513
0;0
0;3
1;4
0;5
1;6
0;8
0;9
1;12
#514
1;0
0;11
#515
0;0
1;3
0;4
0;6
1;9
0;12
#516
1;0
1;7
#517
0;0
#518
1;0
0;7
1;11
#519
0;0
0;1
0;2
1;4
1;6
1;12
#520
1;0
0;9
0;12
#521
0;0
1;2
0;6
#522
1;0
1;7
1;12
#523
0;0
1;1
0;3
0;4
0;12
#524
1;0
0;7
0;11
#525
0;0
1;5
#526
1;0
#527
0;0
0;2
0;5
#528
1;0
#529
0;0
0;1
1;2
1;4
#530
1;0
1;12
#531
0;0
#532
1;0
#533
0;0
0;2
1;3
0;4
1;6
0;12
#534
1;0
1;7
#535
0;0
1;2
0;3
0;6
#536
1;0
0;7
#537
0;0
1;1
1;4
1;5
1;6
1;12
#538
1;0
1;8
#539
0;0
0;5
0;6
0;8
#540
1;0
1;7
#541
0;0
0;2
1;3
1;9
#542
1;0
0;12
#543
0;0
0;3
0;4
0;9
#544
1;0
1;11
#545
0;0
1;3
1;5
1;6
1;9
#546
1;0
0;7
1;8
0;11
#547
0;0
0;1
0;3
0;9
#548
1;0
1;11
#549
0;0
1;1
1;4
0;6
#550
1;0
0;8
1;10
0;11
#551
0;0
0;1
1;3
0;5
1;6
1;9
#552
1;0
0;9
#553
0;0
1;1
1;2
#554
1;0
1;9
0;10
1;11
1;12
#555
0;0
1;5
0;6
1;8
#556
1;0
0;8
0;11
#557
0;0
0;1
0;3
0;5
1;6
0;9
#558
1;0
1;7
1;10
1;11
#559
0;0
1;3
1;5
0;6
#560
1;0
1;8
0;10
0;11
#561
0;0
1;1
0;4
0;5
1;6
0;8
0;12
#562
1;0
1;9
#563
0;0
0;2
0;3
1;5
0;6
1;8
0;9
#564
1;0
0;7
0;8
#565
0;0
1;2
1;4
0;5
1;6
#566
1;0
1;10
1;12
#567
0;0
0;2
1;3
0;4
1;5
1;8
1;9
0;12
#568
1;0
0;10
#569
0;0
0;3
1;4
0;9
#570
1;0
1;10
1;11
#571
0;0
0;4
#572
1;0
0;11
#573
0;0
1;3
0;6
1;9
#574
1;0
0;8
#575
0;0
0;1
1;6
#576
1;0
1;8
0;9
1;11
#577
0;0
1;2
0;3
1;4
#578
1;0
0;10
1;12
#579
0;0
0;2
1;3
0;4
0;6
0;12
#580
1;0
0;8
1;10
0;11
#581
0;0
1;2
#582
1;0
#583
0;0
1;1
0;3
1;6
#584
1;0
1;8
0;10
#585
0;0
0;5
0;8
#586
1;0
#587
0;0
0;1
0;2
1;5
1;8
#588
1;0
#589
0;0
1;1
1;2
1;4
#590
1;0
1;10
1;12
#591
0;0
0;4
0;5
0;6
0;8
0;12
#592
1;0
#593
0;0
0;1
1;3
1;4
1;9
1;12
#594
1;0
0;9
0;10
#595
0;0
0;4
1;5
1;6
0;12
#596
1;0
1;7
1;8
1;11
#597
0;0
0;6
#598
1;0
0;7
0;8
0;11
#599
0;0
0;5
1;6
#600
1;0
1;10
#601
0;0
1;1
0;3
0;6
#602
1;0
0;10
#603
0;0
0;1
0;2
1;4
1;5
1;12
#604
1;0
0;12
#605
0;0
1;1
1;3
0;4
0;5
#606
1;0
1;7
1;9
#607
0;0
0;1
0;3
1;4
1;5
1;6
0;9
#608
1;0
0;7
1;8
#609
0;0
1;2
0;6
#610
1;0
0;8
1;12
#611
0;0
0;2
0;5
#612
1;0
1;10
0;12
#613
0;0
1;1
1;5
#614
1;0
1;7
0;10
#615
0;0
0;4
#616
1;0
0;7
#617
0;0
1;2
1;3
1;4
0;5
1;9
#618
1;0
1;12
#619
0;0
0;1
0;2
#620
1;0
0;9
1;11
0;12
#621
0;0
1;1
0;3
1;5
1;6
#622
1;0
1;7
1;8
#623
0;0
1;2
1;3
0;4
0;5
0;8
1;9
#624
1;0
0;7
0;11
#625
0;0
0;1
0;2
0;6
#626
1;0
0;9
1;11
#627
0;0
1;2
1;4
#628
1;0
1;12
#629
0;0
1;1
0;3
0;4
0;12
#630
1;0
0;11
#631
0;0
0;1
1;3
1;4
1;5
1;9
1;12
#632
1;0
0;9
#633
0;0
0;2
0;5
#634
1;0
1;7
1;11
0;12
#635
0;0
0;3
0;4
#636
1;0
0;11
#637
0;0
1;2
#638
1;0
0;7
#639
0;0
0;2
1;3
1;6
#640
1;0
#641
0;0
1;1
1;2
0;6
#642
1;0
1;9
#643
0;0
0;1
0;2
0;3
1;5
1;6
0;9
#644
1;0
1;8
#645
0;0
1;3
0;5
0;6
0;8
#646
1;0
#647
0;0
1;6
#648
1;0
#649
0;0
1;1
1;5
0;6
1;8
#650
1;0
0;8
1;9
#651
0;0
0;1
1;4
0;5
1;6
#652
1;0
0;9
1;10
#653
0;0
1;1
0;6
#654
1;0
1;9
0;10
1;11
#655
0;0
0;1
0;3
0;4
0;9
#656
1;0
0;11
#657
0;0
1;2
1;3
1;4
1;5
1;6
#658
1;0
1;8
1;12
#659
0;0
0;2
0;3
0;4
0;12
#660
1;0
#661
0;0
1;2
1;3
1;4
0;5
0;8
#662
1;0
1;10
1;12
#663
0;0
0;6
#664
1;0
0;10
#665
0;0
1;1
0;3
0;4
1;5
1;6
0;12
#666
1;0
1;7
1;8
#667
0;0
0;1
1;4
0;5
0;8
1;12
#668
1;0
0;7
#669
0;0
1;1
0;2
#670
1;0
1;7
0;12
#671
0;0
0;1
1;5
0;6
1;8
#672
1;0
0;8
#673
0;0
1;2
1;3
0;5
1;6
#674
1;0
0;7
1;10
1;12
#675
0;0
1;1
0;2
0;3
0;4
0;12
#676
1;0
0;10
#677
0;0
1;4
0;6
#678
1;0
#679
0;0
0;1
1;2
1;3
0;4
1;6
1;9
#680
1;0
0;9
#681
0;0
1;1
0;2
0;3
1;4
1;5
1;8
1;12
#682
1;0
1;11
0;12
#683
0;0
1;2
1;3
0;4
0;5
0;8
1;9
#684
1;0
1;7
1;10
0;11
#685
0;0
0;1
0;2
#686
1;0
0;7
0;9
0;10
1;11
#687
0;0
1;2
0;3
0;6
#688
1;0
#689
0;0
1;1
0;2
1;3
1;5
1;6
#690
1;0
1;8
1;9
0;11
#691
0;0
1;4
0;5
0;6
0;8
#692
1;0
#693
0;0
1;2
0;4
1;6
#694
1;0
1;11
#695
0;0
0;2
1;4
1;12
#696
1;0
0;12
#697
0;0
0;1
0;3
0;4
1;5
0;6
1;8
0;9
#698
1;0
1;7
0;8
#699
0;0
1;3
1;4
0;5
#700
1;0
0;7
1;10
0;11
#701
0;0
1;2
0;3
1;5
#702
1;0
0;10
1;12
#703
0;0
1;1
0;2
0;4
0;5
0;12
#704
1;0
#705
0;0
0;1
1;2
1;4
#706
1;0
1;12
#707
0;0
1;1
1;3
1;5
#708
1;0
1;9
#709
0;0
0;1
0;2
0;3
0;9
#710
1;0
1;7
0;12
#711
0;0
1;1
1;3
#712
1;0
1;9
#713
0;0
0;1
1;2
0;3
0;4
0;9
#714
1;0
0;7
#715
0;0
#716
1;0
#717
0;0
0;2
1;3
1;4
1;6
1;12
#718
1;0
1;8
0;12
#719
0;0
1;1
1;2
0;5
0;6
0;8
#720
1;0
1;7
1;9
1;12
#721
0;0
0;3
1;5
0;9
#722
1;0
0;7
#723
0;0
1;3
0;4
1;9
0;12
#724
1;0
1;7
#725
0;0
0;1
0;3
1;6
0;9
#726
1;0
0;7
1;8
1;11
#727
0;0
1;1
1;3
0;6
#728
1;0
0;8
1;9
0;11
#729
0;0
0;2
0;3
0;5
0;9
#730
1;0
1;10
#731
0;0
1;2
1;4
1;6
#732
1;0
0;10
1;12
#733
0;0
0;2
0;4
0;12
#734
1;0
#735
0;0
1;4
1;5
1;8
#736
1;0
#737
0;0
0;1
0;5
0;8
#738
1;0
1;10
#739
0;0
1;1
0;6
#740
1;0
0;10
#741
0;0
0;1
1;2
1;3
0;4
1;5
1;9
#742
1;0
0;9
#743
0;0
1;1
0;2
0;3
1;4
1;12
#744
1;0
1;11
0;12
#745
0;0
0;1
0;4
1;6
#746
1;0
1;7
1;8
0;11
#747
0;0
1;1
1;2
1;3
1;4
0;5
0;6
0;8
#748
1;0
0;7
1;9
1;12
#749
0;0
0;3
1;5
0;9
#750
1;0
#751
0;0
0;4
1;6
0;12
#752
1;0
1;7
1;8
#753
0;0
0;1
0;2
1;3
0;6
1;9
#754
1;0
0;7
0;8
0;9
#755
0;0
1;2
0;3
1;4
1;6
#756
1;0
1;8
1;10
1;11
1;12
#757
0;0
0;2
0;4
0;6
0;8
0;12
#758
1;0
1;8
0;10
0;11
#759
0;0
1;6
#760
1;0
#761
0;0
#762
1;0
1;10
#763
0;0
1;1
1;2
1;3
1;4
0;5
0;6
0;8
#764
1;0
1;9
1;12
#765
0;0
0;2
0;4
1;5
0;12
#766
1;0
0;10
#767
0;0
0;3
0;5
1;6
0;9
#768
1;0
1;11
#769
0;0
0;1
#770
1;0
0;11
#771
0;0
1;1
1;4
1;5
1;8
#772
1;0
#773
0;0
0;1
0;6
#774
1;0
0;8
1;10
#775
0;0
1;1
1;2
1;3
0;4
#776
1;0
1;9
#777
0;0
0;1
0;2
0;3
0;5
0;9
#778
1;0
0;10
#779
0;0
1;2
1;5
#780
1;0
#781
0;0
1;1
1;3
1;4
0;5
1;12
#782
1;0
1;9
#783
0;0
0;1
0;3
0;9
#784
1;0
1;7
#785
0;0
1;1
0;2
1;3
0;4
0;12
#786
1;0
1;9
#787
0;0
1;2
0;3
1;4
1;5
1;6
0;9
#788
1;0
0;7
1;8
1;12
#789
0;0
0;1
0;4
0;12
#790
1;0
#791
0;0
1;1
0;5
0;8
#792
1;0
1;10
#793
0;0
0;1
0;6
#794
1;0
0;10
#795
0;0
1;4
1;6
1;12
#796
1;0
#797
0;0
1;1
0;4
0;12
#798
1;0
1;7
#799
0;0
0;2
1;3
1;4
1;5
0;6
1;8
1;9
1;12
#800
1;0
0;7
0;8
0;12
#801
0;0
0;1
0;5
#802
1;0
1;7
0;9
1;10
1;11
#803
0;0
0;4
1;6
#804
1;0
0;7
0;10
#805
0;0
1;2
0;3
1;4
0;6
#806
1;0
0;11
1;12
#807
0;0
0;2
1;3
0;4
0;12
#808
1;0
#809
0;0
1;1
1;2
0;3
1;6
#810
1;0
#811
0;0
0;2
1;3
1;5
1;8
1;9
#812
1;0
#813
0;0
0;1
1;2
1;4
0;6
#814
1;0
0;8
0;9
1;10
1;11
1;12
#815
0;0
0;2
1;6
#816
1;0
1;8
0;12
#817
0;0
1;1
1;2
#818
1;0
1;7
1;9
0;10
0;11
1;12
#819
0;0
0;2
0;3
0;6
0;9
#820
1;0
0;7
0;8
1;10
0;12
#821
0;0
1;3
0;4
0;5
1;9
#822
1;0
1;7
#823
0;0
0;1
1;2
0;3
1;4
1;6
0;9
#824
1;0
0;7
0;10
1;11
1;12
#825
0;0
1;1
1;3
0;4
0;6
0;12
#826
1;0
1;9
0;11
#827
0;0
0;1
1;4
1;12
#828
1;0
0;9
#829
0;0
1;1
1;5
#830
1;0
1;7
1;9
1;11
#831
0;0
0;1
0;2
0;3
0;5
0;9
#832
1;0
0;11
0;12
#833
0;0
1;1
1;3
#834
1;0
1;9
#835
0;0
1;2
0;4
1;6
#836
1;0
0;7
#837
0;0
0;2
0;3
1;5
1;8
0;9
#838
1;0
1;11
#839
0;0
0;5
0;8
#840
1;0
1;10
0;11
#841
0;0
0;1
1;3
1;5
0;6
1;9
